ARM GAS  C:\Users\antarp\AppData\Local\Temp\cc6PrePa.s 			page 1


   1              		.syntax unified
   2              		.cpu cortex-m3
   3              		.fpu softvfp
   4              		.eabi_attribute 20, 1
   5              		.eabi_attribute 21, 1
   6              		.eabi_attribute 23, 3
   7              		.eabi_attribute 24, 1
   8              		.eabi_attribute 25, 1
   9              		.eabi_attribute 26, 1
  10              		.eabi_attribute 30, 1
  11              		.eabi_attribute 34, 1
  12              		.eabi_attribute 18, 4
  13              		.thumb
  14              		.syntax unified
  15              		.file	"CapSense_SMS_Wrapper.c"
  16              		.text
  17              	.Ltext0:
  18              		.cfi_sections	.debug_frame
  19              		.section	.text.SMS_LIB_ScanSensor,"ax",%progbits
  20              		.align	2
  21              		.global	SMS_LIB_ScanSensor
  22              		.thumb
  23              		.thumb_func
  24              		.type	SMS_LIB_ScanSensor, %function
  25              	SMS_LIB_ScanSensor:
  26              	.LFB0:
  27              		.file 1 "Generated_Source\\PSoC5\\CapSense_SMS_Wrapper.c"
   1:Generated_Source\PSoC5/CapSense_SMS_Wrapper.c **** /*******************************************************************************
   2:Generated_Source\PSoC5/CapSense_SMS_Wrapper.c **** * File Name: CapSense_SMS_Wrapper.c
   3:Generated_Source\PSoC5/CapSense_SMS_Wrapper.c **** * Version 3.50
   4:Generated_Source\PSoC5/CapSense_SMS_Wrapper.c **** *
   5:Generated_Source\PSoC5/CapSense_SMS_Wrapper.c **** * Description:
   6:Generated_Source\PSoC5/CapSense_SMS_Wrapper.c **** *  This file provides the source code of wrapper between CapSense CSD component 
   7:Generated_Source\PSoC5/CapSense_SMS_Wrapper.c **** *  and Auto Tuning library.
   8:Generated_Source\PSoC5/CapSense_SMS_Wrapper.c **** *
   9:Generated_Source\PSoC5/CapSense_SMS_Wrapper.c **** * Note:
  10:Generated_Source\PSoC5/CapSense_SMS_Wrapper.c **** *
  11:Generated_Source\PSoC5/CapSense_SMS_Wrapper.c **** ********************************************************************************
  12:Generated_Source\PSoC5/CapSense_SMS_Wrapper.c **** * Copyright 2008-2012, Cypress Semiconductor Corporation.  All rights reserved.
  13:Generated_Source\PSoC5/CapSense_SMS_Wrapper.c **** * You may use this file only in accordance with the license, terms, conditions,
  14:Generated_Source\PSoC5/CapSense_SMS_Wrapper.c **** * disclaimers, and limitations in the end user license agreement accompanying
  15:Generated_Source\PSoC5/CapSense_SMS_Wrapper.c **** * the software package with which this file was provided.
  16:Generated_Source\PSoC5/CapSense_SMS_Wrapper.c **** *******************************************************************************/
  17:Generated_Source\PSoC5/CapSense_SMS_Wrapper.c **** 
  18:Generated_Source\PSoC5/CapSense_SMS_Wrapper.c **** #include "CapSense.h"
  19:Generated_Source\PSoC5/CapSense_SMS_Wrapper.c **** #include "CapSense_CSHL.h"
  20:Generated_Source\PSoC5/CapSense_SMS_Wrapper.c **** 
  21:Generated_Source\PSoC5/CapSense_SMS_Wrapper.c **** #if (CapSense_TUNING_METHOD == CapSense_AUTO_TUNING)
  22:Generated_Source\PSoC5/CapSense_SMS_Wrapper.c **** 
  23:Generated_Source\PSoC5/CapSense_SMS_Wrapper.c **** extern uint8 CapSense_noiseThreshold[CapSense_WIDGET_CSHL_PARAMETERS_COUNT];
  24:Generated_Source\PSoC5/CapSense_SMS_Wrapper.c **** extern uint8 CapSense_hysteresis[CapSense_WIDGET_CSHL_PARAMETERS_COUNT];
  25:Generated_Source\PSoC5/CapSense_SMS_Wrapper.c **** extern uint8 CapSense_widgetResolution[CapSense_WIDGET_RESOLUTION_PARAMETERS_COUNT];
  26:Generated_Source\PSoC5/CapSense_SMS_Wrapper.c **** extern const uint8 CYCODE CapSense_numberOfSensors[CapSense_SENSORS_TBL_SIZE];
  27:Generated_Source\PSoC5/CapSense_SMS_Wrapper.c **** extern const uint8 CYCODE CapSense_rawDataIndex[CapSense_SENSORS_TBL_SIZE];
  28:Generated_Source\PSoC5/CapSense_SMS_Wrapper.c **** 
  29:Generated_Source\PSoC5/CapSense_SMS_Wrapper.c **** extern uint8 CapSense_fingerThreshold[CapSense_WIDGET_CSHL_PARAMETERS_COUNT];
  30:Generated_Source\PSoC5/CapSense_SMS_Wrapper.c **** extern uint8 CapSense_idacSettings[CapSense_TOTAL_SENSOR_COUNT];
ARM GAS  C:\Users\antarp\AppData\Local\Temp\cc6PrePa.s 			page 2


  31:Generated_Source\PSoC5/CapSense_SMS_Wrapper.c **** extern uint8 CapSense_analogSwitchDivider[CapSense_TOTAL_SCANSLOT_COUNT];
  32:Generated_Source\PSoC5/CapSense_SMS_Wrapper.c **** 
  33:Generated_Source\PSoC5/CapSense_SMS_Wrapper.c **** extern void SMS_LIB_V3_50_CalculateThresholds(uint8 SensorNumber);
  34:Generated_Source\PSoC5/CapSense_SMS_Wrapper.c **** extern void SMS_LIB_V3_50_AutoTune1Ch(void);
  35:Generated_Source\PSoC5/CapSense_SMS_Wrapper.c **** extern void SMS_LIB_V3_50_AutoTune2Ch(void);
  36:Generated_Source\PSoC5/CapSense_SMS_Wrapper.c **** 
  37:Generated_Source\PSoC5/CapSense_SMS_Wrapper.c **** uint8  * SMS_LIB_noiseThreshold = CapSense_noiseThreshold;
  38:Generated_Source\PSoC5/CapSense_SMS_Wrapper.c **** uint8 * SMS_LIB_hysteresis = CapSense_hysteresis;
  39:Generated_Source\PSoC5/CapSense_SMS_Wrapper.c **** 
  40:Generated_Source\PSoC5/CapSense_SMS_Wrapper.c **** uint8 * SMS_LIB_widgetResolution = CapSense_widgetResolution;
  41:Generated_Source\PSoC5/CapSense_SMS_Wrapper.c **** 
  42:Generated_Source\PSoC5/CapSense_SMS_Wrapper.c **** const uint8 CYCODE * SMS_LIB_widgetNumber = CapSense_widgetNumber;
  43:Generated_Source\PSoC5/CapSense_SMS_Wrapper.c **** const uint8 CYCODE * SMS_LIB_numberOfSensors = CapSense_numberOfSensors;
  44:Generated_Source\PSoC5/CapSense_SMS_Wrapper.c **** const uint8 CYCODE * SMS_LIB_rawDataIndex = CapSense_rawDataIndex;
  45:Generated_Source\PSoC5/CapSense_SMS_Wrapper.c **** 
  46:Generated_Source\PSoC5/CapSense_SMS_Wrapper.c **** uint8 * SMS_LIB_fingerThreshold = CapSense_fingerThreshold;
  47:Generated_Source\PSoC5/CapSense_SMS_Wrapper.c **** uint8 * SMS_LIB_idacSettings = CapSense_idacSettings;
  48:Generated_Source\PSoC5/CapSense_SMS_Wrapper.c **** uint8 * SMS_LIB_prescaler = CapSense_analogSwitchDivider;
  49:Generated_Source\PSoC5/CapSense_SMS_Wrapper.c **** 
  50:Generated_Source\PSoC5/CapSense_SMS_Wrapper.c **** uint16 * SMS_LIB_SensorRaw = CapSense_sensorRaw;
  51:Generated_Source\PSoC5/CapSense_SMS_Wrapper.c **** uint16 * SMS_LIB_SensorBaseline = CapSense_sensorBaseline;
  52:Generated_Source\PSoC5/CapSense_SMS_Wrapper.c **** 
  53:Generated_Source\PSoC5/CapSense_SMS_Wrapper.c **** const uint8 CYCODE SMS_LIB_SensorSensitivity[] = {
  54:Generated_Source\PSoC5/CapSense_SMS_Wrapper.c ****     2, 2, 2, 2, 2, 2, 
  55:Generated_Source\PSoC5/CapSense_SMS_Wrapper.c **** };
  56:Generated_Source\PSoC5/CapSense_SMS_Wrapper.c **** 
  57:Generated_Source\PSoC5/CapSense_SMS_Wrapper.c **** 
  58:Generated_Source\PSoC5/CapSense_SMS_Wrapper.c **** const uint8 CYCODE SMS_LIB_PrescalerTbl[] = {
  59:Generated_Source\PSoC5/CapSense_SMS_Wrapper.c ****     1u, 1u, 1u, 1u, 1u, 1u, 2u, 2u, 2u, 2u, 2u, 3u, 3u, 3u, 3u, 3u, 3u, 4u, 4u, 4u, 4u, 4u, 4u, 5u,
  60:Generated_Source\PSoC5/CapSense_SMS_Wrapper.c **** };
  61:Generated_Source\PSoC5/CapSense_SMS_Wrapper.c **** 
  62:Generated_Source\PSoC5/CapSense_SMS_Wrapper.c **** 
  63:Generated_Source\PSoC5/CapSense_SMS_Wrapper.c **** 
  64:Generated_Source\PSoC5/CapSense_SMS_Wrapper.c **** uint8 SMS_LIB_Table2[CapSense_TOTAL_SENSOR_COUNT];
  65:Generated_Source\PSoC5/CapSense_SMS_Wrapper.c **** uint8 SMS_LIB_Table3[CapSense_TOTAL_SENSOR_COUNT];
  66:Generated_Source\PSoC5/CapSense_SMS_Wrapper.c **** uint16 SMS_LIB_Table4[CapSense_TOTAL_SENSOR_COUNT];
  67:Generated_Source\PSoC5/CapSense_SMS_Wrapper.c **** uint16 SMS_LIB_Table5[CapSense_TOTAL_SENSOR_COUNT];
  68:Generated_Source\PSoC5/CapSense_SMS_Wrapper.c **** uint8 SMS_LIB_Table6[CapSense_TOTAL_SENSOR_COUNT];
  69:Generated_Source\PSoC5/CapSense_SMS_Wrapper.c **** uint8 SMS_LIB_Table7[CapSense_TOTAL_SENSOR_COUNT];
  70:Generated_Source\PSoC5/CapSense_SMS_Wrapper.c **** 
  71:Generated_Source\PSoC5/CapSense_SMS_Wrapper.c **** uint8 SMS_LIB_Table8[CapSense_END_OF_WIDGETS_INDEX];
  72:Generated_Source\PSoC5/CapSense_SMS_Wrapper.c **** uint8 SMS_LIB_Table9[CapSense_END_OF_WIDGETS_INDEX];
  73:Generated_Source\PSoC5/CapSense_SMS_Wrapper.c **** 
  74:Generated_Source\PSoC5/CapSense_SMS_Wrapper.c **** uint8 SMS_LIB_Var1 = (5u);
  75:Generated_Source\PSoC5/CapSense_SMS_Wrapper.c **** uint16 SMS_LIB_Var2 = (10738u);
  76:Generated_Source\PSoC5/CapSense_SMS_Wrapper.c **** 
  77:Generated_Source\PSoC5/CapSense_SMS_Wrapper.c **** uint8 SMS_LIB_TotalSnsCnt = CapSense_TOTAL_SENSOR_COUNT;
  78:Generated_Source\PSoC5/CapSense_SMS_Wrapper.c **** uint8 SMS_LIB_TotalScanSlCnt = CapSense_TOTAL_SCANSLOT_COUNT;
  79:Generated_Source\PSoC5/CapSense_SMS_Wrapper.c **** uint8 SMS_LIB_EndOfWidgInd = CapSense_END_OF_WIDGETS_INDEX;
  80:Generated_Source\PSoC5/CapSense_SMS_Wrapper.c **** 
  81:Generated_Source\PSoC5/CapSense_SMS_Wrapper.c **** #if (CapSense_DESIGN_TYPE == CapSense_TWO_CHANNELS_DESIGN)
  82:Generated_Source\PSoC5/CapSense_SMS_Wrapper.c ****     uint8 SMS_LIB_TotalSnsCnt_CH0 = CapSense_TOTAL_SENSOR_COUNT__CH0;
  83:Generated_Source\PSoC5/CapSense_SMS_Wrapper.c ****     uint8 SMS_LIB_TotalSnsCnt_CH1 = CapSense_TOTAL_SENSOR_COUNT__CH1;
  84:Generated_Source\PSoC5/CapSense_SMS_Wrapper.c **** #else
  85:Generated_Source\PSoC5/CapSense_SMS_Wrapper.c ****     uint8 SMS_LIB_TotalSnsCnt_CH0 = 0u;
  86:Generated_Source\PSoC5/CapSense_SMS_Wrapper.c ****     uint8 SMS_LIB_TotalSnsCnt_CH1 = 0u;
  87:Generated_Source\PSoC5/CapSense_SMS_Wrapper.c **** #endif  /* (CapSense_DESIGN_TYPE == CapSense_TWO_CHANNELS_DESIGN) */
ARM GAS  C:\Users\antarp\AppData\Local\Temp\cc6PrePa.s 			page 3


  88:Generated_Source\PSoC5/CapSense_SMS_Wrapper.c **** 
  89:Generated_Source\PSoC5/CapSense_SMS_Wrapper.c **** /*******************************************************************************
  90:Generated_Source\PSoC5/CapSense_SMS_Wrapper.c **** * Function Name: SMS_LIB_ScanSensor
  91:Generated_Source\PSoC5/CapSense_SMS_Wrapper.c **** ********************************************************************************
  92:Generated_Source\PSoC5/CapSense_SMS_Wrapper.c **** *
  93:Generated_Source\PSoC5/CapSense_SMS_Wrapper.c **** * Summary:
  94:Generated_Source\PSoC5/CapSense_SMS_Wrapper.c **** *  Wrapper to CapSense_ScanSensor function.
  95:Generated_Source\PSoC5/CapSense_SMS_Wrapper.c **** *
  96:Generated_Source\PSoC5/CapSense_SMS_Wrapper.c **** * Parameters:
  97:Generated_Source\PSoC5/CapSense_SMS_Wrapper.c **** *  SensorNumber:  Sensor number.
  98:Generated_Source\PSoC5/CapSense_SMS_Wrapper.c **** *
  99:Generated_Source\PSoC5/CapSense_SMS_Wrapper.c **** * Return:
 100:Generated_Source\PSoC5/CapSense_SMS_Wrapper.c **** *  None
 101:Generated_Source\PSoC5/CapSense_SMS_Wrapper.c **** *
 102:Generated_Source\PSoC5/CapSense_SMS_Wrapper.c **** * Reentrant:
 103:Generated_Source\PSoC5/CapSense_SMS_Wrapper.c **** *  No
 104:Generated_Source\PSoC5/CapSense_SMS_Wrapper.c **** *
 105:Generated_Source\PSoC5/CapSense_SMS_Wrapper.c **** *******************************************************************************/
 106:Generated_Source\PSoC5/CapSense_SMS_Wrapper.c **** void SMS_LIB_ScanSensor(uint8 SensorNumber) 
 107:Generated_Source\PSoC5/CapSense_SMS_Wrapper.c **** {
  28              		.loc 1 107 0
  29              		.cfi_startproc
  30              		@ args = 0, pretend = 0, frame = 0
  31              		@ frame_needed = 0, uses_anonymous_args = 0
  32              	.LVL0:
  33 0000 08B5     		push	{r3, lr}
  34              		.cfi_def_cfa_offset 8
  35              		.cfi_offset 3, -8
  36              		.cfi_offset 14, -4
 108:Generated_Source\PSoC5/CapSense_SMS_Wrapper.c ****     CapSense_ScanSensor(SensorNumber);
  37              		.loc 1 108 0
  38 0002 FFF7FEFF 		bl	CapSense_ScanSensor
  39              	.LVL1:
  40 0006 08BD     		pop	{r3, pc}
  41              		.cfi_endproc
  42              	.LFE0:
  43              		.size	SMS_LIB_ScanSensor, .-SMS_LIB_ScanSensor
  44              		.section	.text.SMS_LIB_IsBusy,"ax",%progbits
  45              		.align	2
  46              		.global	SMS_LIB_IsBusy
  47              		.thumb
  48              		.thumb_func
  49              		.type	SMS_LIB_IsBusy, %function
  50              	SMS_LIB_IsBusy:
  51              	.LFB1:
 109:Generated_Source\PSoC5/CapSense_SMS_Wrapper.c **** }
 110:Generated_Source\PSoC5/CapSense_SMS_Wrapper.c **** 
 111:Generated_Source\PSoC5/CapSense_SMS_Wrapper.c **** /*******************************************************************************
 112:Generated_Source\PSoC5/CapSense_SMS_Wrapper.c **** * Function Name: SMS_LIB_IsBusy
 113:Generated_Source\PSoC5/CapSense_SMS_Wrapper.c **** ********************************************************************************
 114:Generated_Source\PSoC5/CapSense_SMS_Wrapper.c **** *
 115:Generated_Source\PSoC5/CapSense_SMS_Wrapper.c **** * Summary:
 116:Generated_Source\PSoC5/CapSense_SMS_Wrapper.c **** *  Wrapper to CapSense_IsBusy function.
 117:Generated_Source\PSoC5/CapSense_SMS_Wrapper.c **** *  
 118:Generated_Source\PSoC5/CapSense_SMS_Wrapper.c **** * Parameters:
 119:Generated_Source\PSoC5/CapSense_SMS_Wrapper.c **** *  None
 120:Generated_Source\PSoC5/CapSense_SMS_Wrapper.c **** *
ARM GAS  C:\Users\antarp\AppData\Local\Temp\cc6PrePa.s 			page 4


 121:Generated_Source\PSoC5/CapSense_SMS_Wrapper.c **** * Return:
 122:Generated_Source\PSoC5/CapSense_SMS_Wrapper.c **** *  None
 123:Generated_Source\PSoC5/CapSense_SMS_Wrapper.c **** *
 124:Generated_Source\PSoC5/CapSense_SMS_Wrapper.c **** *******************************************************************************/
 125:Generated_Source\PSoC5/CapSense_SMS_Wrapper.c **** uint8 SMS_LIB_IsBusy(void) 
 126:Generated_Source\PSoC5/CapSense_SMS_Wrapper.c **** {
  52              		.loc 1 126 0
  53              		.cfi_startproc
  54              		@ args = 0, pretend = 0, frame = 0
  55              		@ frame_needed = 0, uses_anonymous_args = 0
  56 0000 08B5     		push	{r3, lr}
  57              		.cfi_def_cfa_offset 8
  58              		.cfi_offset 3, -8
  59              		.cfi_offset 14, -4
 127:Generated_Source\PSoC5/CapSense_SMS_Wrapper.c ****     return CapSense_IsBusy();
  60              		.loc 1 127 0
  61 0002 FFF7FEFF 		bl	CapSense_IsBusy
  62              	.LVL2:
 128:Generated_Source\PSoC5/CapSense_SMS_Wrapper.c **** }
  63              		.loc 1 128 0
  64 0006 08BD     		pop	{r3, pc}
  65              		.cfi_endproc
  66              	.LFE1:
  67              		.size	SMS_LIB_IsBusy, .-SMS_LIB_IsBusy
  68              		.section	.text.CapSense_CalculateThresholds,"ax",%progbits
  69              		.align	2
  70              		.global	CapSense_CalculateThresholds
  71              		.thumb
  72              		.thumb_func
  73              		.type	CapSense_CalculateThresholds, %function
  74              	CapSense_CalculateThresholds:
  75              	.LFB2:
 129:Generated_Source\PSoC5/CapSense_SMS_Wrapper.c **** 
 130:Generated_Source\PSoC5/CapSense_SMS_Wrapper.c **** 
 131:Generated_Source\PSoC5/CapSense_SMS_Wrapper.c **** /*******************************************************************************
 132:Generated_Source\PSoC5/CapSense_SMS_Wrapper.c **** * Function Name: CapSense_CalculateThresholds
 133:Generated_Source\PSoC5/CapSense_SMS_Wrapper.c **** ********************************************************************************
 134:Generated_Source\PSoC5/CapSense_SMS_Wrapper.c **** *
 135:Generated_Source\PSoC5/CapSense_SMS_Wrapper.c **** * Summary:
 136:Generated_Source\PSoC5/CapSense_SMS_Wrapper.c **** *  Wrapper to SMS_LIB_CalculateThresholds function.
 137:Generated_Source\PSoC5/CapSense_SMS_Wrapper.c **** *
 138:Generated_Source\PSoC5/CapSense_SMS_Wrapper.c **** * Parameters:
 139:Generated_Source\PSoC5/CapSense_SMS_Wrapper.c **** *  SensorNumber:  Sensor number.
 140:Generated_Source\PSoC5/CapSense_SMS_Wrapper.c **** *
 141:Generated_Source\PSoC5/CapSense_SMS_Wrapper.c **** * Return:
 142:Generated_Source\PSoC5/CapSense_SMS_Wrapper.c **** *  None
 143:Generated_Source\PSoC5/CapSense_SMS_Wrapper.c **** *
 144:Generated_Source\PSoC5/CapSense_SMS_Wrapper.c **** * Reentrant:
 145:Generated_Source\PSoC5/CapSense_SMS_Wrapper.c **** *  No
 146:Generated_Source\PSoC5/CapSense_SMS_Wrapper.c **** *
 147:Generated_Source\PSoC5/CapSense_SMS_Wrapper.c **** *******************************************************************************/
 148:Generated_Source\PSoC5/CapSense_SMS_Wrapper.c **** void CapSense_CalculateThresholds(uint8 SensorNumber) 
 149:Generated_Source\PSoC5/CapSense_SMS_Wrapper.c **** {
  76              		.loc 1 149 0
  77              		.cfi_startproc
  78              		@ args = 0, pretend = 0, frame = 0
  79              		@ frame_needed = 0, uses_anonymous_args = 0
ARM GAS  C:\Users\antarp\AppData\Local\Temp\cc6PrePa.s 			page 5


  80              	.LVL3:
  81 0000 08B5     		push	{r3, lr}
  82              		.cfi_def_cfa_offset 8
  83              		.cfi_offset 3, -8
  84              		.cfi_offset 14, -4
 150:Generated_Source\PSoC5/CapSense_SMS_Wrapper.c ****     SMS_LIB_V3_50_CalculateThresholds(SensorNumber);
  85              		.loc 1 150 0
  86 0002 FFF7FEFF 		bl	SMS_LIB_V3_50_CalculateThresholds
  87              	.LVL4:
  88 0006 08BD     		pop	{r3, pc}
  89              		.cfi_endproc
  90              	.LFE2:
  91              		.size	CapSense_CalculateThresholds, .-CapSense_CalculateThresholds
  92              		.section	.text.CapSense_AutoTune,"ax",%progbits
  93              		.align	2
  94              		.global	CapSense_AutoTune
  95              		.thumb
  96              		.thumb_func
  97              		.type	CapSense_AutoTune, %function
  98              	CapSense_AutoTune:
  99              	.LFB3:
 151:Generated_Source\PSoC5/CapSense_SMS_Wrapper.c **** }
 152:Generated_Source\PSoC5/CapSense_SMS_Wrapper.c **** 
 153:Generated_Source\PSoC5/CapSense_SMS_Wrapper.c **** 
 154:Generated_Source\PSoC5/CapSense_SMS_Wrapper.c **** /*******************************************************************************
 155:Generated_Source\PSoC5/CapSense_SMS_Wrapper.c **** * Function Name: CapSense_AutoTune
 156:Generated_Source\PSoC5/CapSense_SMS_Wrapper.c **** ********************************************************************************
 157:Generated_Source\PSoC5/CapSense_SMS_Wrapper.c **** *
 158:Generated_Source\PSoC5/CapSense_SMS_Wrapper.c **** * Summary:
 159:Generated_Source\PSoC5/CapSense_SMS_Wrapper.c **** *  Wrapper for SMS_LIB_AutoTune1Ch or SMS_LIB_AutoTune2Ch function.
 160:Generated_Source\PSoC5/CapSense_SMS_Wrapper.c **** *
 161:Generated_Source\PSoC5/CapSense_SMS_Wrapper.c **** * Parameters:
 162:Generated_Source\PSoC5/CapSense_SMS_Wrapper.c **** *  None
 163:Generated_Source\PSoC5/CapSense_SMS_Wrapper.c **** *
 164:Generated_Source\PSoC5/CapSense_SMS_Wrapper.c **** * Return:
 165:Generated_Source\PSoC5/CapSense_SMS_Wrapper.c **** *  None
 166:Generated_Source\PSoC5/CapSense_SMS_Wrapper.c **** *
 167:Generated_Source\PSoC5/CapSense_SMS_Wrapper.c **** * Reentrant:
 168:Generated_Source\PSoC5/CapSense_SMS_Wrapper.c **** *  No
 169:Generated_Source\PSoC5/CapSense_SMS_Wrapper.c **** *
 170:Generated_Source\PSoC5/CapSense_SMS_Wrapper.c **** *******************************************************************************/
 171:Generated_Source\PSoC5/CapSense_SMS_Wrapper.c **** void CapSense_AutoTune(void) 
 172:Generated_Source\PSoC5/CapSense_SMS_Wrapper.c **** {
 100              		.loc 1 172 0
 101              		.cfi_startproc
 102              		@ args = 0, pretend = 0, frame = 0
 103              		@ frame_needed = 0, uses_anonymous_args = 0
 104 0000 08B5     		push	{r3, lr}
 105              		.cfi_def_cfa_offset 8
 106              		.cfi_offset 3, -8
 107              		.cfi_offset 14, -4
 173:Generated_Source\PSoC5/CapSense_SMS_Wrapper.c ****     #if (CapSense_DESIGN_TYPE == CapSense_ONE_CHANNEL_DESIGN)
 174:Generated_Source\PSoC5/CapSense_SMS_Wrapper.c ****         SMS_LIB_V3_50_AutoTune1Ch();
 108              		.loc 1 174 0
 109 0002 FFF7FEFF 		bl	SMS_LIB_V3_50_AutoTune1Ch
 110              	.LVL5:
 111 0006 08BD     		pop	{r3, pc}
ARM GAS  C:\Users\antarp\AppData\Local\Temp\cc6PrePa.s 			page 6


 112              		.cfi_endproc
 113              	.LFE3:
 114              		.size	CapSense_AutoTune, .-CapSense_AutoTune
 115              		.section	.text.SMS_LIB_SetPrescaler,"ax",%progbits
 116              		.align	2
 117              		.global	SMS_LIB_SetPrescaler
 118              		.thumb
 119              		.thumb_func
 120              		.type	SMS_LIB_SetPrescaler, %function
 121              	SMS_LIB_SetPrescaler:
 122              	.LFB4:
 175:Generated_Source\PSoC5/CapSense_SMS_Wrapper.c ****     #elif (CapSense_DESIGN_TYPE == CapSense_TWO_CHANNELS_DESIGN)
 176:Generated_Source\PSoC5/CapSense_SMS_Wrapper.c ****         SMS_LIB_V3_50_AutoTune2Ch();
 177:Generated_Source\PSoC5/CapSense_SMS_Wrapper.c ****     #endif /* (CapSense_DESIGN_TYPE == CapSense_ONE_CHANNEL_DESIGN) */
 178:Generated_Source\PSoC5/CapSense_SMS_Wrapper.c **** }
 179:Generated_Source\PSoC5/CapSense_SMS_Wrapper.c **** 
 180:Generated_Source\PSoC5/CapSense_SMS_Wrapper.c **** /*******************************************************************************
 181:Generated_Source\PSoC5/CapSense_SMS_Wrapper.c **** * Function Name: SMS_LIB_SetPrescaler
 182:Generated_Source\PSoC5/CapSense_SMS_Wrapper.c **** ********************************************************************************
 183:Generated_Source\PSoC5/CapSense_SMS_Wrapper.c **** *
 184:Generated_Source\PSoC5/CapSense_SMS_Wrapper.c **** * Summary:
 185:Generated_Source\PSoC5/CapSense_SMS_Wrapper.c **** *  Empty wrapper for version compliance.
 186:Generated_Source\PSoC5/CapSense_SMS_Wrapper.c **** *
 187:Generated_Source\PSoC5/CapSense_SMS_Wrapper.c **** * Parameters:
 188:Generated_Source\PSoC5/CapSense_SMS_Wrapper.c **** *  prescaler:  prascaler value.
 189:Generated_Source\PSoC5/CapSense_SMS_Wrapper.c **** *
 190:Generated_Source\PSoC5/CapSense_SMS_Wrapper.c **** * Return:
 191:Generated_Source\PSoC5/CapSense_SMS_Wrapper.c **** *  None
 192:Generated_Source\PSoC5/CapSense_SMS_Wrapper.c **** *
 193:Generated_Source\PSoC5/CapSense_SMS_Wrapper.c **** *******************************************************************************/
 194:Generated_Source\PSoC5/CapSense_SMS_Wrapper.c **** void SMS_LIB_SetPrescaler(uint8 prescaler) 
 195:Generated_Source\PSoC5/CapSense_SMS_Wrapper.c **** {
 123              		.loc 1 195 0
 124              		.cfi_startproc
 125              		@ args = 0, pretend = 0, frame = 0
 126              		@ frame_needed = 0, uses_anonymous_args = 0
 127              		@ link register save eliminated.
 128              	.LVL6:
 129 0000 7047     		bx	lr
 130              		.cfi_endproc
 131              	.LFE4:
 132              		.size	SMS_LIB_SetPrescaler, .-SMS_LIB_SetPrescaler
 133 0002 00BF     		.section	.text.SMS_LIB_V3_50_SetAnalogSwitchesSrc_PRS,"ax",%progbits
 134              		.align	2
 135              		.global	SMS_LIB_V3_50_SetAnalogSwitchesSrc_PRS
 136              		.thumb
 137              		.thumb_func
 138              		.type	SMS_LIB_V3_50_SetAnalogSwitchesSrc_PRS, %function
 139              	SMS_LIB_V3_50_SetAnalogSwitchesSrc_PRS:
 140              	.LFB5:
 196:Generated_Source\PSoC5/CapSense_SMS_Wrapper.c ****     prescaler = prescaler;
 197:Generated_Source\PSoC5/CapSense_SMS_Wrapper.c **** }
 198:Generated_Source\PSoC5/CapSense_SMS_Wrapper.c **** 
 199:Generated_Source\PSoC5/CapSense_SMS_Wrapper.c **** void SMS_LIB_V3_50_SetAnalogSwitchesSrc_PRS(void) 
 200:Generated_Source\PSoC5/CapSense_SMS_Wrapper.c **** {
 141              		.loc 1 200 0
 142              		.cfi_startproc
ARM GAS  C:\Users\antarp\AppData\Local\Temp\cc6PrePa.s 			page 7


 143              		@ args = 0, pretend = 0, frame = 0
 144              		@ frame_needed = 0, uses_anonymous_args = 0
 145              		.loc 1 200 0
 146 0000 08B5     		push	{r3, lr}
 147              		.cfi_def_cfa_offset 8
 148              		.cfi_offset 3, -8
 149              		.cfi_offset 14, -4
 201:Generated_Source\PSoC5/CapSense_SMS_Wrapper.c **** 	CapSense_SetAnalogSwitchesSource(CapSense_ANALOG_SWITCHES_SRC_PRS);
 150              		.loc 1 201 0
 151 0002 0220     		movs	r0, #2
 152 0004 FFF7FEFF 		bl	CapSense_SetAnalogSwitchesSource
 153              	.LVL7:
 154 0008 08BD     		pop	{r3, pc}
 155              		.cfi_endproc
 156              	.LFE5:
 157              		.size	SMS_LIB_V3_50_SetAnalogSwitchesSrc_PRS, .-SMS_LIB_V3_50_SetAnalogSwitchesSrc_PRS
 158 000a 00BF     		.section	.text.SMS_LIB_V3_50_SetAnalogSwitchesSrc_Prescaler,"ax",%progbits
 159              		.align	2
 160              		.global	SMS_LIB_V3_50_SetAnalogSwitchesSrc_Prescaler
 161              		.thumb
 162              		.thumb_func
 163              		.type	SMS_LIB_V3_50_SetAnalogSwitchesSrc_Prescaler, %function
 164              	SMS_LIB_V3_50_SetAnalogSwitchesSrc_Prescaler:
 165              	.LFB6:
 202:Generated_Source\PSoC5/CapSense_SMS_Wrapper.c **** }
 203:Generated_Source\PSoC5/CapSense_SMS_Wrapper.c **** 
 204:Generated_Source\PSoC5/CapSense_SMS_Wrapper.c **** void SMS_LIB_V3_50_SetAnalogSwitchesSrc_Prescaler(void) 
 205:Generated_Source\PSoC5/CapSense_SMS_Wrapper.c **** {
 166              		.loc 1 205 0
 167              		.cfi_startproc
 168              		@ args = 0, pretend = 0, frame = 0
 169              		@ frame_needed = 0, uses_anonymous_args = 0
 170 0000 08B5     		push	{r3, lr}
 171              		.cfi_def_cfa_offset 8
 172              		.cfi_offset 3, -8
 173              		.cfi_offset 14, -4
 206:Generated_Source\PSoC5/CapSense_SMS_Wrapper.c **** 	CapSense_SetAnalogSwitchesSource(CapSense_ANALOG_SWITCHES_SRC_PRESCALER);
 174              		.loc 1 206 0
 175 0002 0120     		movs	r0, #1
 176 0004 FFF7FEFF 		bl	CapSense_SetAnalogSwitchesSource
 177              	.LVL8:
 178 0008 08BD     		pop	{r3, pc}
 179              		.cfi_endproc
 180              	.LFE6:
 181              		.size	SMS_LIB_V3_50_SetAnalogSwitchesSrc_Prescaler, .-SMS_LIB_V3_50_SetAnalogSwitchesSrc_Prescaler
 182              		.global	SMS_LIB_TotalSnsCnt_CH1
 183              		.global	SMS_LIB_TotalSnsCnt_CH0
 184              		.global	SMS_LIB_EndOfWidgInd
 185              		.global	SMS_LIB_TotalScanSlCnt
 186              		.global	SMS_LIB_TotalSnsCnt
 187              		.global	SMS_LIB_Var2
 188              		.global	SMS_LIB_Var1
 189              		.comm	SMS_LIB_Table9,2,4
 190              		.comm	SMS_LIB_Table8,2,4
 191              		.comm	SMS_LIB_Table7,6,4
 192              		.comm	SMS_LIB_Table6,6,4
 193              		.comm	SMS_LIB_Table5,12,4
ARM GAS  C:\Users\antarp\AppData\Local\Temp\cc6PrePa.s 			page 8


 194              		.comm	SMS_LIB_Table4,12,4
 195              		.comm	SMS_LIB_Table3,6,4
 196              		.comm	SMS_LIB_Table2,6,4
 197              		.global	SMS_LIB_PrescalerTbl
 198              		.global	SMS_LIB_SensorSensitivity
 199              		.global	SMS_LIB_SensorBaseline
 200              		.global	SMS_LIB_SensorRaw
 201              		.global	SMS_LIB_prescaler
 202              		.global	SMS_LIB_idacSettings
 203              		.global	SMS_LIB_fingerThreshold
 204              		.global	SMS_LIB_rawDataIndex
 205              		.global	SMS_LIB_numberOfSensors
 206              		.global	SMS_LIB_widgetNumber
 207              		.global	SMS_LIB_widgetResolution
 208              		.global	SMS_LIB_hysteresis
 209              		.global	SMS_LIB_noiseThreshold
 210 000a 00BF     		.section	.rodata
 211              		.align	2
 212              		.type	SMS_LIB_PrescalerTbl, %object
 213              		.size	SMS_LIB_PrescalerTbl, 32
 214              	SMS_LIB_PrescalerTbl:
 215 0000 01       		.byte	1
 216 0001 01       		.byte	1
 217 0002 01       		.byte	1
 218 0003 01       		.byte	1
 219 0004 01       		.byte	1
 220 0005 01       		.byte	1
 221 0006 02       		.byte	2
 222 0007 02       		.byte	2
 223 0008 02       		.byte	2
 224 0009 02       		.byte	2
 225 000a 02       		.byte	2
 226 000b 03       		.byte	3
 227 000c 03       		.byte	3
 228 000d 03       		.byte	3
 229 000e 03       		.byte	3
 230 000f 03       		.byte	3
 231 0010 03       		.byte	3
 232 0011 04       		.byte	4
 233 0012 04       		.byte	4
 234 0013 04       		.byte	4
 235 0014 04       		.byte	4
 236 0015 04       		.byte	4
 237 0016 04       		.byte	4
 238 0017 05       		.byte	5
 239 0018 05       		.byte	5
 240 0019 05       		.byte	5
 241 001a 05       		.byte	5
 242 001b 05       		.byte	5
 243 001c 05       		.byte	5
 244 001d 06       		.byte	6
 245 001e 06       		.byte	6
 246 001f 06       		.byte	6
 247              		.type	SMS_LIB_SensorSensitivity, %object
 248              		.size	SMS_LIB_SensorSensitivity, 6
 249              	SMS_LIB_SensorSensitivity:
 250 0020 02       		.byte	2
ARM GAS  C:\Users\antarp\AppData\Local\Temp\cc6PrePa.s 			page 9


 251 0021 02       		.byte	2
 252 0022 02       		.byte	2
 253 0023 02       		.byte	2
 254 0024 02       		.byte	2
 255 0025 02       		.byte	2
 256              		.data
 257              		.align	2
 258              		.type	SMS_LIB_EndOfWidgInd, %object
 259              		.size	SMS_LIB_EndOfWidgInd, 1
 260              	SMS_LIB_EndOfWidgInd:
 261 0000 02       		.byte	2
 262              		.type	SMS_LIB_TotalScanSlCnt, %object
 263              		.size	SMS_LIB_TotalScanSlCnt, 1
 264              	SMS_LIB_TotalScanSlCnt:
 265 0001 06       		.byte	6
 266              		.type	SMS_LIB_TotalSnsCnt, %object
 267              		.size	SMS_LIB_TotalSnsCnt, 1
 268              	SMS_LIB_TotalSnsCnt:
 269 0002 06       		.byte	6
 270 0003 00       		.space	1
 271              		.type	SMS_LIB_Var2, %object
 272              		.size	SMS_LIB_Var2, 2
 273              	SMS_LIB_Var2:
 274 0004 F229     		.short	10738
 275              		.type	SMS_LIB_Var1, %object
 276              		.size	SMS_LIB_Var1, 1
 277              	SMS_LIB_Var1:
 278 0006 05       		.byte	5
 279 0007 00       		.space	1
 280              		.type	SMS_LIB_SensorBaseline, %object
 281              		.size	SMS_LIB_SensorBaseline, 4
 282              	SMS_LIB_SensorBaseline:
 283 0008 00000000 		.word	CapSense_sensorBaseline
 284              		.type	SMS_LIB_SensorRaw, %object
 285              		.size	SMS_LIB_SensorRaw, 4
 286              	SMS_LIB_SensorRaw:
 287 000c 00000000 		.word	CapSense_sensorRaw
 288              		.type	SMS_LIB_prescaler, %object
 289              		.size	SMS_LIB_prescaler, 4
 290              	SMS_LIB_prescaler:
 291 0010 00000000 		.word	CapSense_analogSwitchDivider
 292              		.type	SMS_LIB_idacSettings, %object
 293              		.size	SMS_LIB_idacSettings, 4
 294              	SMS_LIB_idacSettings:
 295 0014 00000000 		.word	CapSense_idacSettings
 296              		.type	SMS_LIB_fingerThreshold, %object
 297              		.size	SMS_LIB_fingerThreshold, 4
 298              	SMS_LIB_fingerThreshold:
 299 0018 00000000 		.word	CapSense_fingerThreshold
 300              		.type	SMS_LIB_rawDataIndex, %object
 301              		.size	SMS_LIB_rawDataIndex, 4
 302              	SMS_LIB_rawDataIndex:
 303 001c 00000000 		.word	CapSense_rawDataIndex
 304              		.type	SMS_LIB_numberOfSensors, %object
 305              		.size	SMS_LIB_numberOfSensors, 4
 306              	SMS_LIB_numberOfSensors:
 307 0020 00000000 		.word	CapSense_numberOfSensors
ARM GAS  C:\Users\antarp\AppData\Local\Temp\cc6PrePa.s 			page 10


 308              		.type	SMS_LIB_widgetNumber, %object
 309              		.size	SMS_LIB_widgetNumber, 4
 310              	SMS_LIB_widgetNumber:
 311 0024 00000000 		.word	CapSense_widgetNumber
 312              		.type	SMS_LIB_widgetResolution, %object
 313              		.size	SMS_LIB_widgetResolution, 4
 314              	SMS_LIB_widgetResolution:
 315 0028 00000000 		.word	CapSense_widgetResolution
 316              		.type	SMS_LIB_hysteresis, %object
 317              		.size	SMS_LIB_hysteresis, 4
 318              	SMS_LIB_hysteresis:
 319 002c 00000000 		.word	CapSense_hysteresis
 320              		.type	SMS_LIB_noiseThreshold, %object
 321              		.size	SMS_LIB_noiseThreshold, 4
 322              	SMS_LIB_noiseThreshold:
 323 0030 00000000 		.word	CapSense_noiseThreshold
 324              		.bss
 325              		.type	SMS_LIB_TotalSnsCnt_CH1, %object
 326              		.size	SMS_LIB_TotalSnsCnt_CH1, 1
 327              	SMS_LIB_TotalSnsCnt_CH1:
 328 0000 00       		.space	1
 329              		.type	SMS_LIB_TotalSnsCnt_CH0, %object
 330              		.size	SMS_LIB_TotalSnsCnt_CH0, 1
 331              	SMS_LIB_TotalSnsCnt_CH0:
 332 0001 00       		.space	1
 333              		.text
 334              	.Letext0:
 335              		.file 2 "Generated_Source\\PSoC5\\cytypes.h"
 336              		.file 3 "Generated_Source\\PSoC5\\CapSense.h"
 337              		.file 4 "Generated_Source\\PSoC5\\CapSense_CSHL.h"
 338              		.section	.debug_info,"",%progbits
 339              	.Ldebug_info0:
 340 0000 CF040000 		.4byte	0x4cf
 341 0004 0400     		.2byte	0x4
 342 0006 00000000 		.4byte	.Ldebug_abbrev0
 343 000a 04       		.byte	0x4
 344 000b 01       		.uleb128 0x1
 345 000c A0030000 		.4byte	.LASF68
 346 0010 0C       		.byte	0xc
 347 0011 21020000 		.4byte	.LASF69
 348 0015 1E050000 		.4byte	.LASF70
 349 0019 00000000 		.4byte	.Ldebug_ranges0+0
 350 001d 00000000 		.4byte	0
 351 0021 00000000 		.4byte	.Ldebug_line0
 352 0025 02       		.uleb128 0x2
 353 0026 01       		.byte	0x1
 354 0027 06       		.byte	0x6
 355 0028 2C010000 		.4byte	.LASF0
 356 002c 02       		.uleb128 0x2
 357 002d 01       		.byte	0x1
 358 002e 08       		.byte	0x8
 359 002f 4A030000 		.4byte	.LASF1
 360 0033 02       		.uleb128 0x2
 361 0034 02       		.byte	0x2
 362 0035 05       		.byte	0x5
 363 0036 81030000 		.4byte	.LASF2
 364 003a 02       		.uleb128 0x2
ARM GAS  C:\Users\antarp\AppData\Local\Temp\cc6PrePa.s 			page 11


 365 003b 02       		.byte	0x2
 366 003c 07       		.byte	0x7
 367 003d DC010000 		.4byte	.LASF3
 368 0041 02       		.uleb128 0x2
 369 0042 04       		.byte	0x4
 370 0043 05       		.byte	0x5
 371 0044 66010000 		.4byte	.LASF4
 372 0048 02       		.uleb128 0x2
 373 0049 04       		.byte	0x4
 374 004a 07       		.byte	0x7
 375 004b CA010000 		.4byte	.LASF5
 376 004f 02       		.uleb128 0x2
 377 0050 08       		.byte	0x8
 378 0051 05       		.byte	0x5
 379 0052 1E010000 		.4byte	.LASF6
 380 0056 02       		.uleb128 0x2
 381 0057 08       		.byte	0x8
 382 0058 07       		.byte	0x7
 383 0059 F4000000 		.4byte	.LASF7
 384 005d 03       		.uleb128 0x3
 385 005e 04       		.byte	0x4
 386 005f 05       		.byte	0x5
 387 0060 696E7400 		.ascii	"int\000"
 388 0064 02       		.uleb128 0x2
 389 0065 04       		.byte	0x4
 390 0066 07       		.byte	0x7
 391 0067 BD010000 		.4byte	.LASF8
 392 006b 04       		.uleb128 0x4
 393 006c 6F010000 		.4byte	.LASF9
 394 0070 02       		.byte	0x2
 395 0071 9201     		.2byte	0x192
 396 0073 2C000000 		.4byte	0x2c
 397 0077 04       		.uleb128 0x4
 398 0078 00000000 		.4byte	.LASF10
 399 007c 02       		.byte	0x2
 400 007d 9301     		.2byte	0x193
 401 007f 3A000000 		.4byte	0x3a
 402 0083 02       		.uleb128 0x2
 403 0084 04       		.byte	0x4
 404 0085 04       		.byte	0x4
 405 0086 3A030000 		.4byte	.LASF11
 406 008a 02       		.uleb128 0x2
 407 008b 08       		.byte	0x8
 408 008c 04       		.byte	0x4
 409 008d 75010000 		.4byte	.LASF12
 410 0091 02       		.uleb128 0x2
 411 0092 01       		.byte	0x1
 412 0093 08       		.byte	0x8
 413 0094 C3040000 		.4byte	.LASF13
 414 0098 02       		.uleb128 0x2
 415 0099 08       		.byte	0x8
 416 009a 04       		.byte	0x4
 417 009b D0020000 		.4byte	.LASF14
 418 009f 02       		.uleb128 0x2
 419 00a0 04       		.byte	0x4
 420 00a1 07       		.byte	0x7
 421 00a2 AF020000 		.4byte	.LASF15
ARM GAS  C:\Users\antarp\AppData\Local\Temp\cc6PrePa.s 			page 12


 422 00a6 05       		.uleb128 0x5
 423 00a7 66040000 		.4byte	.LASF16
 424 00ab 01       		.byte	0x1
 425 00ac 6A       		.byte	0x6a
 426 00ad 00000000 		.4byte	.LFB0
 427 00b1 08000000 		.4byte	.LFE0-.LFB0
 428 00b5 01       		.uleb128 0x1
 429 00b6 9C       		.byte	0x9c
 430 00b7 D4000000 		.4byte	0xd4
 431 00bb 06       		.uleb128 0x6
 432 00bc 59010000 		.4byte	.LASF18
 433 00c0 01       		.byte	0x1
 434 00c1 6A       		.byte	0x6a
 435 00c2 6B000000 		.4byte	0x6b
 436 00c6 00000000 		.4byte	.LLST0
 437 00ca 07       		.uleb128 0x7
 438 00cb 06000000 		.4byte	.LVL1
 439 00cf 9B040000 		.4byte	0x49b
 440 00d3 00       		.byte	0
 441 00d4 08       		.uleb128 0x8
 442 00d5 58030000 		.4byte	.LASF71
 443 00d9 01       		.byte	0x1
 444 00da 7D       		.byte	0x7d
 445 00db 6B000000 		.4byte	0x6b
 446 00df 00000000 		.4byte	.LFB1
 447 00e3 08000000 		.4byte	.LFE1-.LFB1
 448 00e7 01       		.uleb128 0x1
 449 00e8 9C       		.byte	0x9c
 450 00e9 F7000000 		.4byte	0xf7
 451 00ed 07       		.uleb128 0x7
 452 00ee 06000000 		.4byte	.LVL2
 453 00f2 A6040000 		.4byte	0x4a6
 454 00f6 00       		.byte	0
 455 00f7 05       		.uleb128 0x5
 456 00f8 04020000 		.4byte	.LASF17
 457 00fc 01       		.byte	0x1
 458 00fd 94       		.byte	0x94
 459 00fe 00000000 		.4byte	.LFB2
 460 0102 08000000 		.4byte	.LFE2-.LFB2
 461 0106 01       		.uleb128 0x1
 462 0107 9C       		.byte	0x9c
 463 0108 25010000 		.4byte	0x125
 464 010c 06       		.uleb128 0x6
 465 010d 59010000 		.4byte	.LASF18
 466 0111 01       		.byte	0x1
 467 0112 94       		.byte	0x94
 468 0113 6B000000 		.4byte	0x6b
 469 0117 21000000 		.4byte	.LLST1
 470 011b 07       		.uleb128 0x7
 471 011c 06000000 		.4byte	.LVL4
 472 0120 B1040000 		.4byte	0x4b1
 473 0124 00       		.byte	0
 474 0125 05       		.uleb128 0x5
 475 0126 69020000 		.4byte	.LASF19
 476 012a 01       		.byte	0x1
 477 012b AB       		.byte	0xab
 478 012c 00000000 		.4byte	.LFB3
ARM GAS  C:\Users\antarp\AppData\Local\Temp\cc6PrePa.s 			page 13


 479 0130 08000000 		.4byte	.LFE3-.LFB3
 480 0134 01       		.uleb128 0x1
 481 0135 9C       		.byte	0x9c
 482 0136 44010000 		.4byte	0x144
 483 013a 07       		.uleb128 0x7
 484 013b 06000000 		.4byte	.LVL5
 485 013f BC040000 		.4byte	0x4bc
 486 0143 00       		.byte	0
 487 0144 05       		.uleb128 0x5
 488 0145 B1050000 		.4byte	.LASF20
 489 0149 01       		.byte	0x1
 490 014a C2       		.byte	0xc2
 491 014b 00000000 		.4byte	.LFB4
 492 014f 02000000 		.4byte	.LFE4-.LFB4
 493 0153 01       		.uleb128 0x1
 494 0154 9C       		.byte	0x9c
 495 0155 69010000 		.4byte	0x169
 496 0159 06       		.uleb128 0x6
 497 015a 40030000 		.4byte	.LASF21
 498 015e 01       		.byte	0x1
 499 015f C2       		.byte	0xc2
 500 0160 6B000000 		.4byte	0x6b
 501 0164 42000000 		.4byte	.LLST2
 502 0168 00       		.byte	0
 503 0169 05       		.uleb128 0x5
 504 016a 75000000 		.4byte	.LASF22
 505 016e 01       		.byte	0x1
 506 016f C7       		.byte	0xc7
 507 0170 00000000 		.4byte	.LFB5
 508 0174 0A000000 		.4byte	.LFE5-.LFB5
 509 0178 01       		.uleb128 0x1
 510 0179 9C       		.byte	0x9c
 511 017a 8E010000 		.4byte	0x18e
 512 017e 09       		.uleb128 0x9
 513 017f 08000000 		.4byte	.LVL7
 514 0183 C7040000 		.4byte	0x4c7
 515 0187 0A       		.uleb128 0xa
 516 0188 01       		.uleb128 0x1
 517 0189 50       		.byte	0x50
 518 018a 01       		.uleb128 0x1
 519 018b 32       		.byte	0x32
 520 018c 00       		.byte	0
 521 018d 00       		.byte	0
 522 018e 05       		.uleb128 0x5
 523 018f DF040000 		.4byte	.LASF23
 524 0193 01       		.byte	0x1
 525 0194 CC       		.byte	0xcc
 526 0195 00000000 		.4byte	.LFB6
 527 0199 0A000000 		.4byte	.LFE6-.LFB6
 528 019d 01       		.uleb128 0x1
 529 019e 9C       		.byte	0x9c
 530 019f B3010000 		.4byte	0x1b3
 531 01a3 09       		.uleb128 0x9
 532 01a4 08000000 		.4byte	.LVL8
 533 01a8 C7040000 		.4byte	0x4c7
 534 01ac 0A       		.uleb128 0xa
 535 01ad 01       		.uleb128 0x1
ARM GAS  C:\Users\antarp\AppData\Local\Temp\cc6PrePa.s 			page 14


 536 01ae 50       		.byte	0x50
 537 01af 01       		.uleb128 0x1
 538 01b0 31       		.byte	0x31
 539 01b1 00       		.byte	0
 540 01b2 00       		.byte	0
 541 01b3 0B       		.uleb128 0xb
 542 01b4 77000000 		.4byte	0x77
 543 01b8 C3010000 		.4byte	0x1c3
 544 01bc 0C       		.uleb128 0xc
 545 01bd 9F000000 		.4byte	0x9f
 546 01c1 05       		.byte	0x5
 547 01c2 00       		.byte	0
 548 01c3 0D       		.uleb128 0xd
 549 01c4 9E050000 		.4byte	.LASF24
 550 01c8 03       		.byte	0x3
 551 01c9 BE02     		.2byte	0x2be
 552 01cb B3010000 		.4byte	0x1b3
 553 01cf 0B       		.uleb128 0xb
 554 01d0 DF010000 		.4byte	0x1df
 555 01d4 DF010000 		.4byte	0x1df
 556 01d8 0C       		.uleb128 0xc
 557 01d9 9F000000 		.4byte	0x9f
 558 01dd 05       		.byte	0x5
 559 01de 00       		.byte	0
 560 01df 0E       		.uleb128 0xe
 561 01e0 6B000000 		.4byte	0x6b
 562 01e4 0D       		.uleb128 0xd
 563 01e5 7C010000 		.4byte	.LASF25
 564 01e9 04       		.byte	0x4
 565 01ea 0501     		.2byte	0x105
 566 01ec F0010000 		.4byte	0x1f0
 567 01f0 0E       		.uleb128 0xe
 568 01f1 CF010000 		.4byte	0x1cf
 569 01f5 0D       		.uleb128 0xd
 570 01f6 9C040000 		.4byte	.LASF26
 571 01fa 04       		.byte	0x4
 572 01fb 0701     		.2byte	0x107
 573 01fd B3010000 		.4byte	0x1b3
 574 0201 0B       		.uleb128 0xb
 575 0202 6B000000 		.4byte	0x6b
 576 0206 11020000 		.4byte	0x211
 577 020a 0C       		.uleb128 0xc
 578 020b 9F000000 		.4byte	0x9f
 579 020f 01       		.byte	0x1
 580 0210 00       		.byte	0
 581 0211 0F       		.uleb128 0xf
 582 0212 B8020000 		.4byte	.LASF27
 583 0216 01       		.byte	0x1
 584 0217 17       		.byte	0x17
 585 0218 01020000 		.4byte	0x201
 586 021c 0F       		.uleb128 0xf
 587 021d 34000000 		.4byte	.LASF28
 588 0221 01       		.byte	0x1
 589 0222 18       		.byte	0x18
 590 0223 01020000 		.4byte	0x201
 591 0227 0F       		.uleb128 0xf
 592 0228 67030000 		.4byte	.LASF29
ARM GAS  C:\Users\antarp\AppData\Local\Temp\cc6PrePa.s 			page 15


 593 022c 01       		.byte	0x1
 594 022d 19       		.byte	0x19
 595 022e 01020000 		.4byte	0x201
 596 0232 0B       		.uleb128 0xb
 597 0233 DF010000 		.4byte	0x1df
 598 0237 42020000 		.4byte	0x242
 599 023b 0C       		.uleb128 0xc
 600 023c 9F000000 		.4byte	0x9f
 601 0240 01       		.byte	0x1
 602 0241 00       		.byte	0
 603 0242 0F       		.uleb128 0xf
 604 0243 08060000 		.4byte	.LASF30
 605 0247 01       		.byte	0x1
 606 0248 1A       		.byte	0x1a
 607 0249 4D020000 		.4byte	0x24d
 608 024d 0E       		.uleb128 0xe
 609 024e 32020000 		.4byte	0x232
 610 0252 0F       		.uleb128 0xf
 611 0253 2E040000 		.4byte	.LASF31
 612 0257 01       		.byte	0x1
 613 0258 1B       		.byte	0x1b
 614 0259 5D020000 		.4byte	0x25d
 615 025d 0E       		.uleb128 0xe
 616 025e 32020000 		.4byte	0x232
 617 0262 0F       		.uleb128 0xf
 618 0263 0B030000 		.4byte	.LASF32
 619 0267 01       		.byte	0x1
 620 0268 1D       		.byte	0x1d
 621 0269 01020000 		.4byte	0x201
 622 026d 0B       		.uleb128 0xb
 623 026e 6B000000 		.4byte	0x6b
 624 0272 7D020000 		.4byte	0x27d
 625 0276 0C       		.uleb128 0xc
 626 0277 9F000000 		.4byte	0x9f
 627 027b 05       		.byte	0x5
 628 027c 00       		.byte	0
 629 027d 0F       		.uleb128 0xf
 630 027e 24030000 		.4byte	.LASF33
 631 0282 01       		.byte	0x1
 632 0283 1E       		.byte	0x1e
 633 0284 6D020000 		.4byte	0x26d
 634 0288 0F       		.uleb128 0xf
 635 0289 7B020000 		.4byte	.LASF34
 636 028d 01       		.byte	0x1
 637 028e 1F       		.byte	0x1f
 638 028f 6D020000 		.4byte	0x26d
 639 0293 10       		.uleb128 0x10
 640 0294 98020000 		.4byte	.LASF35
 641 0298 01       		.byte	0x1
 642 0299 25       		.byte	0x25
 643 029a A4020000 		.4byte	0x2a4
 644 029e 05       		.uleb128 0x5
 645 029f 03       		.byte	0x3
 646 02a0 00000000 		.4byte	SMS_LIB_noiseThreshold
 647 02a4 11       		.uleb128 0x11
 648 02a5 04       		.byte	0x4
 649 02a6 6B000000 		.4byte	0x6b
ARM GAS  C:\Users\antarp\AppData\Local\Temp\cc6PrePa.s 			page 16


 650 02aa 10       		.uleb128 0x10
 651 02ab 0B010000 		.4byte	.LASF36
 652 02af 01       		.byte	0x1
 653 02b0 26       		.byte	0x26
 654 02b1 A4020000 		.4byte	0x2a4
 655 02b5 05       		.uleb128 0x5
 656 02b6 03       		.byte	0x3
 657 02b7 00000000 		.4byte	SMS_LIB_hysteresis
 658 02bb 10       		.uleb128 0x10
 659 02bc C3000000 		.4byte	.LASF37
 660 02c0 01       		.byte	0x1
 661 02c1 28       		.byte	0x28
 662 02c2 A4020000 		.4byte	0x2a4
 663 02c6 05       		.uleb128 0x5
 664 02c7 03       		.byte	0x3
 665 02c8 00000000 		.4byte	SMS_LIB_widgetResolution
 666 02cc 10       		.uleb128 0x10
 667 02cd 9C000000 		.4byte	.LASF38
 668 02d1 01       		.byte	0x1
 669 02d2 2A       		.byte	0x2a
 670 02d3 DD020000 		.4byte	0x2dd
 671 02d7 05       		.uleb128 0x5
 672 02d8 03       		.byte	0x3
 673 02d9 00000000 		.4byte	SMS_LIB_widgetNumber
 674 02dd 11       		.uleb128 0x11
 675 02de 04       		.byte	0x4
 676 02df DF010000 		.4byte	0x1df
 677 02e3 10       		.uleb128 0x10
 678 02e4 DC000000 		.4byte	.LASF39
 679 02e8 01       		.byte	0x1
 680 02e9 2B       		.byte	0x2b
 681 02ea DD020000 		.4byte	0x2dd
 682 02ee 05       		.uleb128 0x5
 683 02ef 03       		.byte	0x3
 684 02f0 00000000 		.4byte	SMS_LIB_numberOfSensors
 685 02f4 10       		.uleb128 0x10
 686 02f5 DC020000 		.4byte	.LASF40
 687 02f9 01       		.byte	0x1
 688 02fa 2C       		.byte	0x2c
 689 02fb DD020000 		.4byte	0x2dd
 690 02ff 05       		.uleb128 0x5
 691 0300 03       		.byte	0x3
 692 0301 00000000 		.4byte	SMS_LIB_rawDataIndex
 693 0305 10       		.uleb128 0x10
 694 0306 C6050000 		.4byte	.LASF41
 695 030a 01       		.byte	0x1
 696 030b 2E       		.byte	0x2e
 697 030c A4020000 		.4byte	0x2a4
 698 0310 05       		.uleb128 0x5
 699 0311 03       		.byte	0x3
 700 0312 00000000 		.4byte	SMS_LIB_fingerThreshold
 701 0316 10       		.uleb128 0x10
 702 0317 8B030000 		.4byte	.LASF42
 703 031b 01       		.byte	0x1
 704 031c 2F       		.byte	0x2f
 705 031d A4020000 		.4byte	0x2a4
 706 0321 05       		.uleb128 0x5
ARM GAS  C:\Users\antarp\AppData\Local\Temp\cc6PrePa.s 			page 17


 707 0322 03       		.byte	0x3
 708 0323 00000000 		.4byte	SMS_LIB_idacSettings
 709 0327 10       		.uleb128 0x10
 710 0328 B1000000 		.4byte	.LASF43
 711 032c 01       		.byte	0x1
 712 032d 30       		.byte	0x30
 713 032e A4020000 		.4byte	0x2a4
 714 0332 05       		.uleb128 0x5
 715 0333 03       		.byte	0x3
 716 0334 00000000 		.4byte	SMS_LIB_prescaler
 717 0338 10       		.uleb128 0x10
 718 0339 0C050000 		.4byte	.LASF44
 719 033d 01       		.byte	0x1
 720 033e 32       		.byte	0x32
 721 033f 49030000 		.4byte	0x349
 722 0343 05       		.uleb128 0x5
 723 0344 03       		.byte	0x3
 724 0345 00000000 		.4byte	SMS_LIB_SensorRaw
 725 0349 11       		.uleb128 0x11
 726 034a 04       		.byte	0x4
 727 034b 77000000 		.4byte	0x77
 728 034f 10       		.uleb128 0x10
 729 0350 C8040000 		.4byte	.LASF45
 730 0354 01       		.byte	0x1
 731 0355 33       		.byte	0x33
 732 0356 49030000 		.4byte	0x349
 733 035a 05       		.uleb128 0x5
 734 035b 03       		.byte	0x3
 735 035c 00000000 		.4byte	SMS_LIB_SensorBaseline
 736 0360 10       		.uleb128 0x10
 737 0361 4F020000 		.4byte	.LASF46
 738 0365 01       		.byte	0x1
 739 0366 35       		.byte	0x35
 740 0367 71030000 		.4byte	0x371
 741 036b 05       		.uleb128 0x5
 742 036c 03       		.byte	0x3
 743 036d 00000000 		.4byte	SMS_LIB_SensorSensitivity
 744 0371 0E       		.uleb128 0xe
 745 0372 CF010000 		.4byte	0x1cf
 746 0376 0B       		.uleb128 0xb
 747 0377 DF010000 		.4byte	0x1df
 748 037b 86030000 		.4byte	0x386
 749 037f 0C       		.uleb128 0xc
 750 0380 9F000000 		.4byte	0x9f
 751 0384 1F       		.byte	0x1f
 752 0385 00       		.byte	0
 753 0386 10       		.uleb128 0x10
 754 0387 EF010000 		.4byte	.LASF47
 755 038b 01       		.byte	0x1
 756 038c 3A       		.byte	0x3a
 757 038d 97030000 		.4byte	0x397
 758 0391 05       		.uleb128 0x5
 759 0392 03       		.byte	0x3
 760 0393 00000000 		.4byte	SMS_LIB_PrescalerTbl
 761 0397 0E       		.uleb128 0xe
 762 0398 76030000 		.4byte	0x376
 763 039c 10       		.uleb128 0x10
ARM GAS  C:\Users\antarp\AppData\Local\Temp\cc6PrePa.s 			page 18


 764 039d 79040000 		.4byte	.LASF48
 765 03a1 01       		.byte	0x1
 766 03a2 40       		.byte	0x40
 767 03a3 6D020000 		.4byte	0x26d
 768 03a7 05       		.uleb128 0x5
 769 03a8 03       		.byte	0x3
 770 03a9 00000000 		.4byte	SMS_LIB_Table2
 771 03ad 10       		.uleb128 0x10
 772 03ae 07000000 		.4byte	.LASF49
 773 03b2 01       		.byte	0x1
 774 03b3 41       		.byte	0x41
 775 03b4 6D020000 		.4byte	0x26d
 776 03b8 05       		.uleb128 0x5
 777 03b9 03       		.byte	0x3
 778 03ba 00000000 		.4byte	SMS_LIB_Table3
 779 03be 10       		.uleb128 0x10
 780 03bf 16000000 		.4byte	.LASF50
 781 03c3 01       		.byte	0x1
 782 03c4 42       		.byte	0x42
 783 03c5 B3010000 		.4byte	0x1b3
 784 03c9 05       		.uleb128 0x5
 785 03ca 03       		.byte	0x3
 786 03cb 00000000 		.4byte	SMS_LIB_Table4
 787 03cf 10       		.uleb128 0x10
 788 03d0 25000000 		.4byte	.LASF51
 789 03d4 01       		.byte	0x1
 790 03d5 43       		.byte	0x43
 791 03d6 B3010000 		.4byte	0x1b3
 792 03da 05       		.uleb128 0x5
 793 03db 03       		.byte	0x3
 794 03dc 00000000 		.4byte	SMS_LIB_Table5
 795 03e0 10       		.uleb128 0x10
 796 03e1 B4040000 		.4byte	.LASF52
 797 03e5 01       		.byte	0x1
 798 03e6 44       		.byte	0x44
 799 03e7 6D020000 		.4byte	0x26d
 800 03eb 05       		.uleb128 0x5
 801 03ec 03       		.byte	0x3
 802 03ed 00000000 		.4byte	SMS_LIB_Table6
 803 03f1 10       		.uleb128 0x10
 804 03f2 48000000 		.4byte	.LASF53
 805 03f6 01       		.byte	0x1
 806 03f7 45       		.byte	0x45
 807 03f8 6D020000 		.4byte	0x26d
 808 03fc 05       		.uleb128 0x5
 809 03fd 03       		.byte	0x3
 810 03fe 00000000 		.4byte	SMS_LIB_Table7
 811 0402 10       		.uleb128 0x10
 812 0403 57000000 		.4byte	.LASF54
 813 0407 01       		.byte	0x1
 814 0408 47       		.byte	0x47
 815 0409 01020000 		.4byte	0x201
 816 040d 05       		.uleb128 0x5
 817 040e 03       		.byte	0x3
 818 040f 00000000 		.4byte	SMS_LIB_Table8
 819 0413 10       		.uleb128 0x10
 820 0414 66000000 		.4byte	.LASF55
ARM GAS  C:\Users\antarp\AppData\Local\Temp\cc6PrePa.s 			page 19


 821 0418 01       		.byte	0x1
 822 0419 48       		.byte	0x48
 823 041a 01020000 		.4byte	0x201
 824 041e 05       		.uleb128 0x5
 825 041f 03       		.byte	0x3
 826 0420 00000000 		.4byte	SMS_LIB_Table9
 827 0424 10       		.uleb128 0x10
 828 0425 DE050000 		.4byte	.LASF56
 829 0429 01       		.byte	0x1
 830 042a 4A       		.byte	0x4a
 831 042b 6B000000 		.4byte	0x6b
 832 042f 05       		.uleb128 0x5
 833 0430 03       		.byte	0x3
 834 0431 00000000 		.4byte	SMS_LIB_Var1
 835 0435 10       		.uleb128 0x10
 836 0436 EB050000 		.4byte	.LASF57
 837 043a 01       		.byte	0x1
 838 043b 4B       		.byte	0x4b
 839 043c 77000000 		.4byte	0x77
 840 0440 05       		.uleb128 0x5
 841 0441 03       		.byte	0x3
 842 0442 00000000 		.4byte	SMS_LIB_Var2
 843 0446 10       		.uleb128 0x10
 844 0447 88040000 		.4byte	.LASF58
 845 044b 01       		.byte	0x1
 846 044c 4D       		.byte	0x4d
 847 044d 6B000000 		.4byte	0x6b
 848 0451 05       		.uleb128 0x5
 849 0452 03       		.byte	0x3
 850 0453 00000000 		.4byte	SMS_LIB_TotalSnsCnt
 851 0457 10       		.uleb128 0x10
 852 0458 92010000 		.4byte	.LASF59
 853 045c 01       		.byte	0x1
 854 045d 4E       		.byte	0x4e
 855 045e 6B000000 		.4byte	0x6b
 856 0462 05       		.uleb128 0x5
 857 0463 03       		.byte	0x3
 858 0464 00000000 		.4byte	SMS_LIB_TotalScanSlCnt
 859 0468 10       		.uleb128 0x10
 860 0469 89050000 		.4byte	.LASF60
 861 046d 01       		.byte	0x1
 862 046e 4F       		.byte	0x4f
 863 046f 6B000000 		.4byte	0x6b
 864 0473 05       		.uleb128 0x5
 865 0474 03       		.byte	0x3
 866 0475 00000000 		.4byte	SMS_LIB_EndOfWidgInd
 867 0479 10       		.uleb128 0x10
 868 047a 59050000 		.4byte	.LASF61
 869 047e 01       		.byte	0x1
 870 047f 55       		.byte	0x55
 871 0480 6B000000 		.4byte	0x6b
 872 0484 05       		.uleb128 0x5
 873 0485 03       		.byte	0x3
 874 0486 00000000 		.4byte	SMS_LIB_TotalSnsCnt_CH0
 875 048a 10       		.uleb128 0x10
 876 048b 71050000 		.4byte	.LASF62
 877 048f 01       		.byte	0x1
ARM GAS  C:\Users\antarp\AppData\Local\Temp\cc6PrePa.s 			page 20


 878 0490 56       		.byte	0x56
 879 0491 6B000000 		.4byte	0x6b
 880 0495 05       		.uleb128 0x5
 881 0496 03       		.byte	0x3
 882 0497 00000000 		.4byte	SMS_LIB_TotalSnsCnt_CH1
 883 049b 12       		.uleb128 0x12
 884 049c A9010000 		.4byte	.LASF63
 885 04a0 A9010000 		.4byte	.LASF63
 886 04a4 03       		.byte	0x3
 887 04a5 9A       		.byte	0x9a
 888 04a6 12       		.uleb128 0x12
 889 04a7 F8050000 		.4byte	.LASF64
 890 04ab F8050000 		.4byte	.LASF64
 891 04af 03       		.byte	0x3
 892 04b0 99       		.byte	0x99
 893 04b1 12       		.uleb128 0x12
 894 04b2 44040000 		.4byte	.LASF65
 895 04b6 44040000 		.4byte	.LASF65
 896 04ba 01       		.byte	0x1
 897 04bb 21       		.byte	0x21
 898 04bc 12       		.uleb128 0x12
 899 04bd F1020000 		.4byte	.LASF66
 900 04c1 F1020000 		.4byte	.LASF66
 901 04c5 01       		.byte	0x1
 902 04c6 22       		.byte	0x22
 903 04c7 12       		.uleb128 0x12
 904 04c8 38010000 		.4byte	.LASF67
 905 04cc 38010000 		.4byte	.LASF67
 906 04d0 03       		.byte	0x3
 907 04d1 A2       		.byte	0xa2
 908 04d2 00       		.byte	0
 909              		.section	.debug_abbrev,"",%progbits
 910              	.Ldebug_abbrev0:
 911 0000 01       		.uleb128 0x1
 912 0001 11       		.uleb128 0x11
 913 0002 01       		.byte	0x1
 914 0003 25       		.uleb128 0x25
 915 0004 0E       		.uleb128 0xe
 916 0005 13       		.uleb128 0x13
 917 0006 0B       		.uleb128 0xb
 918 0007 03       		.uleb128 0x3
 919 0008 0E       		.uleb128 0xe
 920 0009 1B       		.uleb128 0x1b
 921 000a 0E       		.uleb128 0xe
 922 000b 55       		.uleb128 0x55
 923 000c 17       		.uleb128 0x17
 924 000d 11       		.uleb128 0x11
 925 000e 01       		.uleb128 0x1
 926 000f 10       		.uleb128 0x10
 927 0010 17       		.uleb128 0x17
 928 0011 00       		.byte	0
 929 0012 00       		.byte	0
 930 0013 02       		.uleb128 0x2
 931 0014 24       		.uleb128 0x24
 932 0015 00       		.byte	0
 933 0016 0B       		.uleb128 0xb
 934 0017 0B       		.uleb128 0xb
ARM GAS  C:\Users\antarp\AppData\Local\Temp\cc6PrePa.s 			page 21


 935 0018 3E       		.uleb128 0x3e
 936 0019 0B       		.uleb128 0xb
 937 001a 03       		.uleb128 0x3
 938 001b 0E       		.uleb128 0xe
 939 001c 00       		.byte	0
 940 001d 00       		.byte	0
 941 001e 03       		.uleb128 0x3
 942 001f 24       		.uleb128 0x24
 943 0020 00       		.byte	0
 944 0021 0B       		.uleb128 0xb
 945 0022 0B       		.uleb128 0xb
 946 0023 3E       		.uleb128 0x3e
 947 0024 0B       		.uleb128 0xb
 948 0025 03       		.uleb128 0x3
 949 0026 08       		.uleb128 0x8
 950 0027 00       		.byte	0
 951 0028 00       		.byte	0
 952 0029 04       		.uleb128 0x4
 953 002a 16       		.uleb128 0x16
 954 002b 00       		.byte	0
 955 002c 03       		.uleb128 0x3
 956 002d 0E       		.uleb128 0xe
 957 002e 3A       		.uleb128 0x3a
 958 002f 0B       		.uleb128 0xb
 959 0030 3B       		.uleb128 0x3b
 960 0031 05       		.uleb128 0x5
 961 0032 49       		.uleb128 0x49
 962 0033 13       		.uleb128 0x13
 963 0034 00       		.byte	0
 964 0035 00       		.byte	0
 965 0036 05       		.uleb128 0x5
 966 0037 2E       		.uleb128 0x2e
 967 0038 01       		.byte	0x1
 968 0039 3F       		.uleb128 0x3f
 969 003a 19       		.uleb128 0x19
 970 003b 03       		.uleb128 0x3
 971 003c 0E       		.uleb128 0xe
 972 003d 3A       		.uleb128 0x3a
 973 003e 0B       		.uleb128 0xb
 974 003f 3B       		.uleb128 0x3b
 975 0040 0B       		.uleb128 0xb
 976 0041 27       		.uleb128 0x27
 977 0042 19       		.uleb128 0x19
 978 0043 11       		.uleb128 0x11
 979 0044 01       		.uleb128 0x1
 980 0045 12       		.uleb128 0x12
 981 0046 06       		.uleb128 0x6
 982 0047 40       		.uleb128 0x40
 983 0048 18       		.uleb128 0x18
 984 0049 9742     		.uleb128 0x2117
 985 004b 19       		.uleb128 0x19
 986 004c 01       		.uleb128 0x1
 987 004d 13       		.uleb128 0x13
 988 004e 00       		.byte	0
 989 004f 00       		.byte	0
 990 0050 06       		.uleb128 0x6
 991 0051 05       		.uleb128 0x5
ARM GAS  C:\Users\antarp\AppData\Local\Temp\cc6PrePa.s 			page 22


 992 0052 00       		.byte	0
 993 0053 03       		.uleb128 0x3
 994 0054 0E       		.uleb128 0xe
 995 0055 3A       		.uleb128 0x3a
 996 0056 0B       		.uleb128 0xb
 997 0057 3B       		.uleb128 0x3b
 998 0058 0B       		.uleb128 0xb
 999 0059 49       		.uleb128 0x49
 1000 005a 13       		.uleb128 0x13
 1001 005b 02       		.uleb128 0x2
 1002 005c 17       		.uleb128 0x17
 1003 005d 00       		.byte	0
 1004 005e 00       		.byte	0
 1005 005f 07       		.uleb128 0x7
 1006 0060 898201   		.uleb128 0x4109
 1007 0063 00       		.byte	0
 1008 0064 11       		.uleb128 0x11
 1009 0065 01       		.uleb128 0x1
 1010 0066 31       		.uleb128 0x31
 1011 0067 13       		.uleb128 0x13
 1012 0068 00       		.byte	0
 1013 0069 00       		.byte	0
 1014 006a 08       		.uleb128 0x8
 1015 006b 2E       		.uleb128 0x2e
 1016 006c 01       		.byte	0x1
 1017 006d 3F       		.uleb128 0x3f
 1018 006e 19       		.uleb128 0x19
 1019 006f 03       		.uleb128 0x3
 1020 0070 0E       		.uleb128 0xe
 1021 0071 3A       		.uleb128 0x3a
 1022 0072 0B       		.uleb128 0xb
 1023 0073 3B       		.uleb128 0x3b
 1024 0074 0B       		.uleb128 0xb
 1025 0075 27       		.uleb128 0x27
 1026 0076 19       		.uleb128 0x19
 1027 0077 49       		.uleb128 0x49
 1028 0078 13       		.uleb128 0x13
 1029 0079 11       		.uleb128 0x11
 1030 007a 01       		.uleb128 0x1
 1031 007b 12       		.uleb128 0x12
 1032 007c 06       		.uleb128 0x6
 1033 007d 40       		.uleb128 0x40
 1034 007e 18       		.uleb128 0x18
 1035 007f 9742     		.uleb128 0x2117
 1036 0081 19       		.uleb128 0x19
 1037 0082 01       		.uleb128 0x1
 1038 0083 13       		.uleb128 0x13
 1039 0084 00       		.byte	0
 1040 0085 00       		.byte	0
 1041 0086 09       		.uleb128 0x9
 1042 0087 898201   		.uleb128 0x4109
 1043 008a 01       		.byte	0x1
 1044 008b 11       		.uleb128 0x11
 1045 008c 01       		.uleb128 0x1
 1046 008d 31       		.uleb128 0x31
 1047 008e 13       		.uleb128 0x13
 1048 008f 00       		.byte	0
ARM GAS  C:\Users\antarp\AppData\Local\Temp\cc6PrePa.s 			page 23


 1049 0090 00       		.byte	0
 1050 0091 0A       		.uleb128 0xa
 1051 0092 8A8201   		.uleb128 0x410a
 1052 0095 00       		.byte	0
 1053 0096 02       		.uleb128 0x2
 1054 0097 18       		.uleb128 0x18
 1055 0098 9142     		.uleb128 0x2111
 1056 009a 18       		.uleb128 0x18
 1057 009b 00       		.byte	0
 1058 009c 00       		.byte	0
 1059 009d 0B       		.uleb128 0xb
 1060 009e 01       		.uleb128 0x1
 1061 009f 01       		.byte	0x1
 1062 00a0 49       		.uleb128 0x49
 1063 00a1 13       		.uleb128 0x13
 1064 00a2 01       		.uleb128 0x1
 1065 00a3 13       		.uleb128 0x13
 1066 00a4 00       		.byte	0
 1067 00a5 00       		.byte	0
 1068 00a6 0C       		.uleb128 0xc
 1069 00a7 21       		.uleb128 0x21
 1070 00a8 00       		.byte	0
 1071 00a9 49       		.uleb128 0x49
 1072 00aa 13       		.uleb128 0x13
 1073 00ab 2F       		.uleb128 0x2f
 1074 00ac 0B       		.uleb128 0xb
 1075 00ad 00       		.byte	0
 1076 00ae 00       		.byte	0
 1077 00af 0D       		.uleb128 0xd
 1078 00b0 34       		.uleb128 0x34
 1079 00b1 00       		.byte	0
 1080 00b2 03       		.uleb128 0x3
 1081 00b3 0E       		.uleb128 0xe
 1082 00b4 3A       		.uleb128 0x3a
 1083 00b5 0B       		.uleb128 0xb
 1084 00b6 3B       		.uleb128 0x3b
 1085 00b7 05       		.uleb128 0x5
 1086 00b8 49       		.uleb128 0x49
 1087 00b9 13       		.uleb128 0x13
 1088 00ba 3F       		.uleb128 0x3f
 1089 00bb 19       		.uleb128 0x19
 1090 00bc 3C       		.uleb128 0x3c
 1091 00bd 19       		.uleb128 0x19
 1092 00be 00       		.byte	0
 1093 00bf 00       		.byte	0
 1094 00c0 0E       		.uleb128 0xe
 1095 00c1 26       		.uleb128 0x26
 1096 00c2 00       		.byte	0
 1097 00c3 49       		.uleb128 0x49
 1098 00c4 13       		.uleb128 0x13
 1099 00c5 00       		.byte	0
 1100 00c6 00       		.byte	0
 1101 00c7 0F       		.uleb128 0xf
 1102 00c8 34       		.uleb128 0x34
 1103 00c9 00       		.byte	0
 1104 00ca 03       		.uleb128 0x3
 1105 00cb 0E       		.uleb128 0xe
ARM GAS  C:\Users\antarp\AppData\Local\Temp\cc6PrePa.s 			page 24


 1106 00cc 3A       		.uleb128 0x3a
 1107 00cd 0B       		.uleb128 0xb
 1108 00ce 3B       		.uleb128 0x3b
 1109 00cf 0B       		.uleb128 0xb
 1110 00d0 49       		.uleb128 0x49
 1111 00d1 13       		.uleb128 0x13
 1112 00d2 3F       		.uleb128 0x3f
 1113 00d3 19       		.uleb128 0x19
 1114 00d4 3C       		.uleb128 0x3c
 1115 00d5 19       		.uleb128 0x19
 1116 00d6 00       		.byte	0
 1117 00d7 00       		.byte	0
 1118 00d8 10       		.uleb128 0x10
 1119 00d9 34       		.uleb128 0x34
 1120 00da 00       		.byte	0
 1121 00db 03       		.uleb128 0x3
 1122 00dc 0E       		.uleb128 0xe
 1123 00dd 3A       		.uleb128 0x3a
 1124 00de 0B       		.uleb128 0xb
 1125 00df 3B       		.uleb128 0x3b
 1126 00e0 0B       		.uleb128 0xb
 1127 00e1 49       		.uleb128 0x49
 1128 00e2 13       		.uleb128 0x13
 1129 00e3 3F       		.uleb128 0x3f
 1130 00e4 19       		.uleb128 0x19
 1131 00e5 02       		.uleb128 0x2
 1132 00e6 18       		.uleb128 0x18
 1133 00e7 00       		.byte	0
 1134 00e8 00       		.byte	0
 1135 00e9 11       		.uleb128 0x11
 1136 00ea 0F       		.uleb128 0xf
 1137 00eb 00       		.byte	0
 1138 00ec 0B       		.uleb128 0xb
 1139 00ed 0B       		.uleb128 0xb
 1140 00ee 49       		.uleb128 0x49
 1141 00ef 13       		.uleb128 0x13
 1142 00f0 00       		.byte	0
 1143 00f1 00       		.byte	0
 1144 00f2 12       		.uleb128 0x12
 1145 00f3 2E       		.uleb128 0x2e
 1146 00f4 00       		.byte	0
 1147 00f5 3F       		.uleb128 0x3f
 1148 00f6 19       		.uleb128 0x19
 1149 00f7 3C       		.uleb128 0x3c
 1150 00f8 19       		.uleb128 0x19
 1151 00f9 6E       		.uleb128 0x6e
 1152 00fa 0E       		.uleb128 0xe
 1153 00fb 03       		.uleb128 0x3
 1154 00fc 0E       		.uleb128 0xe
 1155 00fd 3A       		.uleb128 0x3a
 1156 00fe 0B       		.uleb128 0xb
 1157 00ff 3B       		.uleb128 0x3b
 1158 0100 0B       		.uleb128 0xb
 1159 0101 00       		.byte	0
 1160 0102 00       		.byte	0
 1161 0103 00       		.byte	0
 1162              		.section	.debug_loc,"",%progbits
ARM GAS  C:\Users\antarp\AppData\Local\Temp\cc6PrePa.s 			page 25


 1163              	.Ldebug_loc0:
 1164              	.LLST0:
 1165 0000 00000000 		.4byte	.LVL0
 1166 0004 05000000 		.4byte	.LVL1-1
 1167 0008 0100     		.2byte	0x1
 1168 000a 50       		.byte	0x50
 1169 000b 05000000 		.4byte	.LVL1-1
 1170 000f 08000000 		.4byte	.LFE0
 1171 0013 0400     		.2byte	0x4
 1172 0015 F3       		.byte	0xf3
 1173 0016 01       		.uleb128 0x1
 1174 0017 50       		.byte	0x50
 1175 0018 9F       		.byte	0x9f
 1176 0019 00000000 		.4byte	0
 1177 001d 00000000 		.4byte	0
 1178              	.LLST1:
 1179 0021 00000000 		.4byte	.LVL3
 1180 0025 05000000 		.4byte	.LVL4-1
 1181 0029 0100     		.2byte	0x1
 1182 002b 50       		.byte	0x50
 1183 002c 05000000 		.4byte	.LVL4-1
 1184 0030 08000000 		.4byte	.LFE2
 1185 0034 0400     		.2byte	0x4
 1186 0036 F3       		.byte	0xf3
 1187 0037 01       		.uleb128 0x1
 1188 0038 50       		.byte	0x50
 1189 0039 9F       		.byte	0x9f
 1190 003a 00000000 		.4byte	0
 1191 003e 00000000 		.4byte	0
 1192              	.LLST2:
 1193 0042 00000000 		.4byte	.LVL6
 1194 0046 00000000 		.4byte	.LVL6
 1195 004a 0100     		.2byte	0x1
 1196 004c 50       		.byte	0x50
 1197 004d 00000000 		.4byte	.LVL6
 1198 0051 02000000 		.4byte	.LFE4
 1199 0055 0400     		.2byte	0x4
 1200 0057 F3       		.byte	0xf3
 1201 0058 01       		.uleb128 0x1
 1202 0059 50       		.byte	0x50
 1203 005a 9F       		.byte	0x9f
 1204 005b 00000000 		.4byte	0
 1205 005f 00000000 		.4byte	0
 1206              		.section	.debug_aranges,"",%progbits
 1207 0000 4C000000 		.4byte	0x4c
 1208 0004 0200     		.2byte	0x2
 1209 0006 00000000 		.4byte	.Ldebug_info0
 1210 000a 04       		.byte	0x4
 1211 000b 00       		.byte	0
 1212 000c 0000     		.2byte	0
 1213 000e 0000     		.2byte	0
 1214 0010 00000000 		.4byte	.LFB0
 1215 0014 08000000 		.4byte	.LFE0-.LFB0
 1216 0018 00000000 		.4byte	.LFB1
 1217 001c 08000000 		.4byte	.LFE1-.LFB1
 1218 0020 00000000 		.4byte	.LFB2
 1219 0024 08000000 		.4byte	.LFE2-.LFB2
ARM GAS  C:\Users\antarp\AppData\Local\Temp\cc6PrePa.s 			page 26


 1220 0028 00000000 		.4byte	.LFB3
 1221 002c 08000000 		.4byte	.LFE3-.LFB3
 1222 0030 00000000 		.4byte	.LFB4
 1223 0034 02000000 		.4byte	.LFE4-.LFB4
 1224 0038 00000000 		.4byte	.LFB5
 1225 003c 0A000000 		.4byte	.LFE5-.LFB5
 1226 0040 00000000 		.4byte	.LFB6
 1227 0044 0A000000 		.4byte	.LFE6-.LFB6
 1228 0048 00000000 		.4byte	0
 1229 004c 00000000 		.4byte	0
 1230              		.section	.debug_ranges,"",%progbits
 1231              	.Ldebug_ranges0:
 1232 0000 00000000 		.4byte	.LFB0
 1233 0004 08000000 		.4byte	.LFE0
 1234 0008 00000000 		.4byte	.LFB1
 1235 000c 08000000 		.4byte	.LFE1
 1236 0010 00000000 		.4byte	.LFB2
 1237 0014 08000000 		.4byte	.LFE2
 1238 0018 00000000 		.4byte	.LFB3
 1239 001c 08000000 		.4byte	.LFE3
 1240 0020 00000000 		.4byte	.LFB4
 1241 0024 02000000 		.4byte	.LFE4
 1242 0028 00000000 		.4byte	.LFB5
 1243 002c 0A000000 		.4byte	.LFE5
 1244 0030 00000000 		.4byte	.LFB6
 1245 0034 0A000000 		.4byte	.LFE6
 1246 0038 00000000 		.4byte	0
 1247 003c 00000000 		.4byte	0
 1248              		.section	.debug_line,"",%progbits
 1249              	.Ldebug_line0:
 1250 0000 F0000000 		.section	.debug_str,"MS",%progbits,1
 1250      02007200 
 1250      00000201 
 1250      FB0E0D00 
 1250      01010101 
 1251              	.LASF10:
 1252 0000 75696E74 		.ascii	"uint16\000"
 1252      313600
 1253              	.LASF49:
 1254 0007 534D535F 		.ascii	"SMS_LIB_Table3\000"
 1254      4C49425F 
 1254      5461626C 
 1254      653300
 1255              	.LASF50:
 1256 0016 534D535F 		.ascii	"SMS_LIB_Table4\000"
 1256      4C49425F 
 1256      5461626C 
 1256      653400
 1257              	.LASF51:
 1258 0025 534D535F 		.ascii	"SMS_LIB_Table5\000"
 1258      4C49425F 
 1258      5461626C 
 1258      653500
 1259              	.LASF28:
 1260 0034 43617053 		.ascii	"CapSense_hysteresis\000"
 1260      656E7365 
 1260      5F687973 
ARM GAS  C:\Users\antarp\AppData\Local\Temp\cc6PrePa.s 			page 27


 1260      74657265 
 1260      73697300 
 1261              	.LASF53:
 1262 0048 534D535F 		.ascii	"SMS_LIB_Table7\000"
 1262      4C49425F 
 1262      5461626C 
 1262      653700
 1263              	.LASF54:
 1264 0057 534D535F 		.ascii	"SMS_LIB_Table8\000"
 1264      4C49425F 
 1264      5461626C 
 1264      653800
 1265              	.LASF55:
 1266 0066 534D535F 		.ascii	"SMS_LIB_Table9\000"
 1266      4C49425F 
 1266      5461626C 
 1266      653900
 1267              	.LASF22:
 1268 0075 534D535F 		.ascii	"SMS_LIB_V3_50_SetAnalogSwitchesSrc_PRS\000"
 1268      4C49425F 
 1268      56335F35 
 1268      305F5365 
 1268      74416E61 
 1269              	.LASF38:
 1270 009c 534D535F 		.ascii	"SMS_LIB_widgetNumber\000"
 1270      4C49425F 
 1270      77696467 
 1270      65744E75 
 1270      6D626572 
 1271              	.LASF43:
 1272 00b1 534D535F 		.ascii	"SMS_LIB_prescaler\000"
 1272      4C49425F 
 1272      70726573 
 1272      63616C65 
 1272      7200
 1273              	.LASF37:
 1274 00c3 534D535F 		.ascii	"SMS_LIB_widgetResolution\000"
 1274      4C49425F 
 1274      77696467 
 1274      65745265 
 1274      736F6C75 
 1275              	.LASF39:
 1276 00dc 534D535F 		.ascii	"SMS_LIB_numberOfSensors\000"
 1276      4C49425F 
 1276      6E756D62 
 1276      65724F66 
 1276      53656E73 
 1277              	.LASF7:
 1278 00f4 6C6F6E67 		.ascii	"long long unsigned int\000"
 1278      206C6F6E 
 1278      6720756E 
 1278      7369676E 
 1278      65642069 
 1279              	.LASF36:
 1280 010b 534D535F 		.ascii	"SMS_LIB_hysteresis\000"
 1280      4C49425F 
 1280      68797374 
ARM GAS  C:\Users\antarp\AppData\Local\Temp\cc6PrePa.s 			page 28


 1280      65726573 
 1280      697300
 1281              	.LASF6:
 1282 011e 6C6F6E67 		.ascii	"long long int\000"
 1282      206C6F6E 
 1282      6720696E 
 1282      7400
 1283              	.LASF0:
 1284 012c 7369676E 		.ascii	"signed char\000"
 1284      65642063 
 1284      68617200 
 1285              	.LASF67:
 1286 0138 43617053 		.ascii	"CapSense_SetAnalogSwitchesSource\000"
 1286      656E7365 
 1286      5F536574 
 1286      416E616C 
 1286      6F675377 
 1287              	.LASF18:
 1288 0159 53656E73 		.ascii	"SensorNumber\000"
 1288      6F724E75 
 1288      6D626572 
 1288      00
 1289              	.LASF4:
 1290 0166 6C6F6E67 		.ascii	"long int\000"
 1290      20696E74 
 1290      00
 1291              	.LASF9:
 1292 016f 75696E74 		.ascii	"uint8\000"
 1292      3800
 1293              	.LASF12:
 1294 0175 646F7562 		.ascii	"double\000"
 1294      6C6500
 1295              	.LASF25:
 1296 017c 43617053 		.ascii	"CapSense_widgetNumber\000"
 1296      656E7365 
 1296      5F776964 
 1296      6765744E 
 1296      756D6265 
 1297              	.LASF59:
 1298 0192 534D535F 		.ascii	"SMS_LIB_TotalScanSlCnt\000"
 1298      4C49425F 
 1298      546F7461 
 1298      6C536361 
 1298      6E536C43 
 1299              	.LASF63:
 1300 01a9 43617053 		.ascii	"CapSense_ScanSensor\000"
 1300      656E7365 
 1300      5F536361 
 1300      6E53656E 
 1300      736F7200 
 1301              	.LASF8:
 1302 01bd 756E7369 		.ascii	"unsigned int\000"
 1302      676E6564 
 1302      20696E74 
 1302      00
 1303              	.LASF5:
 1304 01ca 6C6F6E67 		.ascii	"long unsigned int\000"
ARM GAS  C:\Users\antarp\AppData\Local\Temp\cc6PrePa.s 			page 29


 1304      20756E73 
 1304      69676E65 
 1304      6420696E 
 1304      7400
 1305              	.LASF3:
 1306 01dc 73686F72 		.ascii	"short unsigned int\000"
 1306      7420756E 
 1306      7369676E 
 1306      65642069 
 1306      6E7400
 1307              	.LASF47:
 1308 01ef 534D535F 		.ascii	"SMS_LIB_PrescalerTbl\000"
 1308      4C49425F 
 1308      50726573 
 1308      63616C65 
 1308      7254626C 
 1309              	.LASF17:
 1310 0204 43617053 		.ascii	"CapSense_CalculateThresholds\000"
 1310      656E7365 
 1310      5F43616C 
 1310      63756C61 
 1310      74655468 
 1311              	.LASF69:
 1312 0221 47656E65 		.ascii	"Generated_Source\\PSoC5\\CapSense_SMS_Wrapper.c\000"
 1312      72617465 
 1312      645F536F 
 1312      75726365 
 1312      5C50536F 
 1313              	.LASF46:
 1314 024f 534D535F 		.ascii	"SMS_LIB_SensorSensitivity\000"
 1314      4C49425F 
 1314      53656E73 
 1314      6F725365 
 1314      6E736974 
 1315              	.LASF19:
 1316 0269 43617053 		.ascii	"CapSense_AutoTune\000"
 1316      656E7365 
 1316      5F417574 
 1316      6F54756E 
 1316      6500
 1317              	.LASF34:
 1318 027b 43617053 		.ascii	"CapSense_analogSwitchDivider\000"
 1318      656E7365 
 1318      5F616E61 
 1318      6C6F6753 
 1318      77697463 
 1319              	.LASF35:
 1320 0298 534D535F 		.ascii	"SMS_LIB_noiseThreshold\000"
 1320      4C49425F 
 1320      6E6F6973 
 1320      65546872 
 1320      6573686F 
 1321              	.LASF15:
 1322 02af 73697A65 		.ascii	"sizetype\000"
 1322      74797065 
 1322      00
 1323              	.LASF27:
ARM GAS  C:\Users\antarp\AppData\Local\Temp\cc6PrePa.s 			page 30


 1324 02b8 43617053 		.ascii	"CapSense_noiseThreshold\000"
 1324      656E7365 
 1324      5F6E6F69 
 1324      73655468 
 1324      72657368 
 1325              	.LASF14:
 1326 02d0 6C6F6E67 		.ascii	"long double\000"
 1326      20646F75 
 1326      626C6500 
 1327              	.LASF40:
 1328 02dc 534D535F 		.ascii	"SMS_LIB_rawDataIndex\000"
 1328      4C49425F 
 1328      72617744 
 1328      61746149 
 1328      6E646578 
 1329              	.LASF66:
 1330 02f1 534D535F 		.ascii	"SMS_LIB_V3_50_AutoTune1Ch\000"
 1330      4C49425F 
 1330      56335F35 
 1330      305F4175 
 1330      746F5475 
 1331              	.LASF32:
 1332 030b 43617053 		.ascii	"CapSense_fingerThreshold\000"
 1332      656E7365 
 1332      5F66696E 
 1332      67657254 
 1332      68726573 
 1333              	.LASF33:
 1334 0324 43617053 		.ascii	"CapSense_idacSettings\000"
 1334      656E7365 
 1334      5F696461 
 1334      63536574 
 1334      74696E67 
 1335              	.LASF11:
 1336 033a 666C6F61 		.ascii	"float\000"
 1336      7400
 1337              	.LASF21:
 1338 0340 70726573 		.ascii	"prescaler\000"
 1338      63616C65 
 1338      7200
 1339              	.LASF1:
 1340 034a 756E7369 		.ascii	"unsigned char\000"
 1340      676E6564 
 1340      20636861 
 1340      7200
 1341              	.LASF71:
 1342 0358 534D535F 		.ascii	"SMS_LIB_IsBusy\000"
 1342      4C49425F 
 1342      49734275 
 1342      737900
 1343              	.LASF29:
 1344 0367 43617053 		.ascii	"CapSense_widgetResolution\000"
 1344      656E7365 
 1344      5F776964 
 1344      67657452 
 1344      65736F6C 
 1345              	.LASF2:
ARM GAS  C:\Users\antarp\AppData\Local\Temp\cc6PrePa.s 			page 31


 1346 0381 73686F72 		.ascii	"short int\000"
 1346      7420696E 
 1346      7400
 1347              	.LASF42:
 1348 038b 534D535F 		.ascii	"SMS_LIB_idacSettings\000"
 1348      4C49425F 
 1348      69646163 
 1348      53657474 
 1348      696E6773 
 1349              	.LASF68:
 1350 03a0 474E5520 		.ascii	"GNU C11 5.4.1 20160609 (release) [ARM/embedded-5-br"
 1350      43313120 
 1350      352E342E 
 1350      31203230 
 1350      31363036 
 1351 03d3 616E6368 		.ascii	"anch revision 237715] -mcpu=cortex-m3 -mthumb -g -O"
 1351      20726576 
 1351      6973696F 
 1351      6E203233 
 1351      37373135 
 1352 0406 67202D66 		.ascii	"g -ffunction-sections -ffat-lto-objects\000"
 1352      66756E63 
 1352      74696F6E 
 1352      2D736563 
 1352      74696F6E 
 1353              	.LASF31:
 1354 042e 43617053 		.ascii	"CapSense_rawDataIndex\000"
 1354      656E7365 
 1354      5F726177 
 1354      44617461 
 1354      496E6465 
 1355              	.LASF65:
 1356 0444 534D535F 		.ascii	"SMS_LIB_V3_50_CalculateThresholds\000"
 1356      4C49425F 
 1356      56335F35 
 1356      305F4361 
 1356      6C63756C 
 1357              	.LASF16:
 1358 0466 534D535F 		.ascii	"SMS_LIB_ScanSensor\000"
 1358      4C49425F 
 1358      5363616E 
 1358      53656E73 
 1358      6F7200
 1359              	.LASF48:
 1360 0479 534D535F 		.ascii	"SMS_LIB_Table2\000"
 1360      4C49425F 
 1360      5461626C 
 1360      653200
 1361              	.LASF58:
 1362 0488 534D535F 		.ascii	"SMS_LIB_TotalSnsCnt\000"
 1362      4C49425F 
 1362      546F7461 
 1362      6C536E73 
 1362      436E7400 
 1363              	.LASF26:
 1364 049c 43617053 		.ascii	"CapSense_sensorBaseline\000"
 1364      656E7365 
ARM GAS  C:\Users\antarp\AppData\Local\Temp\cc6PrePa.s 			page 32


 1364      5F73656E 
 1364      736F7242 
 1364      6173656C 
 1365              	.LASF52:
 1366 04b4 534D535F 		.ascii	"SMS_LIB_Table6\000"
 1366      4C49425F 
 1366      5461626C 
 1366      653600
 1367              	.LASF13:
 1368 04c3 63686172 		.ascii	"char\000"
 1368      00
 1369              	.LASF45:
 1370 04c8 534D535F 		.ascii	"SMS_LIB_SensorBaseline\000"
 1370      4C49425F 
 1370      53656E73 
 1370      6F724261 
 1370      73656C69 
 1371              	.LASF23:
 1372 04df 534D535F 		.ascii	"SMS_LIB_V3_50_SetAnalogSwitchesSrc_Prescaler\000"
 1372      4C49425F 
 1372      56335F35 
 1372      305F5365 
 1372      74416E61 
 1373              	.LASF44:
 1374 050c 534D535F 		.ascii	"SMS_LIB_SensorRaw\000"
 1374      4C49425F 
 1374      53656E73 
 1374      6F725261 
 1374      7700
 1375              	.LASF70:
 1376 051e 433A5C55 		.ascii	"C:\\Users\\antarp\\Documents\\CE4950\\Networking\\P"
 1376      73657273 
 1376      5C616E74 
 1376      6172705C 
 1376      446F6375 
 1377 054b 726F6A65 		.ascii	"roject1.cydsn\000"
 1377      6374312E 
 1377      63796473 
 1377      6E00
 1378              	.LASF61:
 1379 0559 534D535F 		.ascii	"SMS_LIB_TotalSnsCnt_CH0\000"
 1379      4C49425F 
 1379      546F7461 
 1379      6C536E73 
 1379      436E745F 
 1380              	.LASF62:
 1381 0571 534D535F 		.ascii	"SMS_LIB_TotalSnsCnt_CH1\000"
 1381      4C49425F 
 1381      546F7461 
 1381      6C536E73 
 1381      436E745F 
 1382              	.LASF60:
 1383 0589 534D535F 		.ascii	"SMS_LIB_EndOfWidgInd\000"
 1383      4C49425F 
 1383      456E644F 
 1383      66576964 
 1383      67496E64 
ARM GAS  C:\Users\antarp\AppData\Local\Temp\cc6PrePa.s 			page 33


 1384              	.LASF24:
 1385 059e 43617053 		.ascii	"CapSense_sensorRaw\000"
 1385      656E7365 
 1385      5F73656E 
 1385      736F7252 
 1385      617700
 1386              	.LASF20:
 1387 05b1 534D535F 		.ascii	"SMS_LIB_SetPrescaler\000"
 1387      4C49425F 
 1387      53657450 
 1387      72657363 
 1387      616C6572 
 1388              	.LASF41:
 1389 05c6 534D535F 		.ascii	"SMS_LIB_fingerThreshold\000"
 1389      4C49425F 
 1389      66696E67 
 1389      65725468 
 1389      72657368 
 1390              	.LASF56:
 1391 05de 534D535F 		.ascii	"SMS_LIB_Var1\000"
 1391      4C49425F 
 1391      56617231 
 1391      00
 1392              	.LASF57:
 1393 05eb 534D535F 		.ascii	"SMS_LIB_Var2\000"
 1393      4C49425F 
 1393      56617232 
 1393      00
 1394              	.LASF64:
 1395 05f8 43617053 		.ascii	"CapSense_IsBusy\000"
 1395      656E7365 
 1395      5F497342 
 1395      75737900 
 1396              	.LASF30:
 1397 0608 43617053 		.ascii	"CapSense_numberOfSensors\000"
 1397      656E7365 
 1397      5F6E756D 
 1397      6265724F 
 1397      6653656E 
 1398              		.ident	"GCC: (GNU Tools for ARM Embedded Processors) 5.4.1 20160609 (release) [ARM/embedded-5-bran
