ARM GAS  C:\Users\antarp\AppData\Local\Temp\ccZbt3Zo.s 			page 1


   1              		.syntax unified
   2              		.cpu cortex-m3
   3              		.fpu softvfp
   4              		.eabi_attribute 20, 1
   5              		.eabi_attribute 21, 1
   6              		.eabi_attribute 23, 3
   7              		.eabi_attribute 24, 1
   8              		.eabi_attribute 25, 1
   9              		.eabi_attribute 26, 1
  10              		.eabi_attribute 30, 1
  11              		.eabi_attribute 34, 1
  12              		.eabi_attribute 18, 4
  13              		.thumb
  14              		.syntax unified
  15              		.file	"transmit.c"
  16              		.text
  17              	.Ltext0:
  18              		.cfi_sections	.debug_frame
  19              		.section	.text.uart_init,"ax",%progbits
  20              		.align	2
  21              		.global	uart_init
  22              		.thumb
  23              		.thumb_func
  24              		.type	uart_init, %function
  25              	uart_init:
  26              	.LFB63:
  27              		.file 1 "transmit.c"
   1:transmit.c    **** /* ========================================
   2:transmit.c    ****  *
   3:transmit.c    ****  * Copyright YOUR COMPANY, THE YEAR
   4:transmit.c    ****  * All Rights Reserved
   5:transmit.c    ****  * UNPUBLISHED, LICENSED SOFTWARE.
   6:transmit.c    ****  *
   7:transmit.c    ****  * CONFIDENTIAL AND PROPRIETARY INFORMATION
   8:transmit.c    ****  * WHICH IS THE PROPERTY OF your company.
   9:transmit.c    ****  *
  10:transmit.c    ****  * ========================================
  11:transmit.c    **** */
  12:transmit.c    **** #include "project.h"
  13:transmit.c    **** #include "transmit.h"
  14:transmit.c    **** #include "receive.h"
  15:transmit.c    **** #include "addr_input.h"
  16:transmit.c    **** 
  17:transmit.c    **** #define USBUART_BUFFER_SIZE (64u)
  18:transmit.c    **** int counter = 0;
  19:transmit.c    **** //int flag = 0; //o if no ENTER, 1 if ENTER
  20:transmit.c    **** uint16 double_buffer[USBUART_BUFFER_SIZE*2] = {0};
  21:transmit.c    **** int have_dest_address = 0;
  22:transmit.c    **** 
  23:transmit.c    **** void uart_init()
  24:transmit.c    **** {
  28              		.loc 1 24 0
  29              		.cfi_startproc
  30              		@ args = 0, pretend = 0, frame = 0
  31              		@ frame_needed = 0, uses_anonymous_args = 0
  32 0000 08B5     		push	{r3, lr}
  33              		.cfi_def_cfa_offset 8
ARM GAS  C:\Users\antarp\AppData\Local\Temp\ccZbt3Zo.s 			page 2


  34              		.cfi_offset 3, -8
  35              		.cfi_offset 14, -4
  25:transmit.c    ****     USBUART_Start(0, USBUART_3V_OPERATION);
  36              		.loc 1 25 0
  37 0002 0021     		movs	r1, #0
  38 0004 0846     		mov	r0, r1
  39 0006 FFF7FEFF 		bl	USBUART_Start
  40              	.LVL0:
  26:transmit.c    ****     flag = 0;
  41              		.loc 1 26 0
  42 000a 0023     		movs	r3, #0
  43 000c 024A     		ldr	r2, .L3
  44 000e 1360     		str	r3, [r2]
  27:transmit.c    ****     isTransmitting = 0;
  45              		.loc 1 27 0
  46 0010 024A     		ldr	r2, .L3+4
  47 0012 1360     		str	r3, [r2]
  48 0014 08BD     		pop	{r3, pc}
  49              	.L4:
  50 0016 00BF     		.align	2
  51              	.L3:
  52 0018 00000000 		.word	flag
  53 001c 00000000 		.word	isTransmitting
  54              		.cfi_endproc
  55              	.LFE63:
  56              		.size	uart_init, .-uart_init
  57              		.section	.text.add_zeros,"ax",%progbits
  58              		.align	2
  59              		.global	add_zeros
  60              		.thumb
  61              		.thumb_func
  62              		.type	add_zeros, %function
  63              	add_zeros:
  64              	.LFB64:
  28:transmit.c    **** }
  29:transmit.c    **** void add_zeros(uint8* buffer_source, uint16* buffer_dest, int count)
  30:transmit.c    **** {
  65              		.loc 1 30 0
  66              		.cfi_startproc
  67              		@ args = 0, pretend = 0, frame = 0
  68              		@ frame_needed = 0, uses_anonymous_args = 0
  69              		@ link register save eliminated.
  70              	.LVL1:
  71 0000 F0B4     		push	{r4, r5, r6, r7}
  72              		.cfi_def_cfa_offset 16
  73              		.cfi_offset 4, -16
  74              		.cfi_offset 5, -12
  75              		.cfi_offset 6, -8
  76              		.cfi_offset 7, -4
  77              	.LVL2:
  78              	.LBB2:
  31:transmit.c    ****     uint16 temp;
  32:transmit.c    ****     for (int j = 0; j < count; j++) //start at 7th byte, after header
  79              		.loc 1 32 0
  80 0002 0026     		movs	r6, #0
  81 0004 15E0     		b	.L6
  82              	.LVL3:
ARM GAS  C:\Users\antarp\AppData\Local\Temp\ccZbt3Zo.s 			page 3


  83              	.L7:
  84              	.LBB3:
  33:transmit.c    ****     {
  34:transmit.c    ****         for(int i = 0; i < 8; i++)
  35:transmit.c    ****         {
  36:transmit.c    ****            temp = *buffer_source & (1 << i);
  85              		.loc 1 36 0 discriminator 3
  86 0006 0478     		ldrb	r4, [r0]	@ zero_extendqisi2
  87 0008 0123     		movs	r3, #1
  88 000a AB40     		lsls	r3, r3, r5
  89 000c 2340     		ands	r3, r3, r4
  90              	.LVL4:
  37:transmit.c    ****            temp = temp >> i;
  91              		.loc 1 37 0 discriminator 3
  92 000e 43FA05F4 		asr	r4, r3, r5
  93              	.LVL5:
  38:transmit.c    ****            temp = temp << (2*i+1);
  94              		.loc 1 38 0 discriminator 3
  95 0012 6B00     		lsls	r3, r5, #1
  96 0014 5F1C     		adds	r7, r3, #1
  97 0016 A3B2     		uxth	r3, r4
  98 0018 BB40     		lsls	r3, r3, r7
  99 001a 9BB2     		uxth	r3, r3
 100              	.LVL6:
  39:transmit.c    ****            *(buffer_dest) = *(buffer_dest) | temp;
 101              		.loc 1 39 0 discriminator 3
 102 001c 0C88     		ldrh	r4, [r1]
 103 001e 2343     		orrs	r3, r3, r4
 104              	.LVL7:
 105 0020 0B80     		strh	r3, [r1]	@ movhi
 106              	.LVL8:
  34:transmit.c    ****         {
 107              		.loc 1 34 0 discriminator 3
 108 0022 0135     		adds	r5, r5, #1
 109              	.LVL9:
 110 0024 00E0     		b	.L8
 111              	.LVL10:
 112              	.L9:
 113              	.LBE3:
 114 0026 0025     		movs	r5, #0
 115              	.L8:
 116              	.LVL11:
 117              	.LBB4:
  34:transmit.c    ****         {
 118              		.loc 1 34 0 is_stmt 0 discriminator 1
 119 0028 072D     		cmp	r5, #7
 120 002a ECDD     		ble	.L7
 121              	.LVL12:
 122              	.LBE4:
  40:transmit.c    ****         }
  41:transmit.c    ****         buffer_source++;
 123              		.loc 1 41 0 is_stmt 1 discriminator 2
 124 002c 0130     		adds	r0, r0, #1
 125              	.LVL13:
  42:transmit.c    ****         buffer_dest++;
 126              		.loc 1 42 0 discriminator 2
 127 002e 0231     		adds	r1, r1, #2
ARM GAS  C:\Users\antarp\AppData\Local\Temp\ccZbt3Zo.s 			page 4


 128              	.LVL14:
  32:transmit.c    ****     {
 129              		.loc 1 32 0 discriminator 2
 130 0030 0136     		adds	r6, r6, #1
 131              	.LVL15:
 132              	.L6:
  32:transmit.c    ****     {
 133              		.loc 1 32 0 is_stmt 0 discriminator 1
 134 0032 9642     		cmp	r6, r2
 135 0034 F7DB     		blt	.L9
 136              	.LBE2:
  43:transmit.c    ****     }
  44:transmit.c    ****     buffer_source = buffer_source - count;
  45:transmit.c    ****     buffer_dest = buffer_dest - (count+7);
  46:transmit.c    **** }
 137              		.loc 1 46 0 is_stmt 1
 138 0036 F0BC     		pop	{r4, r5, r6, r7}
 139              		.cfi_restore 7
 140              		.cfi_restore 6
 141              		.cfi_restore 5
 142              		.cfi_restore 4
 143              		.cfi_def_cfa_offset 0
 144              	.LVL16:
 145 0038 7047     		bx	lr
 146              		.cfi_endproc
 147              	.LFE64:
 148              		.size	add_zeros, .-add_zeros
 149 003a 00BF     		.section	.text.transmit,"ax",%progbits
 150              		.align	2
 151              		.global	transmit
 152              		.thumb
 153              		.thumb_func
 154              		.type	transmit, %function
 155              	transmit:
 156              	.LFB66:
  47:transmit.c    **** 
  48:transmit.c    **** void uart_getdata()
  49:transmit.c    **** {
  50:transmit.c    ****     uint8 buffer[USBUART_BUFFER_SIZE];
  51:transmit.c    ****     uint8 full_buffer[USBUART_BUFFER_SIZE];
  52:transmit.c    ****     
  53:transmit.c    ****     uint16 count;
  54:transmit.c    ****     flag = 0;
  55:transmit.c    ****     
  56:transmit.c    ****     if(0u != USBUART_IsConfigurationChanged())
  57:transmit.c    ****     {
  58:transmit.c    ****         if(0u != USBUART_GetConfiguration())
  59:transmit.c    ****         {
  60:transmit.c    ****             USBUART_CDC_Init();
  61:transmit.c    ****         }
  62:transmit.c    ****     }
  63:transmit.c    ****     
  64:transmit.c    ****     if(0u != USBUART_GetConfiguration())
  65:transmit.c    ****     {
  66:transmit.c    ****         if (0u != USBUART_DataIsReady())
  67:transmit.c    ****         {
  68:transmit.c    ****             
ARM GAS  C:\Users\antarp\AppData\Local\Temp\ccZbt3Zo.s 			page 5


  69:transmit.c    ****             count = USBUART_GetAll(buffer);
  70:transmit.c    ****             if(buffer[0] == 0x0D)
  71:transmit.c    ****             {
  72:transmit.c    ****                 flag = 1;
  73:transmit.c    ****                 
  74:transmit.c    ****             }
  75:transmit.c    ****             else
  76:transmit.c    ****             {
  77:transmit.c    ****                 full_buffer[counter] = buffer[0] + 0b10000000;
  78:transmit.c    ****                 counter = counter+1;
  79:transmit.c    ****             }
  80:transmit.c    ****             
  81:transmit.c    ****             
  82:transmit.c    ****             
  83:transmit.c    ****             if(count != 0)
  84:transmit.c    ****             {
  85:transmit.c    ****                 while(0u == USBUART_CDCIsReady());
  86:transmit.c    ****                 
  87:transmit.c    ****                 USBUART_PutData(buffer, count);
  88:transmit.c    ****                 
  89:transmit.c    ****                 
  90:transmit.c    ****                 if(USBUART_BUFFER_SIZE == count)
  91:transmit.c    ****                 {
  92:transmit.c    ****                     while(0u == USBUART_CDCIsReady());
  93:transmit.c    ****                     USBUART_PutData(NULL, 0u);
  94:transmit.c    ****                 }
  95:transmit.c    ****             }
  96:transmit.c    ****         }
  97:transmit.c    ****     }
  98:transmit.c    ****     
  99:transmit.c    ****     if (flag == 1)
 100:transmit.c    ****     {         
 101:transmit.c    ****         isTransmitting = 1;
 102:transmit.c    ****         
 103:transmit.c    ****         /*int addr = -1;
 104:transmit.c    ****         if(have_dest_address == 0)
 105:transmit.c    ****         {
 106:transmit.c    ****             addr = get_dest_address();
 107:transmit.c    ****         }
 108:transmit.c    ****         else
 109:transmit.c    ****         {
 110:transmit.c    ****             header(addr);
 111:transmit.c    ****             transmit();
 112:transmit.c    ****         }*/
 113:transmit.c    ****         
 114:transmit.c    ****         int addr = get_dest_address();
 115:transmit.c    **** 
 116:transmit.c    ****         header(addr);
 117:transmit.c    ****         transmit();
 118:transmit.c    **** 
 119:transmit.c    ****         counter = 0;
 120:transmit.c    ****         
 121:transmit.c    ****     }
 122:transmit.c    ****     else if (flag == 0)
 123:transmit.c    ****     {
 124:transmit.c    ****         
 125:transmit.c    ****         add_zeros(full_buffer,double_buffer+7, counter);
ARM GAS  C:\Users\antarp\AppData\Local\Temp\ccZbt3Zo.s 			page 6


 126:transmit.c    ****         
 127:transmit.c    ****     }
 128:transmit.c    ****        
 129:transmit.c    **** }
 130:transmit.c    **** 
 131:transmit.c    **** void transmit() 
 132:transmit.c    **** {
 157              		.loc 1 132 0
 158              		.cfi_startproc
 159              		@ args = 0, pretend = 0, frame = 0
 160              		@ frame_needed = 0, uses_anonymous_args = 0
 161 0000 38B5     		push	{r3, r4, r5, lr}
 162              		.cfi_def_cfa_offset 16
 163              		.cfi_offset 3, -16
 164              		.cfi_offset 4, -12
 165              		.cfi_offset 5, -8
 166              		.cfi_offset 14, -4
 167              	.LVL17:
 133:transmit.c    ****    
 134:transmit.c    ****     int i = 0;
 168              		.loc 1 134 0
 169 0002 0025     		movs	r5, #0
 135:transmit.c    ****     uint16 temp;
 136:transmit.c    ****     while (double_buffer[i] != 0 && flag == 1)
 170              		.loc 1 136 0
 171 0004 17E0     		b	.L12
 172              	.LVL18:
 173              	.L14:
 174              	.LBB5:
 137:transmit.c    ****     {       
 138:transmit.c    ****         for(int j = 15; j >= 0; j--)
 139:transmit.c    ****         {
 140:transmit.c    ****             if(flag == 1)
 175              		.loc 1 140 0
 176 0006 1A4B     		ldr	r3, .L22
 177 0008 1B68     		ldr	r3, [r3]
 178 000a 012B     		cmp	r3, #1
 179 000c 0DD1     		bne	.L13
 141:transmit.c    ****             {          
 142:transmit.c    ****                 //LCD_Position(1,0);
 143:transmit.c    ****                 //LCD_PrintNumber(flag);
 144:transmit.c    ****                 
 145:transmit.c    ****                 temp = double_buffer[i] & (1 << j);
 180              		.loc 1 145 0
 181 000e 194B     		ldr	r3, .L22+4
 182 0010 33F81500 		ldrh	r0, [r3, r5, lsl #1]
 183 0014 0123     		movs	r3, #1
 184 0016 A340     		lsls	r3, r3, r4
 185 0018 1840     		ands	r0, r0, r3
 186              	.LVL19:
 146:transmit.c    ****                 
 147:transmit.c    ****                 temp = temp >> j;
 187              		.loc 1 147 0
 188 001a 2041     		asrs	r0, r0, r4
 189              	.LVL20:
 148:transmit.c    ****                 //LCD_PrintDecUint16(temp);
 149:transmit.c    ****                 //CyDelay(500);
ARM GAS  C:\Users\antarp\AppData\Local\Temp\ccZbt3Zo.s 			page 7


 150:transmit.c    ****                 transmitted_data_Write(temp);
 190              		.loc 1 150 0
 191 001c C0B2     		uxtb	r0, r0
 192              	.LVL21:
 193 001e FFF7FEFF 		bl	transmitted_data_Write
 194              	.LVL22:
 151:transmit.c    ****                 
 152:transmit.c    ****                 CyDelayUs(485); //0.5 ms with code delay taken into account
 195              		.loc 1 152 0
 196 0022 40F2E510 		movw	r0, #485
 197 0026 FFF7FEFF 		bl	CyDelayUs
 198              	.LVL23:
 199              	.L13:
 138:transmit.c    ****         {
 200              		.loc 1 138 0 discriminator 2
 201 002a 013C     		subs	r4, r4, #1
 202              	.LVL24:
 203 002c 00E0     		b	.L16
 204              	.LVL25:
 205              	.L20:
 206              	.LBE5:
 207 002e 0F24     		movs	r4, #15
 208              	.L16:
 209              	.LVL26:
 210              	.LBB6:
 138:transmit.c    ****         {
 211              		.loc 1 138 0 is_stmt 0 discriminator 1
 212 0030 002C     		cmp	r4, #0
 213 0032 E8DA     		bge	.L14
 214              	.LBE6:
 153:transmit.c    ****             }
 154:transmit.c    ****         }
 155:transmit.c    ****         i++;
 215              		.loc 1 155 0 is_stmt 1
 216 0034 0135     		adds	r5, r5, #1
 217              	.LVL27:
 218              	.L12:
 136:transmit.c    ****     {       
 219              		.loc 1 136 0
 220 0036 0F4B     		ldr	r3, .L22+4
 221 0038 33F81530 		ldrh	r3, [r3, r5, lsl #1]
 222 003c 1BB1     		cbz	r3, .L15
 136:transmit.c    ****     {       
 223              		.loc 1 136 0 is_stmt 0 discriminator 1
 224 003e 0C4B     		ldr	r3, .L22
 225 0040 1B68     		ldr	r3, [r3]
 226 0042 012B     		cmp	r3, #1
 227 0044 F3D0     		beq	.L20
 228              	.L15:
 156:transmit.c    ****     }
 157:transmit.c    **** 
 158:transmit.c    ****     //LCD_Position(0,0);
 159:transmit.c    ****     //LCD_PrintInt32(flag);
 160:transmit.c    ****     
 161:transmit.c    ****     if(flag == 1)
 229              		.loc 1 161 0 is_stmt 1
 230 0046 0A4B     		ldr	r3, .L22
ARM GAS  C:\Users\antarp\AppData\Local\Temp\ccZbt3Zo.s 			page 8


 231 0048 1B68     		ldr	r3, [r3]
 232 004a 012B     		cmp	r3, #1
 233 004c 0FD1     		bne	.L11
 234              	.LBB7:
 162:transmit.c    ****     {
 163:transmit.c    ****         isTransmitting = 0;
 235              		.loc 1 163 0
 236 004e 0023     		movs	r3, #0
 237 0050 094A     		ldr	r2, .L22+8
 238 0052 1360     		str	r3, [r2]
 164:transmit.c    ****         flag = 0;
 239              		.loc 1 164 0
 240 0054 064A     		ldr	r2, .L22
 241 0056 1360     		str	r3, [r2]
 242              	.LVL28:
 165:transmit.c    ****         
 166:transmit.c    ****         //LCD_Position(1,0);
 167:transmit.c    ****         //LCD_PrintString("test1");
 168:transmit.c    ****         //clear out buffer
 169:transmit.c    ****         int i = 0;
 170:transmit.c    ****         while (double_buffer[i] != 0)
 243              		.loc 1 170 0
 244 0058 04E0     		b	.L18
 245              	.LVL29:
 246              	.L19:
 171:transmit.c    ****         {
 172:transmit.c    ****             double_buffer[i] = 0;
 247              		.loc 1 172 0
 248 005a 0021     		movs	r1, #0
 249 005c 054A     		ldr	r2, .L22+4
 250 005e 22F81310 		strh	r1, [r2, r3, lsl #1]	@ movhi
 173:transmit.c    ****             i++;
 251              		.loc 1 173 0
 252 0062 0133     		adds	r3, r3, #1
 253              	.LVL30:
 254              	.L18:
 170:transmit.c    ****         {
 255              		.loc 1 170 0
 256 0064 034A     		ldr	r2, .L22+4
 257 0066 32F81320 		ldrh	r2, [r2, r3, lsl #1]
 258 006a 002A     		cmp	r2, #0
 259 006c F5D1     		bne	.L19
 260              	.LVL31:
 261              	.L11:
 262 006e 38BD     		pop	{r3, r4, r5, pc}
 263              	.LVL32:
 264              	.L23:
 265              		.align	2
 266              	.L22:
 267 0070 00000000 		.word	flag
 268 0074 00000000 		.word	.LANCHOR0
 269 0078 00000000 		.word	isTransmitting
 270              	.LBE7:
 271              		.cfi_endproc
 272              	.LFE66:
 273              		.size	transmit, .-transmit
 274              		.section	.text.header,"ax",%progbits
ARM GAS  C:\Users\antarp\AppData\Local\Temp\ccZbt3Zo.s 			page 9


 275              		.align	2
 276              		.global	header
 277              		.thumb
 278              		.thumb_func
 279              		.type	header, %function
 280              	header:
 281              	.LFB67:
 174:transmit.c    ****         }
 175:transmit.c    ****     }
 176:transmit.c    ****     
 177:transmit.c    ****     //stop = 1;
 178:transmit.c    ****     //flag = 0;
 179:transmit.c    ****     
 180:transmit.c    **** }
 181:transmit.c    **** 
 182:transmit.c    **** void header(uint16 address)
 183:transmit.c    **** {
 282              		.loc 1 183 0
 283              		.cfi_startproc
 284              		@ args = 0, pretend = 0, frame = 0
 285              		@ frame_needed = 0, uses_anonymous_args = 0
 286              	.LVL33:
 287 0000 38B5     		push	{r3, r4, r5, lr}
 288              		.cfi_def_cfa_offset 16
 289              		.cfi_offset 3, -16
 290              		.cfi_offset 4, -12
 291              		.cfi_offset 5, -8
 292              		.cfi_offset 14, -4
 184:transmit.c    ****     //1st bye - 0x80
 185:transmit.c    ****     double_buffer[0] = 0x8000;
 293              		.loc 1 185 0
 294 0002 1B4B     		ldr	r3, .L30
 295 0004 4FF40042 		mov	r2, #32768
 296 0008 1A80     		strh	r2, [r3]	@ movhi
 186:transmit.c    ****     //2nd byte - 0x81
 187:transmit.c    ****     double_buffer[1] = 0x8002;
 297              		.loc 1 187 0
 298 000a 48F20202 		movw	r2, #32770
 299 000e 5A80     		strh	r2, [r3, #2]	@ movhi
 188:transmit.c    ****     //3rd byte - source address
 189:transmit.c    ****     double_buffer[2] = 0x8002; //address 1
 300              		.loc 1 189 0
 301 0010 9A80     		strh	r2, [r3, #4]	@ movhi
 190:transmit.c    ****     //4th byte - destination address
 191:transmit.c    ****     double_buffer[3] = address; //broadcast
 302              		.loc 1 191 0
 303 0012 D880     		strh	r0, [r3, #6]	@ movhi
 192:transmit.c    ****     //5th byte - logic 1 in MSB + length in binary
 193:transmit.c    ****     if(counter > 45 || counter < 1)
 304              		.loc 1 193 0
 305 0014 D3F80051 		ldr	r5, [r3, #256]
 306 0018 6B1E     		subs	r3, r5, #1
 307 001a 2C2B     		cmp	r3, #44
 308 001c 15D9     		bls	.L28
 194:transmit.c    ****     {
 195:transmit.c    ****         LCD_Position(0,0);
 309              		.loc 1 195 0
ARM GAS  C:\Users\antarp\AppData\Local\Temp\ccZbt3Zo.s 			page 10


 310 001e 0021     		movs	r1, #0
 311 0020 0846     		mov	r0, r1
 312              	.LVL34:
 313 0022 FFF7FEFF 		bl	LCD_Position
 314              	.LVL35:
 196:transmit.c    ****         LCD_PrintString("Wrong size! :(");
 315              		.loc 1 196 0
 316 0026 1348     		ldr	r0, .L30+4
 317 0028 FFF7FEFF 		bl	LCD_PrintString
 318              	.LVL36:
 319 002c 17E0     		b	.L26
 320              	.LVL37:
 321              	.L27:
 322              	.LBB8:
 323              	.LBB9:
 197:transmit.c    ****     }
 198:transmit.c    ****     else
 199:transmit.c    ****     {
 200:transmit.c    ****         uint16 temp;
 201:transmit.c    ****         uint16 result = 0;
 202:transmit.c    ****         for(int i = 0; i < 8; i++)
 203:transmit.c    ****         {
 204:transmit.c    ****            temp = counter & (1 << i);
 324              		.loc 1 204 0 discriminator 3
 325 002e 0123     		movs	r3, #1
 326 0030 8B40     		lsls	r3, r3, r1
 327 0032 2B40     		ands	r3, r3, r5
 328 0034 9BB2     		uxth	r3, r3
 329              	.LVL38:
 205:transmit.c    ****            temp = temp >> i;
 330              		.loc 1 205 0 discriminator 3
 331 0036 43FA01F2 		asr	r2, r3, r1
 332              	.LVL39:
 206:transmit.c    ****            temp = temp << (2*i+1);
 333              		.loc 1 206 0 discriminator 3
 334 003a 4B00     		lsls	r3, r1, #1
 335 003c 581C     		adds	r0, r3, #1
 336 003e 93B2     		uxth	r3, r2
 337 0040 8340     		lsls	r3, r3, r0
 338 0042 9BB2     		uxth	r3, r3
 339              	.LVL40:
 207:transmit.c    ****            result = result | temp;
 340              		.loc 1 207 0 discriminator 3
 341 0044 1C43     		orrs	r4, r4, r3
 342              	.LVL41:
 202:transmit.c    ****         {
 343              		.loc 1 202 0 discriminator 3
 344 0046 0131     		adds	r1, r1, #1
 345              	.LVL42:
 346 0048 01E0     		b	.L25
 347              	.LVL43:
 348              	.L28:
 349              	.LBE9:
 350              	.LBE8:
 351 004a 0021     		movs	r1, #0
 352 004c 0C46     		mov	r4, r1
 353              	.LVL44:
ARM GAS  C:\Users\antarp\AppData\Local\Temp\ccZbt3Zo.s 			page 11


 354              	.L25:
 355              	.LBB11:
 356              	.LBB10:
 202:transmit.c    ****         {
 357              		.loc 1 202 0 is_stmt 0 discriminator 1
 358 004e 0729     		cmp	r1, #7
 359 0050 EDDD     		ble	.L27
 360              	.LBE10:
 208:transmit.c    ****         }
 209:transmit.c    ****         double_buffer[4] = result | 0b1000000000000000;
 361              		.loc 1 209 0 is_stmt 1
 362 0052 6FEA4444 		mvn	r4, r4, lsl #17
 363              	.LVL45:
 364 0056 6FEA5444 		mvn	r4, r4, lsr #17
 365 005a 054B     		ldr	r3, .L30
 366 005c 1C81     		strh	r4, [r3, #8]	@ movhi
 367              	.LVL46:
 368              	.L26:
 369              	.LBE11:
 210:transmit.c    ****     }  
 211:transmit.c    ****     //6th byte - 128 (crc not used)
 212:transmit.c    ****     double_buffer[5] = 0x8000;
 370              		.loc 1 212 0
 371 005e 044B     		ldr	r3, .L30
 372 0060 4FF40042 		mov	r2, #32768
 373 0064 5A81     		strh	r2, [r3, #10]	@ movhi
 213:transmit.c    ****     //7th byte - 11110111 (crc not used)
 214:transmit.c    ****     double_buffer[6] = 0b1010101000101010;  
 374              		.loc 1 214 0
 375 0066 4AF62A22 		movw	r2, #43562
 376 006a 9A81     		strh	r2, [r3, #12]	@ movhi
 377 006c 38BD     		pop	{r3, r4, r5, pc}
 378              	.L31:
 379 006e 00BF     		.align	2
 380              	.L30:
 381 0070 00000000 		.word	.LANCHOR0
 382 0074 00000000 		.word	.LC0
 383              		.cfi_endproc
 384              	.LFE67:
 385              		.size	header, .-header
 386              		.section	.text.uart_getdata,"ax",%progbits
 387              		.align	2
 388              		.global	uart_getdata
 389              		.thumb
 390              		.thumb_func
 391              		.type	uart_getdata, %function
 392              	uart_getdata:
 393              	.LFB65:
  49:transmit.c    ****     uint8 buffer[USBUART_BUFFER_SIZE];
 394              		.loc 1 49 0
 395              		.cfi_startproc
 396              		@ args = 0, pretend = 0, frame = 128
 397              		@ frame_needed = 0, uses_anonymous_args = 0
 398 0000 10B5     		push	{r4, lr}
 399              		.cfi_def_cfa_offset 8
 400              		.cfi_offset 4, -8
 401              		.cfi_offset 14, -4
ARM GAS  C:\Users\antarp\AppData\Local\Temp\ccZbt3Zo.s 			page 12


 402 0002 A0B0     		sub	sp, sp, #128
 403              		.cfi_def_cfa_offset 136
  54:transmit.c    ****     
 404              		.loc 1 54 0
 405 0004 0022     		movs	r2, #0
 406 0006 2B4B     		ldr	r3, .L42
 407 0008 1A60     		str	r2, [r3]
  56:transmit.c    ****     {
 408              		.loc 1 56 0
 409 000a FFF7FEFF 		bl	USBUART_IsConfigurationChanged
 410              	.LVL47:
 411 000e 20B1     		cbz	r0, .L33
  58:transmit.c    ****         {
 412              		.loc 1 58 0
 413 0010 FFF7FEFF 		bl	USBUART_GetConfiguration
 414              	.LVL48:
 415 0014 08B1     		cbz	r0, .L33
  60:transmit.c    ****         }
 416              		.loc 1 60 0
 417 0016 FFF7FEFF 		bl	USBUART_CDC_Init
 418              	.LVL49:
 419              	.L33:
  64:transmit.c    ****     {
 420              		.loc 1 64 0
 421 001a FFF7FEFF 		bl	USBUART_GetConfiguration
 422              	.LVL50:
 423 001e 60B3     		cbz	r0, .L34
  66:transmit.c    ****         {
 424              		.loc 1 66 0
 425 0020 FFF7FEFF 		bl	USBUART_DataIsReady
 426              	.LVL51:
 427 0024 48B3     		cbz	r0, .L34
  69:transmit.c    ****             if(buffer[0] == 0x0D)
 428              		.loc 1 69 0
 429 0026 10A8     		add	r0, sp, #64
 430 0028 FFF7FEFF 		bl	USBUART_GetAll
 431              	.LVL52:
 432 002c 0446     		mov	r4, r0
 433              	.LVL53:
  70:transmit.c    ****             {
 434              		.loc 1 70 0
 435 002e 9DF84030 		ldrb	r3, [sp, #64]	@ zero_extendqisi2
 436 0032 0D2B     		cmp	r3, #13
 437 0034 03D1     		bne	.L35
  72:transmit.c    ****                 
 438              		.loc 1 72 0
 439 0036 0122     		movs	r2, #1
 440 0038 1E4B     		ldr	r3, .L42
 441 003a 1A60     		str	r2, [r3]
 442 003c 0AE0     		b	.L36
 443              	.L35:
  77:transmit.c    ****                 counter = counter+1;
 444              		.loc 1 77 0
 445 003e 1E49     		ldr	r1, .L42+4
 446 0040 D1F80021 		ldr	r2, [r1, #256]
 447 0044 20A8     		add	r0, sp, #128
 448 0046 1044     		add	r0, r0, r2
ARM GAS  C:\Users\antarp\AppData\Local\Temp\ccZbt3Zo.s 			page 13


 449 0048 803B     		subs	r3, r3, #128
 450 004a 00F8803C 		strb	r3, [r0, #-128]
  78:transmit.c    ****             }
 451              		.loc 1 78 0
 452 004e 0132     		adds	r2, r2, #1
 453 0050 C1F80021 		str	r2, [r1, #256]
 454              	.L36:
  83:transmit.c    ****             {
 455              		.loc 1 83 0
 456 0054 8CB1     		cbz	r4, .L34
 457              	.L37:
  85:transmit.c    ****                 
 458              		.loc 1 85 0 discriminator 1
 459 0056 FFF7FEFF 		bl	USBUART_CDCIsReady
 460              	.LVL54:
 461 005a 0028     		cmp	r0, #0
 462 005c FBD0     		beq	.L37
  87:transmit.c    ****                 
 463              		.loc 1 87 0
 464 005e 2146     		mov	r1, r4
 465 0060 10A8     		add	r0, sp, #64
 466 0062 FFF7FEFF 		bl	USBUART_PutData
 467              	.LVL55:
  90:transmit.c    ****                 {
 468              		.loc 1 90 0
 469 0066 402C     		cmp	r4, #64
 470 0068 07D1     		bne	.L34
 471              	.L38:
  92:transmit.c    ****                     USBUART_PutData(NULL, 0u);
 472              		.loc 1 92 0 discriminator 1
 473 006a FFF7FEFF 		bl	USBUART_CDCIsReady
 474              	.LVL56:
 475 006e 0028     		cmp	r0, #0
 476 0070 FBD0     		beq	.L38
  93:transmit.c    ****                 }
 477              		.loc 1 93 0
 478 0072 0021     		movs	r1, #0
 479 0074 0846     		mov	r0, r1
 480 0076 FFF7FEFF 		bl	USBUART_PutData
 481              	.LVL57:
 482              	.L34:
  99:transmit.c    ****     {         
 483              		.loc 1 99 0
 484 007a 0E4B     		ldr	r3, .L42
 485 007c 1B68     		ldr	r3, [r3]
 486 007e 012B     		cmp	r3, #1
 487 0080 0ED1     		bne	.L39
 488              	.LBB12:
 101:transmit.c    ****         
 489              		.loc 1 101 0
 490 0082 0122     		movs	r2, #1
 491 0084 0D4B     		ldr	r3, .L42+8
 492 0086 1A60     		str	r2, [r3]
 114:transmit.c    **** 
 493              		.loc 1 114 0
 494 0088 FFF7FEFF 		bl	get_dest_address
 495              	.LVL58:
ARM GAS  C:\Users\antarp\AppData\Local\Temp\ccZbt3Zo.s 			page 14


 116:transmit.c    ****         transmit();
 496              		.loc 1 116 0
 497 008c 80B2     		uxth	r0, r0
 498              	.LVL59:
 499 008e FFF7FEFF 		bl	header
 500              	.LVL60:
 117:transmit.c    **** 
 501              		.loc 1 117 0
 502 0092 FFF7FEFF 		bl	transmit
 503              	.LVL61:
 119:transmit.c    ****         
 504              		.loc 1 119 0
 505 0096 0022     		movs	r2, #0
 506 0098 074B     		ldr	r3, .L42+4
 507 009a C3F80021 		str	r2, [r3, #256]
 508              	.LBE12:
 509 009e 07E0     		b	.L32
 510              	.L39:
 122:transmit.c    ****     {
 511              		.loc 1 122 0
 512 00a0 33B9     		cbnz	r3, .L32
 125:transmit.c    ****         
 513              		.loc 1 125 0
 514 00a2 0549     		ldr	r1, .L42+4
 515 00a4 D1F80021 		ldr	r2, [r1, #256]
 516 00a8 0E31     		adds	r1, r1, #14
 517 00aa 6846     		mov	r0, sp
 518 00ac FFF7FEFF 		bl	add_zeros
 519              	.LVL62:
 520              	.L32:
 129:transmit.c    **** 
 521              		.loc 1 129 0
 522 00b0 20B0     		add	sp, sp, #128
 523              		.cfi_def_cfa_offset 8
 524              		@ sp needed
 525 00b2 10BD     		pop	{r4, pc}
 526              	.L43:
 527              		.align	2
 528              	.L42:
 529 00b4 00000000 		.word	flag
 530 00b8 00000000 		.word	.LANCHOR0
 531 00bc 00000000 		.word	isTransmitting
 532              		.cfi_endproc
 533              	.LFE65:
 534              		.size	uart_getdata, .-uart_getdata
 535              		.global	have_dest_address
 536              		.global	double_buffer
 537              		.global	counter
 538              		.comm	receive_bit_counter,4,4
 539              		.comm	isTransmitting,4,4
 540              		.comm	flag,4,4
 541              		.section	.rodata.str1.4,"aMS",%progbits,1
 542              		.align	2
 543              	.LC0:
 544 0000 57726F6E 		.ascii	"Wrong size! :(\000"
 544      67207369 
 544      7A652120 
ARM GAS  C:\Users\antarp\AppData\Local\Temp\ccZbt3Zo.s 			page 15


 544      3A2800
 545              		.bss
 546              		.align	2
 547              		.set	.LANCHOR0,. + 0
 548              		.type	double_buffer, %object
 549              		.size	double_buffer, 256
 550              	double_buffer:
 551 0000 00000000 		.space	256
 551      00000000 
 551      00000000 
 551      00000000 
 551      00000000 
 552              		.type	counter, %object
 553              		.size	counter, 4
 554              	counter:
 555 0100 00000000 		.space	4
 556              		.type	have_dest_address, %object
 557              		.size	have_dest_address, 4
 558              	have_dest_address:
 559 0104 00000000 		.space	4
 560              		.text
 561              	.Letext0:
 562              		.file 2 "c:\\program files (x86)\\cypress\\psoc creator\\4.1\\psoc creator\\import\\gnu\\arm\\5.4.
 563              		.file 3 "c:\\program files (x86)\\cypress\\psoc creator\\4.1\\psoc creator\\import\\gnu\\arm\\5.4.
 564              		.file 4 "Generated_Source\\PSoC5/cytypes.h"
 565              		.file 5 "Generated_Source\\PSoC5/core_cm3.h"
 566              		.file 6 "transmit.h"
 567              		.file 7 "receive.h"
 568              		.file 8 "Generated_Source\\PSoC5/USBUART.h"
 569              		.file 9 "Generated_Source\\PSoC5/transmitted_data.h"
 570              		.file 10 "Generated_Source\\PSoC5/CyLib.h"
 571              		.file 11 "Generated_Source\\PSoC5/LCD.h"
 572              		.file 12 "addr_input.h"
 573              		.file 13 "Generated_Source\\PSoC5/USBUART_cdc.h"
 574              		.section	.debug_info,"",%progbits
 575              	.Ldebug_info0:
 576 0000 B2040000 		.4byte	0x4b2
 577 0004 0400     		.2byte	0x4
 578 0006 00000000 		.4byte	.Ldebug_abbrev0
 579 000a 04       		.byte	0x4
 580 000b 01       		.uleb128 0x1
 581 000c 9D000000 		.4byte	.LASF52
 582 0010 0C       		.byte	0xc
 583 0011 84000000 		.4byte	.LASF53
 584 0015 63020000 		.4byte	.LASF54
 585 0019 60000000 		.4byte	.Ldebug_ranges0+0x60
 586 001d 00000000 		.4byte	0
 587 0021 00000000 		.4byte	.Ldebug_line0
 588 0025 02       		.uleb128 0x2
 589 0026 01       		.byte	0x1
 590 0027 06       		.byte	0x6
 591 0028 2B030000 		.4byte	.LASF0
 592 002c 02       		.uleb128 0x2
 593 002d 01       		.byte	0x1
 594 002e 08       		.byte	0x8
 595 002f 8F000000 		.4byte	.LASF1
 596 0033 02       		.uleb128 0x2
ARM GAS  C:\Users\antarp\AppData\Local\Temp\ccZbt3Zo.s 			page 16


 597 0034 02       		.byte	0x2
 598 0035 05       		.byte	0x5
 599 0036 EE020000 		.4byte	.LASF2
 600 003a 02       		.uleb128 0x2
 601 003b 02       		.byte	0x2
 602 003c 07       		.byte	0x7
 603 003d 37030000 		.4byte	.LASF3
 604 0041 03       		.uleb128 0x3
 605 0042 15000000 		.4byte	.LASF9
 606 0046 02       		.byte	0x2
 607 0047 3F       		.byte	0x3f
 608 0048 4C000000 		.4byte	0x4c
 609 004c 02       		.uleb128 0x2
 610 004d 04       		.byte	0x4
 611 004e 05       		.byte	0x5
 612 004f 16030000 		.4byte	.LASF4
 613 0053 02       		.uleb128 0x2
 614 0054 04       		.byte	0x4
 615 0055 07       		.byte	0x7
 616 0056 33010000 		.4byte	.LASF5
 617 005a 02       		.uleb128 0x2
 618 005b 08       		.byte	0x8
 619 005c 05       		.byte	0x5
 620 005d 00000000 		.4byte	.LASF6
 621 0061 02       		.uleb128 0x2
 622 0062 08       		.byte	0x8
 623 0063 07       		.byte	0x7
 624 0064 15020000 		.4byte	.LASF7
 625 0068 04       		.uleb128 0x4
 626 0069 04       		.byte	0x4
 627 006a 05       		.byte	0x5
 628 006b 696E7400 		.ascii	"int\000"
 629 006f 02       		.uleb128 0x2
 630 0070 04       		.byte	0x4
 631 0071 07       		.byte	0x7
 632 0072 F7010000 		.4byte	.LASF8
 633 0076 03       		.uleb128 0x3
 634 0077 9E020000 		.4byte	.LASF10
 635 007b 03       		.byte	0x3
 636 007c 2C       		.byte	0x2c
 637 007d 41000000 		.4byte	0x41
 638 0081 05       		.uleb128 0x5
 639 0082 5D020000 		.4byte	.LASF11
 640 0086 04       		.byte	0x4
 641 0087 9201     		.2byte	0x192
 642 0089 2C000000 		.4byte	0x2c
 643 008d 05       		.uleb128 0x5
 644 008e 9A010000 		.4byte	.LASF12
 645 0092 04       		.byte	0x4
 646 0093 9301     		.2byte	0x193
 647 0095 3A000000 		.4byte	0x3a
 648 0099 02       		.uleb128 0x2
 649 009a 04       		.byte	0x4
 650 009b 04       		.byte	0x4
 651 009c 76000000 		.4byte	.LASF13
 652 00a0 02       		.uleb128 0x2
 653 00a1 08       		.byte	0x8
ARM GAS  C:\Users\antarp\AppData\Local\Temp\ccZbt3Zo.s 			page 17


 654 00a2 04       		.byte	0x4
 655 00a3 93010000 		.4byte	.LASF14
 656 00a7 02       		.uleb128 0x2
 657 00a8 01       		.byte	0x1
 658 00a9 08       		.byte	0x8
 659 00aa D2020000 		.4byte	.LASF15
 660 00ae 02       		.uleb128 0x2
 661 00af 08       		.byte	0x8
 662 00b0 04       		.byte	0x4
 663 00b1 1F030000 		.4byte	.LASF16
 664 00b5 02       		.uleb128 0x2
 665 00b6 04       		.byte	0x4
 666 00b7 07       		.byte	0x7
 667 00b8 A6020000 		.4byte	.LASF17
 668 00bc 06       		.uleb128 0x6
 669 00bd A1010000 		.4byte	.LASF22
 670 00c1 01       		.byte	0x1
 671 00c2 17       		.byte	0x17
 672 00c3 00000000 		.4byte	.LFB63
 673 00c7 20000000 		.4byte	.LFE63-.LFB63
 674 00cb 01       		.uleb128 0x1
 675 00cc 9C       		.byte	0x9c
 676 00cd E6000000 		.4byte	0xe6
 677 00d1 07       		.uleb128 0x7
 678 00d2 0A000000 		.4byte	.LVL0
 679 00d6 23040000 		.4byte	0x423
 680 00da 08       		.uleb128 0x8
 681 00db 01       		.uleb128 0x1
 682 00dc 50       		.byte	0x50
 683 00dd 01       		.uleb128 0x1
 684 00de 30       		.byte	0x30
 685 00df 08       		.uleb128 0x8
 686 00e0 01       		.uleb128 0x1
 687 00e1 51       		.byte	0x51
 688 00e2 01       		.uleb128 0x1
 689 00e3 30       		.byte	0x30
 690 00e4 00       		.byte	0
 691 00e5 00       		.byte	0
 692 00e6 09       		.uleb128 0x9
 693 00e7 89010000 		.4byte	.LASF24
 694 00eb 01       		.byte	0x1
 695 00ec 1D       		.byte	0x1d
 696 00ed 00000000 		.4byte	.LFB64
 697 00f1 3A000000 		.4byte	.LFE64-.LFB64
 698 00f5 01       		.uleb128 0x1
 699 00f6 9C       		.byte	0x9c
 700 00f7 60010000 		.4byte	0x160
 701 00fb 0A       		.uleb128 0xa
 702 00fc 56030000 		.4byte	.LASF18
 703 0100 01       		.byte	0x1
 704 0101 1D       		.byte	0x1d
 705 0102 60010000 		.4byte	0x160
 706 0106 00000000 		.4byte	.LLST0
 707 010a 0A       		.uleb128 0xa
 708 010b 4A030000 		.4byte	.LASF19
 709 010f 01       		.byte	0x1
 710 0110 1D       		.byte	0x1d
ARM GAS  C:\Users\antarp\AppData\Local\Temp\ccZbt3Zo.s 			page 18


 711 0111 66010000 		.4byte	0x166
 712 0115 2B000000 		.4byte	.LLST1
 713 0119 0B       		.uleb128 0xb
 714 011a D7020000 		.4byte	.LASF20
 715 011e 01       		.byte	0x1
 716 011f 1D       		.byte	0x1d
 717 0120 68000000 		.4byte	0x68
 718 0124 01       		.uleb128 0x1
 719 0125 52       		.byte	0x52
 720 0126 0C       		.uleb128 0xc
 721 0127 45010000 		.4byte	.LASF21
 722 012b 01       		.byte	0x1
 723 012c 1F       		.byte	0x1f
 724 012d 8D000000 		.4byte	0x8d
 725 0131 56000000 		.4byte	.LLST2
 726 0135 0D       		.uleb128 0xd
 727 0136 02000000 		.4byte	.LBB2
 728 013a 34000000 		.4byte	.LBE2-.LBB2
 729 013e 0E       		.uleb128 0xe
 730 013f 6A00     		.ascii	"j\000"
 731 0141 01       		.byte	0x1
 732 0142 20       		.byte	0x20
 733 0143 68000000 		.4byte	0x68
 734 0147 A0000000 		.4byte	.LLST3
 735 014b 0F       		.uleb128 0xf
 736 014c 00000000 		.4byte	.Ldebug_ranges0+0
 737 0150 0E       		.uleb128 0xe
 738 0151 6900     		.ascii	"i\000"
 739 0153 01       		.byte	0x1
 740 0154 22       		.byte	0x22
 741 0155 68000000 		.4byte	0x68
 742 0159 BF000000 		.4byte	.LLST4
 743 015d 00       		.byte	0
 744 015e 00       		.byte	0
 745 015f 00       		.byte	0
 746 0160 10       		.uleb128 0x10
 747 0161 04       		.byte	0x4
 748 0162 81000000 		.4byte	0x81
 749 0166 10       		.uleb128 0x10
 750 0167 04       		.byte	0x4
 751 0168 8D000000 		.4byte	0x8d
 752 016c 06       		.uleb128 0x6
 753 016d 54020000 		.4byte	.LASF23
 754 0171 01       		.byte	0x1
 755 0172 83       		.byte	0x83
 756 0173 00000000 		.4byte	.LFB66
 757 0177 7C000000 		.4byte	.LFE66-.LFB66
 758 017b 01       		.uleb128 0x1
 759 017c 9C       		.byte	0x9c
 760 017d E6010000 		.4byte	0x1e6
 761 0181 0E       		.uleb128 0xe
 762 0182 6900     		.ascii	"i\000"
 763 0184 01       		.byte	0x1
 764 0185 86       		.byte	0x86
 765 0186 68000000 		.4byte	0x68
 766 018a DD000000 		.4byte	.LLST5
 767 018e 0C       		.uleb128 0xc
ARM GAS  C:\Users\antarp\AppData\Local\Temp\ccZbt3Zo.s 			page 19


 768 018f 45010000 		.4byte	.LASF21
 769 0193 01       		.byte	0x1
 770 0194 87       		.byte	0x87
 771 0195 8D000000 		.4byte	0x8d
 772 0199 FC000000 		.4byte	.LLST6
 773 019d 11       		.uleb128 0x11
 774 019e 18000000 		.4byte	.Ldebug_ranges0+0x18
 775 01a2 CE010000 		.4byte	0x1ce
 776 01a6 0E       		.uleb128 0xe
 777 01a7 6A00     		.ascii	"j\000"
 778 01a9 01       		.byte	0x1
 779 01aa 8A       		.byte	0x8a
 780 01ab 68000000 		.4byte	0x68
 781 01af 30010000 		.4byte	.LLST7
 782 01b3 12       		.uleb128 0x12
 783 01b4 22000000 		.4byte	.LVL22
 784 01b8 2F040000 		.4byte	0x42f
 785 01bc 07       		.uleb128 0x7
 786 01bd 2A000000 		.4byte	.LVL23
 787 01c1 3A040000 		.4byte	0x43a
 788 01c5 08       		.uleb128 0x8
 789 01c6 01       		.uleb128 0x1
 790 01c7 50       		.byte	0x50
 791 01c8 03       		.uleb128 0x3
 792 01c9 0A       		.byte	0xa
 793 01ca E501     		.2byte	0x1e5
 794 01cc 00       		.byte	0
 795 01cd 00       		.byte	0
 796 01ce 0D       		.uleb128 0xd
 797 01cf 4E000000 		.4byte	.LBB7
 798 01d3 2E000000 		.4byte	.LBE7-.LBB7
 799 01d7 0E       		.uleb128 0xe
 800 01d8 6900     		.ascii	"i\000"
 801 01da 01       		.byte	0x1
 802 01db A9       		.byte	0xa9
 803 01dc 68000000 		.4byte	0x68
 804 01e0 4E010000 		.4byte	.LLST8
 805 01e4 00       		.byte	0
 806 01e5 00       		.byte	0
 807 01e6 09       		.uleb128 0x9
 808 01e7 0E000000 		.4byte	.LASF25
 809 01eb 01       		.byte	0x1
 810 01ec B6       		.byte	0xb6
 811 01ed 00000000 		.4byte	.LFB67
 812 01f1 78000000 		.4byte	.LFE67-.LFB67
 813 01f5 01       		.uleb128 0x1
 814 01f6 9C       		.byte	0x9c
 815 01f7 71020000 		.4byte	0x271
 816 01fb 0A       		.uleb128 0xa
 817 01fc 2B010000 		.4byte	.LASF26
 818 0200 01       		.byte	0x1
 819 0201 B6       		.byte	0xb6
 820 0202 8D000000 		.4byte	0x8d
 821 0206 6D010000 		.4byte	.LLST9
 822 020a 11       		.uleb128 0x11
 823 020b 30000000 		.4byte	.Ldebug_ranges0+0x30
 824 020f 45020000 		.4byte	0x245
ARM GAS  C:\Users\antarp\AppData\Local\Temp\ccZbt3Zo.s 			page 20


 825 0213 0C       		.uleb128 0xc
 826 0214 45010000 		.4byte	.LASF21
 827 0218 01       		.byte	0x1
 828 0219 C8       		.byte	0xc8
 829 021a 8D000000 		.4byte	0x8d
 830 021e D4010000 		.4byte	.LLST10
 831 0222 0C       		.uleb128 0xc
 832 0223 39020000 		.4byte	.LASF27
 833 0227 01       		.byte	0x1
 834 0228 C9       		.byte	0xc9
 835 0229 8D000000 		.4byte	0x8d
 836 022d FD010000 		.4byte	.LLST11
 837 0231 0F       		.uleb128 0xf
 838 0232 48000000 		.4byte	.Ldebug_ranges0+0x48
 839 0236 0E       		.uleb128 0xe
 840 0237 6900     		.ascii	"i\000"
 841 0239 01       		.byte	0x1
 842 023a CA       		.byte	0xca
 843 023b 68000000 		.4byte	0x68
 844 023f 1B020000 		.4byte	.LLST12
 845 0243 00       		.byte	0
 846 0244 00       		.byte	0
 847 0245 13       		.uleb128 0x13
 848 0246 26000000 		.4byte	.LVL35
 849 024a 45040000 		.4byte	0x445
 850 024e 5D020000 		.4byte	0x25d
 851 0252 08       		.uleb128 0x8
 852 0253 01       		.uleb128 0x1
 853 0254 50       		.byte	0x50
 854 0255 01       		.uleb128 0x1
 855 0256 30       		.byte	0x30
 856 0257 08       		.uleb128 0x8
 857 0258 01       		.uleb128 0x1
 858 0259 51       		.byte	0x51
 859 025a 01       		.uleb128 0x1
 860 025b 30       		.byte	0x30
 861 025c 00       		.byte	0
 862 025d 07       		.uleb128 0x7
 863 025e 2C000000 		.4byte	.LVL36
 864 0262 50040000 		.4byte	0x450
 865 0266 08       		.uleb128 0x8
 866 0267 01       		.uleb128 0x1
 867 0268 50       		.byte	0x50
 868 0269 05       		.uleb128 0x5
 869 026a 03       		.byte	0x3
 870 026b 00000000 		.4byte	.LC0
 871 026f 00       		.byte	0
 872 0270 00       		.byte	0
 873 0271 06       		.uleb128 0x6
 874 0272 6F010000 		.4byte	.LASF28
 875 0276 01       		.byte	0x1
 876 0277 30       		.byte	0x30
 877 0278 00000000 		.4byte	.LFB65
 878 027c C0000000 		.4byte	.LFE65-.LFB65
 879 0280 01       		.uleb128 0x1
 880 0281 9C       		.byte	0x9c
 881 0282 8C030000 		.4byte	0x38c
ARM GAS  C:\Users\antarp\AppData\Local\Temp\ccZbt3Zo.s 			page 21


 882 0286 14       		.uleb128 0x14
 883 0287 F8020000 		.4byte	.LASF29
 884 028b 01       		.byte	0x1
 885 028c 32       		.byte	0x32
 886 028d 8C030000 		.4byte	0x38c
 887 0291 03       		.uleb128 0x3
 888 0292 91       		.byte	0x91
 889 0293 B87F     		.sleb128 -72
 890 0295 14       		.uleb128 0x14
 891 0296 2E000000 		.4byte	.LASF30
 892 029a 01       		.byte	0x1
 893 029b 33       		.byte	0x33
 894 029c 8C030000 		.4byte	0x38c
 895 02a0 03       		.uleb128 0x3
 896 02a1 91       		.byte	0x91
 897 02a2 F87E     		.sleb128 -136
 898 02a4 0C       		.uleb128 0xc
 899 02a5 D7020000 		.4byte	.LASF20
 900 02a9 01       		.byte	0x1
 901 02aa 35       		.byte	0x35
 902 02ab 8D000000 		.4byte	0x8d
 903 02af 39020000 		.4byte	.LLST13
 904 02b3 15       		.uleb128 0x15
 905 02b4 82000000 		.4byte	.LBB12
 906 02b8 1C000000 		.4byte	.LBE12-.LBB12
 907 02bc EB020000 		.4byte	0x2eb
 908 02c0 0C       		.uleb128 0xc
 909 02c1 4A010000 		.4byte	.LASF31
 910 02c5 01       		.byte	0x1
 911 02c6 72       		.byte	0x72
 912 02c7 68000000 		.4byte	0x68
 913 02cb 4C020000 		.4byte	.LLST14
 914 02cf 12       		.uleb128 0x12
 915 02d0 8C000000 		.4byte	.LVL58
 916 02d4 5B040000 		.4byte	0x45b
 917 02d8 12       		.uleb128 0x12
 918 02d9 92000000 		.4byte	.LVL60
 919 02dd E6010000 		.4byte	0x1e6
 920 02e1 12       		.uleb128 0x12
 921 02e2 96000000 		.4byte	.LVL61
 922 02e6 6C010000 		.4byte	0x16c
 923 02ea 00       		.byte	0
 924 02eb 12       		.uleb128 0x12
 925 02ec 0E000000 		.4byte	.LVL47
 926 02f0 66040000 		.4byte	0x466
 927 02f4 12       		.uleb128 0x12
 928 02f5 14000000 		.4byte	.LVL48
 929 02f9 72040000 		.4byte	0x472
 930 02fd 12       		.uleb128 0x12
 931 02fe 1A000000 		.4byte	.LVL49
 932 0302 7E040000 		.4byte	0x47e
 933 0306 12       		.uleb128 0x12
 934 0307 1E000000 		.4byte	.LVL50
 935 030b 72040000 		.4byte	0x472
 936 030f 12       		.uleb128 0x12
 937 0310 24000000 		.4byte	.LVL51
 938 0314 89040000 		.4byte	0x489
ARM GAS  C:\Users\antarp\AppData\Local\Temp\ccZbt3Zo.s 			page 22


 939 0318 13       		.uleb128 0x13
 940 0319 2C000000 		.4byte	.LVL52
 941 031d 94040000 		.4byte	0x494
 942 0321 2D030000 		.4byte	0x32d
 943 0325 08       		.uleb128 0x8
 944 0326 01       		.uleb128 0x1
 945 0327 50       		.byte	0x50
 946 0328 03       		.uleb128 0x3
 947 0329 91       		.byte	0x91
 948 032a B87F     		.sleb128 -72
 949 032c 00       		.byte	0
 950 032d 12       		.uleb128 0x12
 951 032e 5A000000 		.4byte	.LVL54
 952 0332 9F040000 		.4byte	0x49f
 953 0336 13       		.uleb128 0x13
 954 0337 66000000 		.4byte	.LVL55
 955 033b AA040000 		.4byte	0x4aa
 956 033f 51030000 		.4byte	0x351
 957 0343 08       		.uleb128 0x8
 958 0344 01       		.uleb128 0x1
 959 0345 50       		.byte	0x50
 960 0346 03       		.uleb128 0x3
 961 0347 91       		.byte	0x91
 962 0348 B87F     		.sleb128 -72
 963 034a 08       		.uleb128 0x8
 964 034b 01       		.uleb128 0x1
 965 034c 51       		.byte	0x51
 966 034d 02       		.uleb128 0x2
 967 034e 74       		.byte	0x74
 968 034f 00       		.sleb128 0
 969 0350 00       		.byte	0
 970 0351 12       		.uleb128 0x12
 971 0352 6E000000 		.4byte	.LVL56
 972 0356 9F040000 		.4byte	0x49f
 973 035a 13       		.uleb128 0x13
 974 035b 7A000000 		.4byte	.LVL57
 975 035f AA040000 		.4byte	0x4aa
 976 0363 72030000 		.4byte	0x372
 977 0367 08       		.uleb128 0x8
 978 0368 01       		.uleb128 0x1
 979 0369 50       		.byte	0x50
 980 036a 01       		.uleb128 0x1
 981 036b 30       		.byte	0x30
 982 036c 08       		.uleb128 0x8
 983 036d 01       		.uleb128 0x1
 984 036e 51       		.byte	0x51
 985 036f 01       		.uleb128 0x1
 986 0370 30       		.byte	0x30
 987 0371 00       		.byte	0
 988 0372 07       		.uleb128 0x7
 989 0373 B0000000 		.4byte	.LVL62
 990 0377 E6000000 		.4byte	0xe6
 991 037b 08       		.uleb128 0x8
 992 037c 01       		.uleb128 0x1
 993 037d 50       		.byte	0x50
 994 037e 02       		.uleb128 0x2
 995 037f 7D       		.byte	0x7d
ARM GAS  C:\Users\antarp\AppData\Local\Temp\ccZbt3Zo.s 			page 23


 996 0380 00       		.sleb128 0
 997 0381 08       		.uleb128 0x8
 998 0382 01       		.uleb128 0x1
 999 0383 51       		.byte	0x51
 1000 0384 05       		.uleb128 0x5
 1001 0385 03       		.byte	0x3
 1002 0386 0E000000 		.4byte	.LANCHOR0+14
 1003 038a 00       		.byte	0
 1004 038b 00       		.byte	0
 1005 038c 16       		.uleb128 0x16
 1006 038d 81000000 		.4byte	0x81
 1007 0391 9C030000 		.4byte	0x39c
 1008 0395 17       		.uleb128 0x17
 1009 0396 B5000000 		.4byte	0xb5
 1010 039a 3F       		.byte	0x3f
 1011 039b 00       		.byte	0
 1012 039c 18       		.uleb128 0x18
 1013 039d 7C010000 		.4byte	.LASF32
 1014 03a1 05       		.byte	0x5
 1015 03a2 1207     		.2byte	0x712
 1016 03a4 A8030000 		.4byte	0x3a8
 1017 03a8 19       		.uleb128 0x19
 1018 03a9 76000000 		.4byte	0x76
 1019 03ad 1A       		.uleb128 0x1a
 1020 03ae E4010000 		.4byte	.LASF33
 1021 03b2 06       		.byte	0x6
 1022 03b3 12       		.byte	0x12
 1023 03b4 68000000 		.4byte	0x68
 1024 03b8 05       		.uleb128 0x5
 1025 03b9 03       		.byte	0x3
 1026 03ba 00000000 		.4byte	flag
 1027 03be 1A       		.uleb128 0x1a
 1028 03bf C3020000 		.4byte	.LASF34
 1029 03c3 06       		.byte	0x6
 1030 03c4 14       		.byte	0x14
 1031 03c5 68000000 		.4byte	0x68
 1032 03c9 05       		.uleb128 0x5
 1033 03ca 03       		.byte	0x3
 1034 03cb 00000000 		.4byte	isTransmitting
 1035 03cf 1A       		.uleb128 0x1a
 1036 03d0 AF020000 		.4byte	.LASF35
 1037 03d4 07       		.byte	0x7
 1038 03d5 11       		.byte	0x11
 1039 03d6 68000000 		.4byte	0x68
 1040 03da 05       		.uleb128 0x5
 1041 03db 03       		.byte	0x3
 1042 03dc 00000000 		.4byte	receive_bit_counter
 1043 03e0 1A       		.uleb128 0x1a
 1044 03e1 7C000000 		.4byte	.LASF36
 1045 03e5 01       		.byte	0x1
 1046 03e6 12       		.byte	0x12
 1047 03e7 68000000 		.4byte	0x68
 1048 03eb 05       		.uleb128 0x5
 1049 03ec 03       		.byte	0x3
 1050 03ed 00000000 		.4byte	counter
 1051 03f1 16       		.uleb128 0x16
 1052 03f2 8D000000 		.4byte	0x8d
ARM GAS  C:\Users\antarp\AppData\Local\Temp\ccZbt3Zo.s 			page 24


 1053 03f6 01040000 		.4byte	0x401
 1054 03fa 17       		.uleb128 0x17
 1055 03fb B5000000 		.4byte	0xb5
 1056 03ff 7F       		.byte	0x7f
 1057 0400 00       		.byte	0
 1058 0401 1A       		.uleb128 0x1a
 1059 0402 4F010000 		.4byte	.LASF37
 1060 0406 01       		.byte	0x1
 1061 0407 14       		.byte	0x14
 1062 0408 F1030000 		.4byte	0x3f1
 1063 040c 05       		.uleb128 0x5
 1064 040d 03       		.byte	0x3
 1065 040e 00000000 		.4byte	double_buffer
 1066 0412 1A       		.uleb128 0x1a
 1067 0413 5D010000 		.4byte	.LASF38
 1068 0417 01       		.byte	0x1
 1069 0418 15       		.byte	0x15
 1070 0419 68000000 		.4byte	0x68
 1071 041d 05       		.uleb128 0x5
 1072 041e 03       		.byte	0x3
 1073 041f 00000000 		.4byte	have_dest_address
 1074 0423 1B       		.uleb128 0x1b
 1075 0424 E9010000 		.4byte	.LASF39
 1076 0428 E9010000 		.4byte	.LASF39
 1077 042c 08       		.byte	0x8
 1078 042d 2A01     		.2byte	0x12a
 1079 042f 1C       		.uleb128 0x1c
 1080 0430 FF020000 		.4byte	.LASF40
 1081 0434 FF020000 		.4byte	.LASF40
 1082 0438 09       		.byte	0x9
 1083 0439 26       		.byte	0x26
 1084 043a 1C       		.uleb128 0x1c
 1085 043b DA010000 		.4byte	.LASF41
 1086 043f DA010000 		.4byte	.LASF41
 1087 0443 0A       		.byte	0xa
 1088 0444 77       		.byte	0x77
 1089 0445 1C       		.uleb128 0x1c
 1090 0446 2C020000 		.4byte	.LASF42
 1091 044a 2C020000 		.4byte	.LASF42
 1092 044e 0B       		.byte	0xb
 1093 044f 3D       		.byte	0x3d
 1094 0450 1C       		.uleb128 0x1c
 1095 0451 CA010000 		.4byte	.LASF43
 1096 0455 CA010000 		.4byte	.LASF43
 1097 0459 0B       		.byte	0xb
 1098 045a 3C       		.byte	0x3c
 1099 045b 1C       		.uleb128 0x1c
 1100 045c DD020000 		.4byte	.LASF44
 1101 0460 DD020000 		.4byte	.LASF44
 1102 0464 0C       		.byte	0xc
 1103 0465 10       		.byte	0x10
 1104 0466 1B       		.uleb128 0x1b
 1105 0467 AB010000 		.4byte	.LASF45
 1106 046b AB010000 		.4byte	.LASF45
 1107 046f 08       		.byte	0x8
 1108 0470 2E01     		.2byte	0x12e
 1109 0472 1B       		.uleb128 0x1b
ARM GAS  C:\Users\antarp\AppData\Local\Temp\ccZbt3Zo.s 			page 25


 1110 0473 4A000000 		.4byte	.LASF46
 1111 0477 4A000000 		.4byte	.LASF46
 1112 047b 08       		.byte	0x8
 1113 047c 2D01     		.2byte	0x12d
 1114 047e 1C       		.uleb128 0x1c
 1115 047f 04020000 		.4byte	.LASF47
 1116 0483 04020000 		.4byte	.LASF47
 1117 0487 0D       		.byte	0xd
 1118 0488 22       		.byte	0x22
 1119 0489 1C       		.uleb128 0x1c
 1120 048a 40020000 		.4byte	.LASF48
 1121 048e 40020000 		.4byte	.LASF48
 1122 0492 0D       		.byte	0xd
 1123 0493 29       		.byte	0x29
 1124 0494 1C       		.uleb128 0x1c
 1125 0495 1F000000 		.4byte	.LASF49
 1126 0499 1F000000 		.4byte	.LASF49
 1127 049d 0D       		.byte	0xd
 1128 049e 2B       		.byte	0x2b
 1129 049f 1C       		.uleb128 0x1c
 1130 04a0 63000000 		.4byte	.LASF50
 1131 04a4 63000000 		.4byte	.LASF50
 1132 04a8 0D       		.byte	0xd
 1133 04a9 28       		.byte	0x28
 1134 04aa 1C       		.uleb128 0x1c
 1135 04ab 3A000000 		.4byte	.LASF51
 1136 04af 3A000000 		.4byte	.LASF51
 1137 04b3 0D       		.byte	0xd
 1138 04b4 23       		.byte	0x23
 1139 04b5 00       		.byte	0
 1140              		.section	.debug_abbrev,"",%progbits
 1141              	.Ldebug_abbrev0:
 1142 0000 01       		.uleb128 0x1
 1143 0001 11       		.uleb128 0x11
 1144 0002 01       		.byte	0x1
 1145 0003 25       		.uleb128 0x25
 1146 0004 0E       		.uleb128 0xe
 1147 0005 13       		.uleb128 0x13
 1148 0006 0B       		.uleb128 0xb
 1149 0007 03       		.uleb128 0x3
 1150 0008 0E       		.uleb128 0xe
 1151 0009 1B       		.uleb128 0x1b
 1152 000a 0E       		.uleb128 0xe
 1153 000b 55       		.uleb128 0x55
 1154 000c 17       		.uleb128 0x17
 1155 000d 11       		.uleb128 0x11
 1156 000e 01       		.uleb128 0x1
 1157 000f 10       		.uleb128 0x10
 1158 0010 17       		.uleb128 0x17
 1159 0011 00       		.byte	0
 1160 0012 00       		.byte	0
 1161 0013 02       		.uleb128 0x2
 1162 0014 24       		.uleb128 0x24
 1163 0015 00       		.byte	0
 1164 0016 0B       		.uleb128 0xb
 1165 0017 0B       		.uleb128 0xb
 1166 0018 3E       		.uleb128 0x3e
ARM GAS  C:\Users\antarp\AppData\Local\Temp\ccZbt3Zo.s 			page 26


 1167 0019 0B       		.uleb128 0xb
 1168 001a 03       		.uleb128 0x3
 1169 001b 0E       		.uleb128 0xe
 1170 001c 00       		.byte	0
 1171 001d 00       		.byte	0
 1172 001e 03       		.uleb128 0x3
 1173 001f 16       		.uleb128 0x16
 1174 0020 00       		.byte	0
 1175 0021 03       		.uleb128 0x3
 1176 0022 0E       		.uleb128 0xe
 1177 0023 3A       		.uleb128 0x3a
 1178 0024 0B       		.uleb128 0xb
 1179 0025 3B       		.uleb128 0x3b
 1180 0026 0B       		.uleb128 0xb
 1181 0027 49       		.uleb128 0x49
 1182 0028 13       		.uleb128 0x13
 1183 0029 00       		.byte	0
 1184 002a 00       		.byte	0
 1185 002b 04       		.uleb128 0x4
 1186 002c 24       		.uleb128 0x24
 1187 002d 00       		.byte	0
 1188 002e 0B       		.uleb128 0xb
 1189 002f 0B       		.uleb128 0xb
 1190 0030 3E       		.uleb128 0x3e
 1191 0031 0B       		.uleb128 0xb
 1192 0032 03       		.uleb128 0x3
 1193 0033 08       		.uleb128 0x8
 1194 0034 00       		.byte	0
 1195 0035 00       		.byte	0
 1196 0036 05       		.uleb128 0x5
 1197 0037 16       		.uleb128 0x16
 1198 0038 00       		.byte	0
 1199 0039 03       		.uleb128 0x3
 1200 003a 0E       		.uleb128 0xe
 1201 003b 3A       		.uleb128 0x3a
 1202 003c 0B       		.uleb128 0xb
 1203 003d 3B       		.uleb128 0x3b
 1204 003e 05       		.uleb128 0x5
 1205 003f 49       		.uleb128 0x49
 1206 0040 13       		.uleb128 0x13
 1207 0041 00       		.byte	0
 1208 0042 00       		.byte	0
 1209 0043 06       		.uleb128 0x6
 1210 0044 2E       		.uleb128 0x2e
 1211 0045 01       		.byte	0x1
 1212 0046 3F       		.uleb128 0x3f
 1213 0047 19       		.uleb128 0x19
 1214 0048 03       		.uleb128 0x3
 1215 0049 0E       		.uleb128 0xe
 1216 004a 3A       		.uleb128 0x3a
 1217 004b 0B       		.uleb128 0xb
 1218 004c 3B       		.uleb128 0x3b
 1219 004d 0B       		.uleb128 0xb
 1220 004e 11       		.uleb128 0x11
 1221 004f 01       		.uleb128 0x1
 1222 0050 12       		.uleb128 0x12
 1223 0051 06       		.uleb128 0x6
ARM GAS  C:\Users\antarp\AppData\Local\Temp\ccZbt3Zo.s 			page 27


 1224 0052 40       		.uleb128 0x40
 1225 0053 18       		.uleb128 0x18
 1226 0054 9742     		.uleb128 0x2117
 1227 0056 19       		.uleb128 0x19
 1228 0057 01       		.uleb128 0x1
 1229 0058 13       		.uleb128 0x13
 1230 0059 00       		.byte	0
 1231 005a 00       		.byte	0
 1232 005b 07       		.uleb128 0x7
 1233 005c 898201   		.uleb128 0x4109
 1234 005f 01       		.byte	0x1
 1235 0060 11       		.uleb128 0x11
 1236 0061 01       		.uleb128 0x1
 1237 0062 31       		.uleb128 0x31
 1238 0063 13       		.uleb128 0x13
 1239 0064 00       		.byte	0
 1240 0065 00       		.byte	0
 1241 0066 08       		.uleb128 0x8
 1242 0067 8A8201   		.uleb128 0x410a
 1243 006a 00       		.byte	0
 1244 006b 02       		.uleb128 0x2
 1245 006c 18       		.uleb128 0x18
 1246 006d 9142     		.uleb128 0x2111
 1247 006f 18       		.uleb128 0x18
 1248 0070 00       		.byte	0
 1249 0071 00       		.byte	0
 1250 0072 09       		.uleb128 0x9
 1251 0073 2E       		.uleb128 0x2e
 1252 0074 01       		.byte	0x1
 1253 0075 3F       		.uleb128 0x3f
 1254 0076 19       		.uleb128 0x19
 1255 0077 03       		.uleb128 0x3
 1256 0078 0E       		.uleb128 0xe
 1257 0079 3A       		.uleb128 0x3a
 1258 007a 0B       		.uleb128 0xb
 1259 007b 3B       		.uleb128 0x3b
 1260 007c 0B       		.uleb128 0xb
 1261 007d 27       		.uleb128 0x27
 1262 007e 19       		.uleb128 0x19
 1263 007f 11       		.uleb128 0x11
 1264 0080 01       		.uleb128 0x1
 1265 0081 12       		.uleb128 0x12
 1266 0082 06       		.uleb128 0x6
 1267 0083 40       		.uleb128 0x40
 1268 0084 18       		.uleb128 0x18
 1269 0085 9742     		.uleb128 0x2117
 1270 0087 19       		.uleb128 0x19
 1271 0088 01       		.uleb128 0x1
 1272 0089 13       		.uleb128 0x13
 1273 008a 00       		.byte	0
 1274 008b 00       		.byte	0
 1275 008c 0A       		.uleb128 0xa
 1276 008d 05       		.uleb128 0x5
 1277 008e 00       		.byte	0
 1278 008f 03       		.uleb128 0x3
 1279 0090 0E       		.uleb128 0xe
 1280 0091 3A       		.uleb128 0x3a
ARM GAS  C:\Users\antarp\AppData\Local\Temp\ccZbt3Zo.s 			page 28


 1281 0092 0B       		.uleb128 0xb
 1282 0093 3B       		.uleb128 0x3b
 1283 0094 0B       		.uleb128 0xb
 1284 0095 49       		.uleb128 0x49
 1285 0096 13       		.uleb128 0x13
 1286 0097 02       		.uleb128 0x2
 1287 0098 17       		.uleb128 0x17
 1288 0099 00       		.byte	0
 1289 009a 00       		.byte	0
 1290 009b 0B       		.uleb128 0xb
 1291 009c 05       		.uleb128 0x5
 1292 009d 00       		.byte	0
 1293 009e 03       		.uleb128 0x3
 1294 009f 0E       		.uleb128 0xe
 1295 00a0 3A       		.uleb128 0x3a
 1296 00a1 0B       		.uleb128 0xb
 1297 00a2 3B       		.uleb128 0x3b
 1298 00a3 0B       		.uleb128 0xb
 1299 00a4 49       		.uleb128 0x49
 1300 00a5 13       		.uleb128 0x13
 1301 00a6 02       		.uleb128 0x2
 1302 00a7 18       		.uleb128 0x18
 1303 00a8 00       		.byte	0
 1304 00a9 00       		.byte	0
 1305 00aa 0C       		.uleb128 0xc
 1306 00ab 34       		.uleb128 0x34
 1307 00ac 00       		.byte	0
 1308 00ad 03       		.uleb128 0x3
 1309 00ae 0E       		.uleb128 0xe
 1310 00af 3A       		.uleb128 0x3a
 1311 00b0 0B       		.uleb128 0xb
 1312 00b1 3B       		.uleb128 0x3b
 1313 00b2 0B       		.uleb128 0xb
 1314 00b3 49       		.uleb128 0x49
 1315 00b4 13       		.uleb128 0x13
 1316 00b5 02       		.uleb128 0x2
 1317 00b6 17       		.uleb128 0x17
 1318 00b7 00       		.byte	0
 1319 00b8 00       		.byte	0
 1320 00b9 0D       		.uleb128 0xd
 1321 00ba 0B       		.uleb128 0xb
 1322 00bb 01       		.byte	0x1
 1323 00bc 11       		.uleb128 0x11
 1324 00bd 01       		.uleb128 0x1
 1325 00be 12       		.uleb128 0x12
 1326 00bf 06       		.uleb128 0x6
 1327 00c0 00       		.byte	0
 1328 00c1 00       		.byte	0
 1329 00c2 0E       		.uleb128 0xe
 1330 00c3 34       		.uleb128 0x34
 1331 00c4 00       		.byte	0
 1332 00c5 03       		.uleb128 0x3
 1333 00c6 08       		.uleb128 0x8
 1334 00c7 3A       		.uleb128 0x3a
 1335 00c8 0B       		.uleb128 0xb
 1336 00c9 3B       		.uleb128 0x3b
 1337 00ca 0B       		.uleb128 0xb
ARM GAS  C:\Users\antarp\AppData\Local\Temp\ccZbt3Zo.s 			page 29


 1338 00cb 49       		.uleb128 0x49
 1339 00cc 13       		.uleb128 0x13
 1340 00cd 02       		.uleb128 0x2
 1341 00ce 17       		.uleb128 0x17
 1342 00cf 00       		.byte	0
 1343 00d0 00       		.byte	0
 1344 00d1 0F       		.uleb128 0xf
 1345 00d2 0B       		.uleb128 0xb
 1346 00d3 01       		.byte	0x1
 1347 00d4 55       		.uleb128 0x55
 1348 00d5 17       		.uleb128 0x17
 1349 00d6 00       		.byte	0
 1350 00d7 00       		.byte	0
 1351 00d8 10       		.uleb128 0x10
 1352 00d9 0F       		.uleb128 0xf
 1353 00da 00       		.byte	0
 1354 00db 0B       		.uleb128 0xb
 1355 00dc 0B       		.uleb128 0xb
 1356 00dd 49       		.uleb128 0x49
 1357 00de 13       		.uleb128 0x13
 1358 00df 00       		.byte	0
 1359 00e0 00       		.byte	0
 1360 00e1 11       		.uleb128 0x11
 1361 00e2 0B       		.uleb128 0xb
 1362 00e3 01       		.byte	0x1
 1363 00e4 55       		.uleb128 0x55
 1364 00e5 17       		.uleb128 0x17
 1365 00e6 01       		.uleb128 0x1
 1366 00e7 13       		.uleb128 0x13
 1367 00e8 00       		.byte	0
 1368 00e9 00       		.byte	0
 1369 00ea 12       		.uleb128 0x12
 1370 00eb 898201   		.uleb128 0x4109
 1371 00ee 00       		.byte	0
 1372 00ef 11       		.uleb128 0x11
 1373 00f0 01       		.uleb128 0x1
 1374 00f1 31       		.uleb128 0x31
 1375 00f2 13       		.uleb128 0x13
 1376 00f3 00       		.byte	0
 1377 00f4 00       		.byte	0
 1378 00f5 13       		.uleb128 0x13
 1379 00f6 898201   		.uleb128 0x4109
 1380 00f9 01       		.byte	0x1
 1381 00fa 11       		.uleb128 0x11
 1382 00fb 01       		.uleb128 0x1
 1383 00fc 31       		.uleb128 0x31
 1384 00fd 13       		.uleb128 0x13
 1385 00fe 01       		.uleb128 0x1
 1386 00ff 13       		.uleb128 0x13
 1387 0100 00       		.byte	0
 1388 0101 00       		.byte	0
 1389 0102 14       		.uleb128 0x14
 1390 0103 34       		.uleb128 0x34
 1391 0104 00       		.byte	0
 1392 0105 03       		.uleb128 0x3
 1393 0106 0E       		.uleb128 0xe
 1394 0107 3A       		.uleb128 0x3a
ARM GAS  C:\Users\antarp\AppData\Local\Temp\ccZbt3Zo.s 			page 30


 1395 0108 0B       		.uleb128 0xb
 1396 0109 3B       		.uleb128 0x3b
 1397 010a 0B       		.uleb128 0xb
 1398 010b 49       		.uleb128 0x49
 1399 010c 13       		.uleb128 0x13
 1400 010d 02       		.uleb128 0x2
 1401 010e 18       		.uleb128 0x18
 1402 010f 00       		.byte	0
 1403 0110 00       		.byte	0
 1404 0111 15       		.uleb128 0x15
 1405 0112 0B       		.uleb128 0xb
 1406 0113 01       		.byte	0x1
 1407 0114 11       		.uleb128 0x11
 1408 0115 01       		.uleb128 0x1
 1409 0116 12       		.uleb128 0x12
 1410 0117 06       		.uleb128 0x6
 1411 0118 01       		.uleb128 0x1
 1412 0119 13       		.uleb128 0x13
 1413 011a 00       		.byte	0
 1414 011b 00       		.byte	0
 1415 011c 16       		.uleb128 0x16
 1416 011d 01       		.uleb128 0x1
 1417 011e 01       		.byte	0x1
 1418 011f 49       		.uleb128 0x49
 1419 0120 13       		.uleb128 0x13
 1420 0121 01       		.uleb128 0x1
 1421 0122 13       		.uleb128 0x13
 1422 0123 00       		.byte	0
 1423 0124 00       		.byte	0
 1424 0125 17       		.uleb128 0x17
 1425 0126 21       		.uleb128 0x21
 1426 0127 00       		.byte	0
 1427 0128 49       		.uleb128 0x49
 1428 0129 13       		.uleb128 0x13
 1429 012a 2F       		.uleb128 0x2f
 1430 012b 0B       		.uleb128 0xb
 1431 012c 00       		.byte	0
 1432 012d 00       		.byte	0
 1433 012e 18       		.uleb128 0x18
 1434 012f 34       		.uleb128 0x34
 1435 0130 00       		.byte	0
 1436 0131 03       		.uleb128 0x3
 1437 0132 0E       		.uleb128 0xe
 1438 0133 3A       		.uleb128 0x3a
 1439 0134 0B       		.uleb128 0xb
 1440 0135 3B       		.uleb128 0x3b
 1441 0136 05       		.uleb128 0x5
 1442 0137 49       		.uleb128 0x49
 1443 0138 13       		.uleb128 0x13
 1444 0139 3F       		.uleb128 0x3f
 1445 013a 19       		.uleb128 0x19
 1446 013b 3C       		.uleb128 0x3c
 1447 013c 19       		.uleb128 0x19
 1448 013d 00       		.byte	0
 1449 013e 00       		.byte	0
 1450 013f 19       		.uleb128 0x19
 1451 0140 35       		.uleb128 0x35
ARM GAS  C:\Users\antarp\AppData\Local\Temp\ccZbt3Zo.s 			page 31


 1452 0141 00       		.byte	0
 1453 0142 49       		.uleb128 0x49
 1454 0143 13       		.uleb128 0x13
 1455 0144 00       		.byte	0
 1456 0145 00       		.byte	0
 1457 0146 1A       		.uleb128 0x1a
 1458 0147 34       		.uleb128 0x34
 1459 0148 00       		.byte	0
 1460 0149 03       		.uleb128 0x3
 1461 014a 0E       		.uleb128 0xe
 1462 014b 3A       		.uleb128 0x3a
 1463 014c 0B       		.uleb128 0xb
 1464 014d 3B       		.uleb128 0x3b
 1465 014e 0B       		.uleb128 0xb
 1466 014f 49       		.uleb128 0x49
 1467 0150 13       		.uleb128 0x13
 1468 0151 3F       		.uleb128 0x3f
 1469 0152 19       		.uleb128 0x19
 1470 0153 02       		.uleb128 0x2
 1471 0154 18       		.uleb128 0x18
 1472 0155 00       		.byte	0
 1473 0156 00       		.byte	0
 1474 0157 1B       		.uleb128 0x1b
 1475 0158 2E       		.uleb128 0x2e
 1476 0159 00       		.byte	0
 1477 015a 3F       		.uleb128 0x3f
 1478 015b 19       		.uleb128 0x19
 1479 015c 3C       		.uleb128 0x3c
 1480 015d 19       		.uleb128 0x19
 1481 015e 6E       		.uleb128 0x6e
 1482 015f 0E       		.uleb128 0xe
 1483 0160 03       		.uleb128 0x3
 1484 0161 0E       		.uleb128 0xe
 1485 0162 3A       		.uleb128 0x3a
 1486 0163 0B       		.uleb128 0xb
 1487 0164 3B       		.uleb128 0x3b
 1488 0165 05       		.uleb128 0x5
 1489 0166 00       		.byte	0
 1490 0167 00       		.byte	0
 1491 0168 1C       		.uleb128 0x1c
 1492 0169 2E       		.uleb128 0x2e
 1493 016a 00       		.byte	0
 1494 016b 3F       		.uleb128 0x3f
 1495 016c 19       		.uleb128 0x19
 1496 016d 3C       		.uleb128 0x3c
 1497 016e 19       		.uleb128 0x19
 1498 016f 6E       		.uleb128 0x6e
 1499 0170 0E       		.uleb128 0xe
 1500 0171 03       		.uleb128 0x3
 1501 0172 0E       		.uleb128 0xe
 1502 0173 3A       		.uleb128 0x3a
 1503 0174 0B       		.uleb128 0xb
 1504 0175 3B       		.uleb128 0x3b
 1505 0176 0B       		.uleb128 0xb
 1506 0177 00       		.byte	0
 1507 0178 00       		.byte	0
 1508 0179 00       		.byte	0
ARM GAS  C:\Users\antarp\AppData\Local\Temp\ccZbt3Zo.s 			page 32


 1509              		.section	.debug_loc,"",%progbits
 1510              	.Ldebug_loc0:
 1511              	.LLST0:
 1512 0000 00000000 		.4byte	.LVL1
 1513 0004 2C000000 		.4byte	.LVL12
 1514 0008 0100     		.2byte	0x1
 1515 000a 50       		.byte	0x50
 1516 000b 2C000000 		.4byte	.LVL12
 1517 000f 2E000000 		.4byte	.LVL13
 1518 0013 0300     		.2byte	0x3
 1519 0015 70       		.byte	0x70
 1520 0016 01       		.sleb128 1
 1521 0017 9F       		.byte	0x9f
 1522 0018 2E000000 		.4byte	.LVL13
 1523 001c 3A000000 		.4byte	.LFE64
 1524 0020 0100     		.2byte	0x1
 1525 0022 50       		.byte	0x50
 1526 0023 00000000 		.4byte	0
 1527 0027 00000000 		.4byte	0
 1528              	.LLST1:
 1529 002b 00000000 		.4byte	.LVL1
 1530 002f 2E000000 		.4byte	.LVL13
 1531 0033 0100     		.2byte	0x1
 1532 0035 51       		.byte	0x51
 1533 0036 2E000000 		.4byte	.LVL13
 1534 003a 30000000 		.4byte	.LVL14
 1535 003e 0300     		.2byte	0x3
 1536 0040 71       		.byte	0x71
 1537 0041 02       		.sleb128 2
 1538 0042 9F       		.byte	0x9f
 1539 0043 30000000 		.4byte	.LVL14
 1540 0047 3A000000 		.4byte	.LFE64
 1541 004b 0100     		.2byte	0x1
 1542 004d 51       		.byte	0x51
 1543 004e 00000000 		.4byte	0
 1544 0052 00000000 		.4byte	0
 1545              	.LLST2:
 1546 0056 0E000000 		.4byte	.LVL4
 1547 005a 12000000 		.4byte	.LVL5
 1548 005e 0100     		.2byte	0x1
 1549 0060 53       		.byte	0x53
 1550 0061 12000000 		.4byte	.LVL5
 1551 0065 1C000000 		.4byte	.LVL6
 1552 0069 0100     		.2byte	0x1
 1553 006b 54       		.byte	0x54
 1554 006c 1C000000 		.4byte	.LVL6
 1555 0070 20000000 		.4byte	.LVL7
 1556 0074 0100     		.2byte	0x1
 1557 0076 53       		.byte	0x53
 1558 0077 20000000 		.4byte	.LVL7
 1559 007b 22000000 		.4byte	.LVL8
 1560 007f 1700     		.2byte	0x17
 1561 0081 31       		.byte	0x31
 1562 0082 75       		.byte	0x75
 1563 0083 00       		.sleb128 0
 1564 0084 24       		.byte	0x24
 1565 0085 70       		.byte	0x70
ARM GAS  C:\Users\antarp\AppData\Local\Temp\ccZbt3Zo.s 			page 33


 1566 0086 00       		.sleb128 0
 1567 0087 94       		.byte	0x94
 1568 0088 01       		.byte	0x1
 1569 0089 08       		.byte	0x8
 1570 008a FF       		.byte	0xff
 1571 008b 1A       		.byte	0x1a
 1572 008c 1A       		.byte	0x1a
 1573 008d 75       		.byte	0x75
 1574 008e 00       		.sleb128 0
 1575 008f 26       		.byte	0x26
 1576 0090 0A       		.byte	0xa
 1577 0091 FFFF     		.2byte	0xffff
 1578 0093 1A       		.byte	0x1a
 1579 0094 77       		.byte	0x77
 1580 0095 00       		.sleb128 0
 1581 0096 24       		.byte	0x24
 1582 0097 9F       		.byte	0x9f
 1583 0098 00000000 		.4byte	0
 1584 009c 00000000 		.4byte	0
 1585              	.LLST3:
 1586 00a0 02000000 		.4byte	.LVL2
 1587 00a4 06000000 		.4byte	.LVL3
 1588 00a8 0200     		.2byte	0x2
 1589 00aa 30       		.byte	0x30
 1590 00ab 9F       		.byte	0x9f
 1591 00ac 06000000 		.4byte	.LVL3
 1592 00b0 38000000 		.4byte	.LVL16
 1593 00b4 0100     		.2byte	0x1
 1594 00b6 56       		.byte	0x56
 1595 00b7 00000000 		.4byte	0
 1596 00bb 00000000 		.4byte	0
 1597              	.LLST4:
 1598 00bf 06000000 		.4byte	.LVL3
 1599 00c3 26000000 		.4byte	.LVL10
 1600 00c7 0100     		.2byte	0x1
 1601 00c9 55       		.byte	0x55
 1602 00ca 28000000 		.4byte	.LVL11
 1603 00ce 32000000 		.4byte	.LVL15
 1604 00d2 0100     		.2byte	0x1
 1605 00d4 55       		.byte	0x55
 1606 00d5 00000000 		.4byte	0
 1607 00d9 00000000 		.4byte	0
 1608              	.LLST5:
 1609 00dd 02000000 		.4byte	.LVL17
 1610 00e1 06000000 		.4byte	.LVL18
 1611 00e5 0200     		.2byte	0x2
 1612 00e7 30       		.byte	0x30
 1613 00e8 9F       		.byte	0x9f
 1614 00e9 06000000 		.4byte	.LVL18
 1615 00ed 70000000 		.4byte	.LVL32
 1616 00f1 0100     		.2byte	0x1
 1617 00f3 55       		.byte	0x55
 1618 00f4 00000000 		.4byte	0
 1619 00f8 00000000 		.4byte	0
 1620              	.LLST6:
 1621 00fc 1A000000 		.4byte	.LVL19
 1622 0100 1E000000 		.4byte	.LVL21
ARM GAS  C:\Users\antarp\AppData\Local\Temp\ccZbt3Zo.s 			page 34


 1623 0104 0100     		.2byte	0x1
 1624 0106 50       		.byte	0x50
 1625 0107 1E000000 		.4byte	.LVL21
 1626 010b 21000000 		.4byte	.LVL22-1
 1627 010f 1700     		.2byte	0x17
 1628 0111 75       		.byte	0x75
 1629 0112 00       		.sleb128 0
 1630 0113 31       		.byte	0x31
 1631 0114 24       		.byte	0x24
 1632 0115 03       		.byte	0x3
 1633 0116 00000000 		.4byte	.LANCHOR0
 1634 011a 22       		.byte	0x22
 1635 011b 94       		.byte	0x94
 1636 011c 02       		.byte	0x2
 1637 011d 0A       		.byte	0xa
 1638 011e FFFF     		.2byte	0xffff
 1639 0120 1A       		.byte	0x1a
 1640 0121 73       		.byte	0x73
 1641 0122 00       		.sleb128 0
 1642 0123 1A       		.byte	0x1a
 1643 0124 74       		.byte	0x74
 1644 0125 00       		.sleb128 0
 1645 0126 26       		.byte	0x26
 1646 0127 9F       		.byte	0x9f
 1647 0128 00000000 		.4byte	0
 1648 012c 00000000 		.4byte	0
 1649              	.LLST7:
 1650 0130 06000000 		.4byte	.LVL18
 1651 0134 2E000000 		.4byte	.LVL25
 1652 0138 0100     		.2byte	0x1
 1653 013a 54       		.byte	0x54
 1654 013b 30000000 		.4byte	.LVL26
 1655 013f 36000000 		.4byte	.LVL27
 1656 0143 0100     		.2byte	0x1
 1657 0145 54       		.byte	0x54
 1658 0146 00000000 		.4byte	0
 1659 014a 00000000 		.4byte	0
 1660              	.LLST8:
 1661 014e 58000000 		.4byte	.LVL28
 1662 0152 5A000000 		.4byte	.LVL29
 1663 0156 0200     		.2byte	0x2
 1664 0158 30       		.byte	0x30
 1665 0159 9F       		.byte	0x9f
 1666 015a 5A000000 		.4byte	.LVL29
 1667 015e 6E000000 		.4byte	.LVL31
 1668 0162 0100     		.2byte	0x1
 1669 0164 53       		.byte	0x53
 1670 0165 00000000 		.4byte	0
 1671 0169 00000000 		.4byte	0
 1672              	.LLST9:
 1673 016d 00000000 		.4byte	.LVL33
 1674 0171 22000000 		.4byte	.LVL34
 1675 0175 0100     		.2byte	0x1
 1676 0177 50       		.byte	0x50
 1677 0178 22000000 		.4byte	.LVL34
 1678 017c 25000000 		.4byte	.LVL35-1
 1679 0180 0500     		.2byte	0x5
ARM GAS  C:\Users\antarp\AppData\Local\Temp\ccZbt3Zo.s 			page 35


 1680 0182 03       		.byte	0x3
 1681 0183 06000000 		.4byte	double_buffer+6
 1682 0187 25000000 		.4byte	.LVL35-1
 1683 018b 2E000000 		.4byte	.LVL37
 1684 018f 0400     		.2byte	0x4
 1685 0191 F3       		.byte	0xf3
 1686 0192 01       		.uleb128 0x1
 1687 0193 50       		.byte	0x50
 1688 0194 9F       		.byte	0x9f
 1689 0195 2E000000 		.4byte	.LVL37
 1690 0199 4A000000 		.4byte	.LVL43
 1691 019d 0500     		.2byte	0x5
 1692 019f 03       		.byte	0x3
 1693 01a0 06000000 		.4byte	double_buffer+6
 1694 01a4 4A000000 		.4byte	.LVL43
 1695 01a8 4E000000 		.4byte	.LVL44
 1696 01ac 0100     		.2byte	0x1
 1697 01ae 50       		.byte	0x50
 1698 01af 4E000000 		.4byte	.LVL44
 1699 01b3 5E000000 		.4byte	.LVL46
 1700 01b7 0500     		.2byte	0x5
 1701 01b9 03       		.byte	0x3
 1702 01ba 06000000 		.4byte	double_buffer+6
 1703 01be 5E000000 		.4byte	.LVL46
 1704 01c2 78000000 		.4byte	.LFE67
 1705 01c6 0400     		.2byte	0x4
 1706 01c8 F3       		.byte	0xf3
 1707 01c9 01       		.uleb128 0x1
 1708 01ca 50       		.byte	0x50
 1709 01cb 9F       		.byte	0x9f
 1710 01cc 00000000 		.4byte	0
 1711 01d0 00000000 		.4byte	0
 1712              	.LLST10:
 1713 01d4 36000000 		.4byte	.LVL38
 1714 01d8 3A000000 		.4byte	.LVL39
 1715 01dc 0100     		.2byte	0x1
 1716 01de 53       		.byte	0x53
 1717 01df 3A000000 		.4byte	.LVL39
 1718 01e3 44000000 		.4byte	.LVL40
 1719 01e7 0100     		.2byte	0x1
 1720 01e9 52       		.byte	0x52
 1721 01ea 44000000 		.4byte	.LVL40
 1722 01ee 4A000000 		.4byte	.LVL43
 1723 01f2 0100     		.2byte	0x1
 1724 01f4 53       		.byte	0x53
 1725 01f5 00000000 		.4byte	0
 1726 01f9 00000000 		.4byte	0
 1727              	.LLST11:
 1728 01fd 2E000000 		.4byte	.LVL37
 1729 0201 4A000000 		.4byte	.LVL43
 1730 0205 0100     		.2byte	0x1
 1731 0207 54       		.byte	0x54
 1732 0208 4E000000 		.4byte	.LVL44
 1733 020c 56000000 		.4byte	.LVL45
 1734 0210 0100     		.2byte	0x1
 1735 0212 54       		.byte	0x54
 1736 0213 00000000 		.4byte	0
ARM GAS  C:\Users\antarp\AppData\Local\Temp\ccZbt3Zo.s 			page 36


 1737 0217 00000000 		.4byte	0
 1738              	.LLST12:
 1739 021b 2E000000 		.4byte	.LVL37
 1740 021f 4A000000 		.4byte	.LVL43
 1741 0223 0100     		.2byte	0x1
 1742 0225 51       		.byte	0x51
 1743 0226 4E000000 		.4byte	.LVL44
 1744 022a 5E000000 		.4byte	.LVL46
 1745 022e 0100     		.2byte	0x1
 1746 0230 51       		.byte	0x51
 1747 0231 00000000 		.4byte	0
 1748 0235 00000000 		.4byte	0
 1749              	.LLST13:
 1750 0239 2E000000 		.4byte	.LVL53
 1751 023d 7A000000 		.4byte	.LVL57
 1752 0241 0100     		.2byte	0x1
 1753 0243 54       		.byte	0x54
 1754 0244 00000000 		.4byte	0
 1755 0248 00000000 		.4byte	0
 1756              	.LLST14:
 1757 024c 8C000000 		.4byte	.LVL58
 1758 0250 8E000000 		.4byte	.LVL59
 1759 0254 0100     		.2byte	0x1
 1760 0256 50       		.byte	0x50
 1761 0257 00000000 		.4byte	0
 1762 025b 00000000 		.4byte	0
 1763              		.section	.debug_aranges,"",%progbits
 1764 0000 3C000000 		.4byte	0x3c
 1765 0004 0200     		.2byte	0x2
 1766 0006 00000000 		.4byte	.Ldebug_info0
 1767 000a 04       		.byte	0x4
 1768 000b 00       		.byte	0
 1769 000c 0000     		.2byte	0
 1770 000e 0000     		.2byte	0
 1771 0010 00000000 		.4byte	.LFB63
 1772 0014 20000000 		.4byte	.LFE63-.LFB63
 1773 0018 00000000 		.4byte	.LFB64
 1774 001c 3A000000 		.4byte	.LFE64-.LFB64
 1775 0020 00000000 		.4byte	.LFB66
 1776 0024 7C000000 		.4byte	.LFE66-.LFB66
 1777 0028 00000000 		.4byte	.LFB67
 1778 002c 78000000 		.4byte	.LFE67-.LFB67
 1779 0030 00000000 		.4byte	.LFB65
 1780 0034 C0000000 		.4byte	.LFE65-.LFB65
 1781 0038 00000000 		.4byte	0
 1782 003c 00000000 		.4byte	0
 1783              		.section	.debug_ranges,"",%progbits
 1784              	.Ldebug_ranges0:
 1785 0000 06000000 		.4byte	.LBB3
 1786 0004 26000000 		.4byte	.LBE3
 1787 0008 28000000 		.4byte	.LBB4
 1788 000c 2C000000 		.4byte	.LBE4
 1789 0010 00000000 		.4byte	0
 1790 0014 00000000 		.4byte	0
 1791 0018 06000000 		.4byte	.LBB5
 1792 001c 2E000000 		.4byte	.LBE5
 1793 0020 30000000 		.4byte	.LBB6
ARM GAS  C:\Users\antarp\AppData\Local\Temp\ccZbt3Zo.s 			page 37


 1794 0024 34000000 		.4byte	.LBE6
 1795 0028 00000000 		.4byte	0
 1796 002c 00000000 		.4byte	0
 1797 0030 2E000000 		.4byte	.LBB8
 1798 0034 4A000000 		.4byte	.LBE8
 1799 0038 4E000000 		.4byte	.LBB11
 1800 003c 5E000000 		.4byte	.LBE11
 1801 0040 00000000 		.4byte	0
 1802 0044 00000000 		.4byte	0
 1803 0048 2E000000 		.4byte	.LBB9
 1804 004c 4A000000 		.4byte	.LBE9
 1805 0050 4E000000 		.4byte	.LBB10
 1806 0054 52000000 		.4byte	.LBE10
 1807 0058 00000000 		.4byte	0
 1808 005c 00000000 		.4byte	0
 1809 0060 00000000 		.4byte	.LFB63
 1810 0064 20000000 		.4byte	.LFE63
 1811 0068 00000000 		.4byte	.LFB64
 1812 006c 3A000000 		.4byte	.LFE64
 1813 0070 00000000 		.4byte	.LFB66
 1814 0074 7C000000 		.4byte	.LFE66
 1815 0078 00000000 		.4byte	.LFB67
 1816 007c 78000000 		.4byte	.LFE67
 1817 0080 00000000 		.4byte	.LFB65
 1818 0084 C0000000 		.4byte	.LFE65
 1819 0088 00000000 		.4byte	0
 1820 008c 00000000 		.4byte	0
 1821              		.section	.debug_line,"",%progbits
 1822              	.Ldebug_line0:
 1823 0000 CE020000 		.section	.debug_str,"MS",%progbits,1
 1823      0200C301 
 1823      00000201 
 1823      FB0E0D00 
 1823      01010101 
 1824              	.LASF6:
 1825 0000 6C6F6E67 		.ascii	"long long int\000"
 1825      206C6F6E 
 1825      6720696E 
 1825      7400
 1826              	.LASF25:
 1827 000e 68656164 		.ascii	"header\000"
 1827      657200
 1828              	.LASF9:
 1829 0015 5F5F696E 		.ascii	"__int32_t\000"
 1829      7433325F 
 1829      7400
 1830              	.LASF49:
 1831 001f 55534255 		.ascii	"USBUART_GetAll\000"
 1831      4152545F 
 1831      47657441 
 1831      6C6C00
 1832              	.LASF30:
 1833 002e 66756C6C 		.ascii	"full_buffer\000"
 1833      5F627566 
 1833      66657200 
 1834              	.LASF51:
 1835 003a 55534255 		.ascii	"USBUART_PutData\000"
ARM GAS  C:\Users\antarp\AppData\Local\Temp\ccZbt3Zo.s 			page 38


 1835      4152545F 
 1835      50757444 
 1835      61746100 
 1836              	.LASF46:
 1837 004a 55534255 		.ascii	"USBUART_GetConfiguration\000"
 1837      4152545F 
 1837      47657443 
 1837      6F6E6669 
 1837      67757261 
 1838              	.LASF50:
 1839 0063 55534255 		.ascii	"USBUART_CDCIsReady\000"
 1839      4152545F 
 1839      43444349 
 1839      73526561 
 1839      647900
 1840              	.LASF13:
 1841 0076 666C6F61 		.ascii	"float\000"
 1841      7400
 1842              	.LASF36:
 1843 007c 636F756E 		.ascii	"counter\000"
 1843      74657200 
 1844              	.LASF53:
 1845 0084 7472616E 		.ascii	"transmit.c\000"
 1845      736D6974 
 1845      2E6300
 1846              	.LASF1:
 1847 008f 756E7369 		.ascii	"unsigned char\000"
 1847      676E6564 
 1847      20636861 
 1847      7200
 1848              	.LASF52:
 1849 009d 474E5520 		.ascii	"GNU C11 5.4.1 20160609 (release) [ARM/embedded-5-br"
 1849      43313120 
 1849      352E342E 
 1849      31203230 
 1849      31363036 
 1850 00d0 616E6368 		.ascii	"anch revision 237715] -mcpu=cortex-m3 -mthumb -g -O"
 1850      20726576 
 1850      6973696F 
 1850      6E203233 
 1850      37373135 
 1851 0103 67202D66 		.ascii	"g -ffunction-sections -ffat-lto-objects\000"
 1851      66756E63 
 1851      74696F6E 
 1851      2D736563 
 1851      74696F6E 
 1852              	.LASF26:
 1853 012b 61646472 		.ascii	"address\000"
 1853      65737300 
 1854              	.LASF5:
 1855 0133 6C6F6E67 		.ascii	"long unsigned int\000"
 1855      20756E73 
 1855      69676E65 
 1855      6420696E 
 1855      7400
 1856              	.LASF21:
 1857 0145 74656D70 		.ascii	"temp\000"
ARM GAS  C:\Users\antarp\AppData\Local\Temp\ccZbt3Zo.s 			page 39


 1857      00
 1858              	.LASF31:
 1859 014a 61646472 		.ascii	"addr\000"
 1859      00
 1860              	.LASF37:
 1861 014f 646F7562 		.ascii	"double_buffer\000"
 1861      6C655F62 
 1861      75666665 
 1861      7200
 1862              	.LASF38:
 1863 015d 68617665 		.ascii	"have_dest_address\000"
 1863      5F646573 
 1863      745F6164 
 1863      64726573 
 1863      7300
 1864              	.LASF28:
 1865 016f 75617274 		.ascii	"uart_getdata\000"
 1865      5F676574 
 1865      64617461 
 1865      00
 1866              	.LASF32:
 1867 017c 49544D5F 		.ascii	"ITM_RxBuffer\000"
 1867      52784275 
 1867      66666572 
 1867      00
 1868              	.LASF24:
 1869 0189 6164645F 		.ascii	"add_zeros\000"
 1869      7A65726F 
 1869      7300
 1870              	.LASF14:
 1871 0193 646F7562 		.ascii	"double\000"
 1871      6C6500
 1872              	.LASF12:
 1873 019a 75696E74 		.ascii	"uint16\000"
 1873      313600
 1874              	.LASF22:
 1875 01a1 75617274 		.ascii	"uart_init\000"
 1875      5F696E69 
 1875      7400
 1876              	.LASF45:
 1877 01ab 55534255 		.ascii	"USBUART_IsConfigurationChanged\000"
 1877      4152545F 
 1877      4973436F 
 1877      6E666967 
 1877      75726174 
 1878              	.LASF43:
 1879 01ca 4C43445F 		.ascii	"LCD_PrintString\000"
 1879      5072696E 
 1879      74537472 
 1879      696E6700 
 1880              	.LASF41:
 1881 01da 43794465 		.ascii	"CyDelayUs\000"
 1881      6C617955 
 1881      7300
 1882              	.LASF33:
 1883 01e4 666C6167 		.ascii	"flag\000"
 1883      00
ARM GAS  C:\Users\antarp\AppData\Local\Temp\ccZbt3Zo.s 			page 40


 1884              	.LASF39:
 1885 01e9 55534255 		.ascii	"USBUART_Start\000"
 1885      4152545F 
 1885      53746172 
 1885      7400
 1886              	.LASF8:
 1887 01f7 756E7369 		.ascii	"unsigned int\000"
 1887      676E6564 
 1887      20696E74 
 1887      00
 1888              	.LASF47:
 1889 0204 55534255 		.ascii	"USBUART_CDC_Init\000"
 1889      4152545F 
 1889      4344435F 
 1889      496E6974 
 1889      00
 1890              	.LASF7:
 1891 0215 6C6F6E67 		.ascii	"long long unsigned int\000"
 1891      206C6F6E 
 1891      6720756E 
 1891      7369676E 
 1891      65642069 
 1892              	.LASF42:
 1893 022c 4C43445F 		.ascii	"LCD_Position\000"
 1893      506F7369 
 1893      74696F6E 
 1893      00
 1894              	.LASF27:
 1895 0239 72657375 		.ascii	"result\000"
 1895      6C7400
 1896              	.LASF48:
 1897 0240 55534255 		.ascii	"USBUART_DataIsReady\000"
 1897      4152545F 
 1897      44617461 
 1897      49735265 
 1897      61647900 
 1898              	.LASF23:
 1899 0254 7472616E 		.ascii	"transmit\000"
 1899      736D6974 
 1899      00
 1900              	.LASF11:
 1901 025d 75696E74 		.ascii	"uint8\000"
 1901      3800
 1902              	.LASF54:
 1903 0263 433A5C55 		.ascii	"C:\\Users\\antarp\\Documents\\CE4950\\Networking\\P"
 1903      73657273 
 1903      5C616E74 
 1903      6172705C 
 1903      446F6375 
 1904 0290 726F6A65 		.ascii	"roject1.cydsn\000"
 1904      6374312E 
 1904      63796473 
 1904      6E00
 1905              	.LASF10:
 1906 029e 696E7433 		.ascii	"int32_t\000"
 1906      325F7400 
 1907              	.LASF17:
ARM GAS  C:\Users\antarp\AppData\Local\Temp\ccZbt3Zo.s 			page 41


 1908 02a6 73697A65 		.ascii	"sizetype\000"
 1908      74797065 
 1908      00
 1909              	.LASF35:
 1910 02af 72656365 		.ascii	"receive_bit_counter\000"
 1910      6976655F 
 1910      6269745F 
 1910      636F756E 
 1910      74657200 
 1911              	.LASF34:
 1912 02c3 69735472 		.ascii	"isTransmitting\000"
 1912      616E736D 
 1912      69747469 
 1912      6E6700
 1913              	.LASF15:
 1914 02d2 63686172 		.ascii	"char\000"
 1914      00
 1915              	.LASF20:
 1916 02d7 636F756E 		.ascii	"count\000"
 1916      7400
 1917              	.LASF44:
 1918 02dd 6765745F 		.ascii	"get_dest_address\000"
 1918      64657374 
 1918      5F616464 
 1918      72657373 
 1918      00
 1919              	.LASF2:
 1920 02ee 73686F72 		.ascii	"short int\000"
 1920      7420696E 
 1920      7400
 1921              	.LASF29:
 1922 02f8 62756666 		.ascii	"buffer\000"
 1922      657200
 1923              	.LASF40:
 1924 02ff 7472616E 		.ascii	"transmitted_data_Write\000"
 1924      736D6974 
 1924      7465645F 
 1924      64617461 
 1924      5F577269 
 1925              	.LASF4:
 1926 0316 6C6F6E67 		.ascii	"long int\000"
 1926      20696E74 
 1926      00
 1927              	.LASF16:
 1928 031f 6C6F6E67 		.ascii	"long double\000"
 1928      20646F75 
 1928      626C6500 
 1929              	.LASF0:
 1930 032b 7369676E 		.ascii	"signed char\000"
 1930      65642063 
 1930      68617200 
 1931              	.LASF3:
 1932 0337 73686F72 		.ascii	"short unsigned int\000"
 1932      7420756E 
 1932      7369676E 
 1932      65642069 
 1932      6E7400
ARM GAS  C:\Users\antarp\AppData\Local\Temp\ccZbt3Zo.s 			page 42


 1933              	.LASF19:
 1934 034a 62756666 		.ascii	"buffer_dest\000"
 1934      65725F64 
 1934      65737400 
 1935              	.LASF18:
 1936 0356 62756666 		.ascii	"buffer_source\000"
 1936      65725F73 
 1936      6F757263 
 1936      6500
 1937              		.ident	"GCC: (GNU Tools for ARM Embedded Processors) 5.4.1 20160609 (release) [ARM/embedded-5-bran
